%!PS-Adobe-2.0 EPSF-2.0
%%BoundingBox:  0 0 567 354
%%Title: : c_corrMatrix_RooExpandedFitResult_afterFit
%%Creator: ROOT Version 6.10/06
%%CreationDate: Wed Apr 29 10:13:47 2020
%%DocumentNeededResources: ProcSet (FontSetInit)
%%EndComments
%%BeginProlog
80 dict begin
/s {stroke} def /l {lineto} def /m {moveto} def /t {translate} def
/r {rotate} def /rl {roll}  def /R {repeat} def
/d {rlineto} def /rm {rmoveto} def /gr {grestore} def /f {eofill} def
/c {setrgbcolor} def /black {0 setgray} def /sd {setdash} def
/cl {closepath} def /sf {scalefont setfont} def /lw {setlinewidth} def
/box {m dup 0 exch d exch 0 d 0 exch neg d cl} def
/NC{systemdict begin initclip end}def/C{NC box clip newpath}def
/bl {box s} def /bf {gsave box gsave f grestore 1 lw [] 0 sd s grestore} def /Y { 0 exch d} def /X { 0 d} def 
/K {{pop pop 0 moveto} exch kshow} bind def
/ita {/ang 15 def gsave [1 0 ang dup sin exch cos div 1 0 0] concat} def 
/mp {newpath /y exch def /x exch def} def
/side {[w .77 mul w .23 mul] .385 w mul sd w 0 l currentpoint t -144 r} def
/mr {mp x y w2 0 360 arc} def /m24 {mr s} def /m20 {mr f} def
/mb {mp x y w2 add m w2 neg 0 d 0 w neg d w 0 d 0 w d cl} def
/mt {mp x y w2 add m w2 neg w neg d w 0 d cl} def
/w4 {w 4 div} def
/w6 {w 6 div} def
/w8 {w 8 div} def
/m21 {mb f} def /m25 {mb s} def /m22 {mt f} def /m26{mt s} def
/m23 {mp x y w2 sub m w2 w d w neg 0 d cl f} def
/m27 {mp x y w2 add m w3 neg w2 neg d w3 w2 neg d w3 w2 d cl s} def
/m28 {mp x w2 sub y w2 sub w3 add m w3 0 d  0 w3 neg d w3 0 d 0 w3 d w3 0 d  0 w3 d w3 neg 0 d 0 w3 d w3 neg 0 d 0 w3 neg d w3 neg 0 d cl s } def
/m29 {mp gsave x w2 sub y w2 add w3 sub m currentpoint t 4 {side} repeat cl fill gr} def
/m30 {mp gsave x w2 sub y w2 add w3 sub m currentpoint t 4 {side} repeat cl s gr} def
/m31 {mp x y w2 sub m 0 w d x w2 sub y m w 0 d x w2 sub y w2 add m w w neg d x w2 sub y w2 sub m w w d s} def
/m32 {mp x y w2 sub m w2 w d w neg 0 d cl s} def
/m33 {mp x y w2 add m w3 neg w2 neg d w3 w2 neg d w3 w2 d cl f} def
/m34 {mp x w2 sub y w2 sub w3 add m w3 0 d  0 w3 neg d w3 0 d 0 w3 d w3 0 d  0 w3 d w3 neg 0 d 0 w3 d w3 neg 0 d 0 w3 neg d w3 neg 0 d cl f } def
/m35 {mp x y w2 add m w2 neg w2 neg d w2 w2 neg d w2 w2 d w2 neg w2 d x y w2 sub m 0 w d x w2 sub y m w 0 d s} def
/m36 {mb x w2 sub y w2 add m w w neg d x w2 sub y w2 sub m w w d s} def
/m37 {mp x y m w4 neg w2 d w4 neg w2 neg d w2 0 d  w4 neg w2 neg d w2 0 d w4 neg w2 d w2 0 d w4 neg w2 d w4 neg w2 neg d cl s} def
/m38 {mp x w4 sub y w2 add m w4 neg w4 neg d 0 w2 neg d w4 w4 neg d w2 0 d w4 w4 d 0 w2 d w4 neg w4 d w2 neg 0 d x y w2 sub m 0 w d x w2 sub y m w 0 d cl s} def
/m39 {mp x y m w4 neg w2 d w4 neg w2 neg d w2 0 d  w4 neg w2 neg d w2 0 d w4 neg w2 d w2 0 d w4 neg w2 d w4 neg w2 neg d cl f} def
/m40 {mp x y m w4 w2 d w4 w4 neg d w2 neg w4 neg d w2 w4 neg d w4 neg w4 neg d w4 neg w2 d w4 neg w2 neg d w4 neg w4 d w2 w4 d w2 neg w4 d w4 w4 d w4 w2 neg d cl s} def
/m41 {mp x y m w4 w2 d w4 w4 neg d w2 neg w4 neg d w2 w4 neg d w4 neg w4 neg d w4 neg w2 d w4 neg w2 neg d w4 neg w4 d w2 w4 d w2 neg w4 d w4 w4 d w4 w2 neg d cl f} def
/m42 {mp x y w2 add m w8 neg w2 -3 4 div mul d w2 -3 4 div mul w8 neg d w2 3 4 div mul w8 neg d w8 w2 -3 4 div mul d w8 w2 3 4 div mul d w2 3 4 div mul w8 d w2 -3 4 div mul w8 d w8 neg w2 3 4 div mul d cl s} def
/m43 {mp x y w2 add m w8 neg w2 -3 4 div mul d w2 -3 4 div mul w8 neg d w2 3 4 div mul w8 neg d w8 w2 -3 4 div mul d w8 w2 3 4 div mul d w2 3 4 div mul w8 d w2 -3 4 div mul w8 d w8 neg w2 3 4 div mul d cl f} def
/m44 {mp x y m w6 neg w2 d w2 2 3 div mul 0 d w6 neg w2 neg d w2 w6 d 0 w2 -2 3 div mul d w2 neg w6 d w6 w2 neg d w2 -2 3 div mul 0 d w6 w2 d w2 neg w6 neg d 0 w2 2 3 div mul d w2 w6 neg d cl s} def
/m45 {mp x y m w6 neg w2 d w2 2 3 div mul 0 d w6 neg w2 neg d w2 w6 d 0 w2 -2 3 div mul d w2 neg w6 d w6 w2 neg d w2 -2 3 div mul 0 d w6 w2 d w2 neg w6 neg d 0 w2 2 3 div mul d w2 w6 neg d cl f} def
/m46 {mp x y w4 add m w4 neg w4 d w4 neg w4 neg d  w4 w4 neg d w4 neg w4 neg d w4 w4 neg d w4 w4 d w4 w4 neg d w4 w4 d w4 neg w4 d w4 w4 d w4 neg w4 d w4 neg w4 neg d cl s} def
/m47 {mp x y w4 add m w4 neg w4 d w4 neg w4 neg d w4 w4 neg d w4 neg w4 neg d  w4 w4 neg d w4 w4 d w4 w4 neg d w4 w4 d w4 neg w4 d w4 w4 d w4 neg w4 d w4 neg w4 neg d cl f} def
/m48 {mp x y w4 add m w4 neg w4 d w4 neg w4 neg d w4 w4 neg d  w4 neg w4 neg d w4 w4 neg d w4 w4 d w4 w4 neg d w4 w4 d w4 neg w4 d w4 w4 d w4 neg w4 d w4 neg w4 neg d  w4 w4 neg d w4 neg w4 neg d w4 neg w4 d w4 w4 d cl f} def
/m49 {mp x w2 sub w3 add y w2 sub w3 add m  0 w3 neg d w3 0 d 0 w3 d w3 0 d 0 w3 d w3 neg 0 d 0 w3 d w3 neg 0 d 0 w3 neg d w3 neg 0 d 0 w3 neg d w3 0 d 0 w3 d w3 0 d 0 w3 neg d w3 neg 0 d cl f } def
/m2 {mp x y w2 sub m 0 w d x w2 sub y m w 0 d s} def
/m5 {mp x w2 sub y w2 sub m w w d x w2 sub y w2 add m w w neg d s} def
%%IncludeResource: ProcSet (FontSetInit)
%%IncludeResource: font Times-Roman
%%IncludeResource: font Times-Italic
%%IncludeResource: font Times-Bold
%%IncludeResource: font Times-BoldItalic
%%IncludeResource: font Helvetica
%%IncludeResource: font Helvetica-Oblique
%%IncludeResource: font Helvetica-Bold
%%IncludeResource: font Helvetica-BoldOblique
%%IncludeResource: font Courier
%%IncludeResource: font Courier-Oblique
%%IncludeResource: font Courier-Bold
%%IncludeResource: font Courier-BoldOblique
%%IncludeResource: font Symbol
%%IncludeResource: font ZapfDingbats
/reEncode {exch findfont dup length dict begin {1 index /FID eq  {pop pop} {def} ifelse } forall /Encoding exch def currentdict end dup /FontName get exch definefont pop } def [/Times-Bold /Times-Italic /Times-BoldItalic /Helvetica /Helvetica-Oblique
 /Helvetica-Bold /Helvetica-BoldOblique /Courier /Courier-Oblique /Courier-Bold /Courier-BoldOblique /Times-Roman /AvantGarde-Book /AvantGarde-BookOblique /AvantGarde-Demi /AvantGarde-DemiOblique /Bookman-Demi /Bookman-DemiItalic /Bookman-Light
 /Bookman-LightItalic /Helvetica-Narrow /Helvetica-Narrow-Bold /Helvetica-Narrow-BoldOblique /Helvetica-Narrow-Oblique /NewCenturySchlbk-Roman /NewCenturySchlbk-Bold /NewCenturySchlbk-BoldItalic /NewCenturySchlbk-Italic /Palatino-Bold
 /Palatino-BoldItalic /Palatino-Italic /Palatino-Roman ] {ISOLatin1Encoding reEncode } forall
%%EndProlog
%%BeginSetup
%%EndSetup
newpath  gsave  .25 .25 scale  gsave  0 0 t black[  ] 0 sd 3 lw 1 1 1 c 2268 1415 0 0 bf black 1 1 1 c 1565 1132 408 142 bf black 1565 1132 408 142 bl 1 1 1 c 1565 1132 408 142 bf black 1565 1132 408 142 bl 1 1 1 c 0.0718137 0.0335784 0.320588 c 121
 87 408 142 bf 0.0829657 0.0893382 0.352451 c 120 87 529 142 bf 120 87 649 142 bf 0.0718137 0.0335784 0.320588 c 121 87 769 142 bf 0.0509804 0 0.231373 c 120 87 890 142 bf 0.0637255 0.00637255 0.291912 c 120 87 1010 142 bf 121 87 1130 142 bf
 0.0136622 0 0.131056 c 120 87 1251 142 bf 120 87 1371 142 bf 0.0446078 0 0.204289 c 121 87 1491 142 bf 0.0637255 0.00637255 0.291912 c 120 87 1612 142 bf 0.0718137 0.0335784 0.320588 c 121 87 1732 142 bf 0.113235 0.859191 0.862132 c 120 87 1853 142
 bf 0.0718137 0.0335784 0.320588 c 121 87 408 229 bf 120 87 529 229 bf 120 87 649 229 bf 0.0637255 0.00637255 0.291912 c 121 87 769 229 bf 0.0573529 0.00318627 0.261642 c 120 87 890 229 bf 0.0718137 0.0335784 0.320588 c 120 87 1010 229 bf 0.0829657
 0.0893382 0.352451 c 121 87 1130 229 bf 0.0718137 0.0335784 0.320588 c 120 87 1251 229 bf 120 87 1371 229 bf 121 87 1491 229 bf 120 87 1612 229 bf 0.113235 0.859191 0.862132 c 121 87 1732 229 bf 0.0718137 0.0335784 0.320588 c 120 87 1853 229 bf 121
 87 408 316 bf 120 87 529 316 bf 120 87 649 316 bf 121 87 769 316 bf 0.0829657 0.0893382 0.352451 c 120 87 890 316 bf 0.0718137 0.0335784 0.320588 c 120 87 1010 316 bf 121 87 1130 316 bf 120 87 1251 316 bf 120 87 1371 316 bf 121 87 1491 316 bf
 0.113235 0.859191 0.862132 c 120 87 1612 316 bf 0.0718137 0.0335784 0.320588 c 121 87 1732 316 bf 0.0637255 0.00637255 0.291912 c 120 87 1853 316 bf 0.0718137 0.0335784 0.320588 c 121 87 408 403 bf 120 87 529 403 bf 120 87 649 403 bf 121 87 769 403
 bf 0.0829657 0.0893382 0.352451 c 120 87 890 403 bf 0.0718137 0.0335784 0.320588 c 120 87 1010 403 bf 121 87 1130 403 bf 120 87 1251 403 bf 120 87 1371 403 bf 0.113235 0.859191 0.862132 c 121 87 1491 403 bf 0.0718137 0.0335784 0.320588 c 120 87 1612
 403 bf 121 87 1732 403 bf 0.0446078 0 0.204289 c 120 87 1853 403 bf 0.0718137 0.0335784 0.320588 c 121 87 408 490 bf 120 87 529 490 bf 120 87 649 490 bf 121 87 769 490 bf 0.0941176 0.145098 0.384314 c 120 87 890 490 bf 0.0829657 0.0893382 0.352451 c
 120 87 1010 490 bf 121 87 1130 490 bf 0.0718137 0.0335784 0.320588 c 120 87 1251 490 bf 0.113235 0.859191 0.862132 c 120 87 1371 490 bf 0.0718137 0.0335784 0.320588 c 121 87 1491 490 bf 120 87 1612 490 bf 121 87 1732 490 bf 0.0136622 0 0.131056 c
 120 87 1853 490 bf 0.0718137 0.0335784 0.320588 c 121 87 408 577 bf 120 87 529 577 bf 120 87 649 577 bf 121 87 769 577 bf 0.0829657 0.0893382 0.352451 c 120 87 890 577 bf 0.0718137 0.0335784 0.320588 c 120 87 1010 577 bf 0.0829657 0.0893382 0.352451
 c 121 87 1130 577 bf 0.113235 0.859191 0.862132 c 120 87 1251 577 bf 0.0718137 0.0335784 0.320588 c 120 87 1371 577 bf 121 87 1491 577 bf 120 87 1612 577 bf 121 87 1732 577 bf 0.0136622 0 0.131056 c 120 87 1853 577 bf 0.0718137 0.0335784 0.320588 c
 121 87 408 664 bf 120 87 529 664 bf 120 87 649 664 bf 121 87 769 664 bf 0.0573529 0.00318627 0.261642 c 120 87 890 664 bf 0.0637255 0.00637255 0.291912 c 120 87 1010 664 bf 0.113235 0.859191 0.862132 c 121 87 1130 664 bf 0.0829657 0.0893382 0.352451
 c 120 87 1251 664 bf 120 87 1371 664 bf 0.0718137 0.0335784 0.320588 c 121 87 1491 664 bf 120 87 1612 664 bf 0.0829657 0.0893382 0.352451 c 121 87 1732 664 bf 0.0637255 0.00637255 0.291912 c 120 87 1853 664 bf 0.0829657 0.0893382 0.352451 c 121 87
 408 751 bf 120 87 529 751 bf 120 87 649 751 bf 0.0718137 0.0335784 0.320588 c 121 87 769 751 bf 0.0446078 0 0.204289 c 120 87 890 751 bf 0.113235 0.859191 0.862132 c 120 87 1010 751 bf 0.0637255 0.00637255 0.291912 c 121 87 1130 751 bf 0.0718137
 0.0335784 0.320588 c 120 87 1251 751 bf 0.0829657 0.0893382 0.352451 c 120 87 1371 751 bf 0.0718137 0.0335784 0.320588 c 121 87 1491 751 bf 120 87 1612 751 bf 121 87 1732 751 bf 0.0637255 0.00637255 0.291912 c 120 87 1853 751 bf 0.0941176 0.145098
 0.384314 c 121 87 408 838 bf 120 87 529 838 bf 120 87 649 838 bf 121 87 769 838 bf 0.113235 0.859191 0.862132 c 120 87 890 838 bf 0.0446078 0 0.204289 c 120 87 1010 838 bf 0.0573529 0.00318627 0.261642 c 121 87 1130 838 bf 0.0829657 0.0893382
 0.352451 c 120 87 1251 838 bf 0.0941176 0.145098 0.384314 c 120 87 1371 838 bf 0.0829657 0.0893382 0.352451 c 121 87 1491 838 bf 120 87 1612 838 bf 0.0573529 0.00318627 0.261642 c 121 87 1732 838 bf 0.0509804 0 0.231373 c 120 87 1853 838 bf
 0.0829657 0.0893382 0.352451 c 121 88 408 925 bf 120 88 529 925 bf 120 88 649 925 bf 0.113235 0.859191 0.862132 c 121 88 769 925 bf 0.0941176 0.145098 0.384314 c 120 88 890 925 bf 0.0718137 0.0335784 0.320588 c 120 88 1010 925 bf 121 88 1130 925 bf
 120 88 1251 925 bf 120 88 1371 925 bf 121 88 1491 925 bf 120 88 1612 925 bf 0.0637255 0.00637255 0.291912 c 121 88 1732 925 bf 0.0718137 0.0335784 0.320588 c 120 88 1853 925 bf 0.0637255 0.00637255 0.291912 c 121 87 408 1013 bf 120 87 529 1013 bf
 0.113235 0.859191 0.862132 c 120 87 649 1013 bf 0.0829657 0.0893382 0.352451 c 121 87 769 1013 bf 0.0941176 0.145098 0.384314 c 120 87 890 1013 bf 0.0829657 0.0893382 0.352451 c 120 87 1010 1013 bf 0.0718137 0.0335784 0.320588 c 121 87 1130 1013 bf
 120 87 1251 1013 bf 120 87 1371 1013 bf 121 87 1491 1013 bf 120 87 1612 1013 bf 121 87 1732 1013 bf 0.0829657 0.0893382 0.352451 c 120 87 1853 1013 bf 0.0637255 0.00637255 0.291912 c 121 87 408 1100 bf 0.113235 0.859191 0.862132 c 120 87 529 1100 bf
 0.0637255 0.00637255 0.291912 c 120 87 649 1100 bf 0.0829657 0.0893382 0.352451 c 121 87 769 1100 bf 0.0941176 0.145098 0.384314 c 120 87 890 1100 bf 0.0829657 0.0893382 0.352451 c 120 87 1010 1100 bf 0.0718137 0.0335784 0.320588 c 121 87 1130 1100
 bf 120 87 1251 1100 bf 120 87 1371 1100 bf 121 87 1491 1100 bf 120 87 1612 1100 bf 121 87 1732 1100 bf 0.0829657 0.0893382 0.352451 c 120 87 1853 1100 bf 0.113235 0.859191 0.862132 c 121 87 408 1187 bf 0.0637255 0.00637255 0.291912 c 120 87 529 1187
 bf 120 87 649 1187 bf 0.0829657 0.0893382 0.352451 c 121 87 769 1187 bf 0.0941176 0.145098 0.384314 c 120 87 890 1187 bf 0.0829657 0.0893382 0.352451 c 120 87 1010 1187 bf 0.0718137 0.0335784 0.320588 c 121 87 1130 1187 bf 120 87 1251 1187 bf 120 87
 1371 1187 bf 121 87 1491 1187 bf 120 87 1612 1187 bf 121 87 1732 1187 bf 120 87 1853 1187 bf 0.0136622 0 0.131056 c 102 56 1984 142 bf 0.028463 0 0.15408 c 102 57 1984 198 bf 0.0387255 0 0.179289 c 102 56 1984 255 bf 0.0446078 0 0.204289 c 102 57
 1984 311 bf 0.0509804 0 0.231373 c 102 57 1984 368 bf 0.0573529 0.00318627 0.261642 c 102 56 1984 425 bf 0.0637255 0.00637255 0.291912 c 102 57 1984 481 bf 0.0718137 0.0335784 0.320588 c 102 56 1984 538 bf 0.0829657 0.0893382 0.352451 c 102 57 1984
 594 bf 0.0941176 0.145098 0.384314 c 102 57 1984 651 bf 0.106863 0.204044 0.433701 c 102 56 1984 708 bf 0.118627 0.258456 0.479289 c 102 57 1984 764 bf 0.121814 0.318873 0.524265 c 102 57 1984 821 bf 0.113848 0.381005 0.564093 c 102 56 1984 878 bf
 0.105882 0.443137 0.603922 c 102 57 1984 934 bf 0.102941 0.512255 0.648039 c 102 56 1984 991 bf 0.0997549 0.587132 0.695833 c 102 57 1984 1047 bf 0.10098 0.672304 0.748775 c 102 57 1984 1104 bf 0.107353 0.769485 0.807721 c 102 56 1984 1161 bf
 0.113235 0.859191 0.862132 c 102 57 1984 1217 bf black 2086 142 m 1132 Y s 2032 150 m 54 X s 2032 290 m 54 X s 2032 431 m 54 X s 2032 571 m 54 X s 2032 712 m 54 X s 2032 852 m 54 X s 2032 993 m 54 X s 2032 1133 m 54 X s 2032 1274 m 54 X s 2032 150 m
 54 X s 2032 1274 m 54 X s
 gsave  2268 1415 0 0 C 2119.33 133.171 t 0 r /Helvetica findfont 45.6587 sf 0 0 m (0.6) show NC gr 
 gsave  2268 1415 0 0 C 2096.5 133.171 t 0 r /Symbol findfont 45.6587 sf 0 0 m (-) show NC gr 
 gsave  2268 1415 0 0 C 2119.33 273.952 t 0 r /Helvetica findfont 45.6587 sf 0 0 m (0.4) show NC gr 
 gsave  2268 1415 0 0 C 2096.5 273.952 t 0 r /Symbol findfont 45.6587 sf 0 0 m (-) show NC gr 
 gsave  2268 1415 0 0 C 2119.33 414.733 t 0 r /Helvetica findfont 45.6587 sf 0 0 m (0.2) show NC gr 
 gsave  2268 1415 0 0 C 2096.5 414.733 t 0 r /Symbol findfont 45.6587 sf 0 0 m (-) show NC gr 
 gsave  2268 1415 0 0 C 2096.5 555.514 t 0 r /Helvetica findfont 45.6587 sf 0 0 m (0) show NC gr 
 gsave  2268 1415 0 0 C 2096.5 696.295 t 0 r /Helvetica findfont 45.6587 sf 0 0 m (0.2) show NC gr 
 gsave  2268 1415 0 0 C 2096.5 833.272 t 0 r /Helvetica findfont 45.6587 sf 0 0 m (0.4) show NC gr 
 gsave  2268 1415 0 0 C 2096.5 974.053 t 0 r /Helvetica findfont 45.6587 sf 0 0 m (0.6) show NC gr 
 gsave  2268 1415 0 0 C 2096.5 1114.83 t 0 r /Helvetica findfont 45.6587 sf 0 0 m (0.8) show NC gr 
 gsave  2268 1415 0 0 C 2096.5 1255.61 t 0 r /Helvetica findfont 45.6587 sf 0 0 m (1) show NC gr  1 1 1 c black 408 142 m 1565 X s
 gsave  2268 1415 0 0 C 475.612 -133.171 t 90 r /Helvetica findfont 22.8294 sf 0 0 m (alpha_JER_EffectiveNP2) show NC gr 
 gsave  2268 1415 0 0 C 593.563 -133.171 t 90 r /Helvetica findfont 22.8294 sf 0 0 m (alpha_JER_EffectiveNP3) show NC gr 
 gsave  2268 1415 0 0 C 715.32 -129.366 t 90 r /Helvetica findfont 22.8294 sf 0 0 m (alpha_JES_GroupedNP1) show NC gr 
 gsave  2268 1415 0 0 C 833.272 -133.171 t 90 r /Helvetica findfont 22.8294 sf 0 0 m (alpha_JES_GroupedNP2) show NC gr 
 gsave  2268 1415 0 0 C 955.028 -148.391 t 90 r /Helvetica findfont 22.8294 sf 0 0 m (alpha_ttbar_Fragmentation) show NC gr 
 gsave  2268 1415 0 0 C 1076.78 -125.561 t 90 r /Helvetica findfont 22.8294 sf 0 0 m (alpha_ttbar_HardScatter) show NC gr 
 gsave  2268 1415 0 0 C 1194.74 -98.9272 t 90 r /Helvetica findfont 22.8294 sf 0 0 m (alpha_ttbar_Radiation) show NC gr 
 gsave  2268 1415 0 0 C 1316.49 -95.1223 t 90 r /Helvetica findfont 22.8294 sf 0 0 m (alpha_xsec_singletop) show NC gr 
 gsave  2268 1415 0 0 C 1438.25 -30.4391 t 90 r /Helvetica findfont 22.8294 sf 0 0 m (alpha_xsec_ttV) show NC gr 
 gsave  2268 1415 0 0 C 1556.2 -57.0734 t 90 r /Helvetica findfont 22.8294 sf 0 0 m (alpha_xsec_wjets) show NC gr 
 gsave  2268 1415 0 0 C 1677.96 -247.318 t 90 r /Helvetica findfont 22.8294 sf 0 0 m (gamma_stat_TCR_bWN_cuts_bin_0) show NC gr 
 gsave  2268 1415 0 0 C 1799.71 -201.659 t 90 r /Helvetica findfont 22.8294 sf 0 0 m (gamma_stat_bWN3_cuts_bin_0) show NC gr 
 gsave  2268 1415 0 0 C 1917.67 34.244 t 90 r /Helvetica findfont 22.8294 sf 0 0 m (mu_ttbar) show NC gr  408 171 m -29 Y s 529 171 m -29 Y s 649 171 m -29 Y s 769 171 m -29 Y s 890 171 m -29 Y s 1010 171 m -29 Y s 1130 171 m -29 Y s 1251 171 m -29 Y
 s 1371 171 m -29 Y s 1491 171 m -29 Y s 1612 171 m -29 Y s 1732 171 m -29 Y s 1853 171 m -29 Y s 1973 171 m -29 Y s 408 142 m 1132 Y s
 gsave  2268 1415 0 0 C 292.977 178.83 t 0 r /Helvetica findfont 22.8294 sf 0 0 m (mu_ttbar) show NC gr 
 gsave  2268 1415 0 0 C 57.0734 266.343 t 0 r /Helvetica findfont 22.8294 sf 0 0 m (gamma_stat_bWN3_cuts_bin_0) show NC gr 
 gsave  2268 1415 0 0 C 11.4147 353.855 t 0 r /Helvetica findfont 22.8294 sf 0 0 m (gamma_stat_TCR_bWN_cuts_bin_0) show NC gr 
 gsave  2268 1415 0 0 C 201.659 441.368 t 0 r /Helvetica findfont 22.8294 sf 0 0 m (alpha_xsec_wjets) show NC gr 
 gsave  2268 1415 0 0 C 228.294 528.88 t 0 r /Helvetica findfont 22.8294 sf 0 0 m (alpha_xsec_ttV) show NC gr 
 gsave  2268 1415 0 0 C 163.61 616.393 t 0 r /Helvetica findfont 22.8294 sf 0 0 m (alpha_xsec_singletop) show NC gr 
 gsave  2268 1415 0 0 C 159.806 700.1 t 0 r /Helvetica findfont 22.8294 sf 0 0 m (alpha_ttbar_Radiation) show NC gr 
 gsave  2268 1415 0 0 C 133.171 787.613 t 0 r /Helvetica findfont 22.8294 sf 0 0 m (alpha_ttbar_HardScatter) show NC gr 
 gsave  2268 1415 0 0 C 110.342 875.125 t 0 r /Helvetica findfont 22.8294 sf 0 0 m (alpha_ttbar_Fragmentation) show NC gr 
 gsave  2268 1415 0 0 C 125.561 962.638 t 0 r /Helvetica findfont 22.8294 sf 0 0 m (alpha_JES_GroupedNP2) show NC gr 
 gsave  2268 1415 0 0 C 129.366 1050.15 t 0 r /Helvetica findfont 22.8294 sf 0 0 m (alpha_JES_GroupedNP1) show NC gr 
 gsave  2268 1415 0 0 C 125.561 1137.66 t 0 r /Helvetica findfont 22.8294 sf 0 0 m (alpha_JER_EffectiveNP3) show NC gr 
 gsave  2268 1415 0 0 C 125.561 1225.18 t 0 r /Helvetica findfont 22.8294 sf 0 0 m (alpha_JER_EffectiveNP2) show NC gr  463 142 m -55 X s 463 229 m -55 X s 463 316 m -55 X s 463 403 m -55 X s 463 490 m -55 X s 463 577 m -55 X s 463 664 m -55 X s 463
 751 m -55 X s 463 838 m -55 X s 463 925 m -55 X s 463 1013 m -55 X s 463 1100 m -55 X s 463 1187 m -55 X s 463 1274 m -55 X s 1 1 1 c black 1 1 1 c
 gsave  2268 1415 0 0 C 460.392 182.635 t 0 r /Helvetica-Bold findfont 7.60979 sf 0 0 m (0.02) show NC gr  black 1 1 1 c
 gsave  2268 1415 0 0 C 578.344 182.635 t 0 r /Helvetica-Bold findfont 7.60979 sf 0 0 m (0.04) show NC gr  black 1 1 1 c
 gsave  2268 1415 0 0 C 700.1 182.635 t 0 r /Helvetica-Bold findfont 7.60979 sf 0 0 m (0.06) show NC gr  black 1 1 1 c
 gsave  2268 1415 0 0 C 818.052 182.635 t 0 r /Helvetica-Bold findfont 7.60979 sf 0 0 m (0.00) show NC gr  black 1 1 1 c
 gsave  2268 1415 0 0 C 936.004 182.635 t 0 r /Helvetica-Bold findfont 7.60979 sf 0 0 m (\2550.26) show NC gr  black 1 1 1 c
 gsave  2268 1415 0 0 C 1057.76 182.635 t 0 r /Helvetica-Bold findfont 7.60979 sf 0 0 m (\2550.06) show NC gr  black 1 1 1 c
 gsave  2268 1415 0 0 C 1175.71 182.635 t 0 r /Helvetica-Bold findfont 7.60979 sf 0 0 m (\2550.08) show NC gr  black 1 1 1 c
 gsave  2268 1415 0 0 C 1297.47 182.635 t 0 r /Helvetica-Bold findfont 7.60979 sf 0 0 m (\2550.61) show NC gr  black 1 1 1 c
 gsave  2268 1415 0 0 C 1419.23 182.635 t 0 r /Helvetica-Bold findfont 7.60979 sf 0 0 m (\2550.59) show NC gr  black 1 1 1 c
 gsave  2268 1415 0 0 C 1537.18 182.635 t 0 r /Helvetica-Bold findfont 7.60979 sf 0 0 m (\2550.35) show NC gr  black 1 1 1 c
 gsave  2268 1415 0 0 C 1658.93 182.635 t 0 r /Helvetica-Bold findfont 7.60979 sf 0 0 m (\2550.09) show NC gr  black 1 1 1 c
 gsave  2268 1415 0 0 C 1780.69 182.635 t 0 r /Helvetica-Bold findfont 7.60979 sf 0 0 m (\2550.00) show NC gr  black 1 1 1 c
 gsave  2268 1415 0 0 C 1902.45 182.635 t 0 r /Helvetica-Bold findfont 7.60979 sf 0 0 m (1.00) show NC gr  black 1 1 1 c
 gsave  2268 1415 0 0 C 456.587 270.147 t 0 r /Helvetica-Bold findfont 7.60979 sf 0 0 m (\2550.00) show NC gr  black 1 1 1 c
 gsave  2268 1415 0 0 C 578.344 270.147 t 0 r /Helvetica-Bold findfont 7.60979 sf 0 0 m (0.00) show NC gr  black 1 1 1 c
 gsave  2268 1415 0 0 C 700.1 270.147 t 0 r /Helvetica-Bold findfont 7.60979 sf 0 0 m (0.01) show NC gr  black 1 1 1 c
 gsave  2268 1415 0 0 C 814.247 270.147 t 0 r /Helvetica-Bold findfont 7.60979 sf 0 0 m (\2550.05) show NC gr  black 1 1 1 c
 gsave  2268 1415 0 0 C 936.004 270.147 t 0 r /Helvetica-Bold findfont 7.60979 sf 0 0 m (\2550.14) show NC gr  black 1 1 1 c
 gsave  2268 1415 0 0 C 1061.57 270.147 t 0 r /Helvetica-Bold findfont 7.60979 sf 0 0 m (0.01) show NC gr  black 1 1 1 c
 gsave  2268 1415 0 0 C 1179.52 270.147 t 0 r /Helvetica-Bold findfont 7.60979 sf 0 0 m (0.04) show NC gr  black 1 1 1 c
 gsave  2268 1415 0 0 C 1297.47 270.147 t 0 r /Helvetica-Bold findfont 7.60979 sf 0 0 m (\2550.01) show NC gr  black 1 1 1 c
 gsave  2268 1415 0 0 C 1419.23 270.147 t 0 r /Helvetica-Bold findfont 7.60979 sf 0 0 m (\2550.01) show NC gr  black 1 1 1 c
 gsave  2268 1415 0 0 C 1540.98 270.147 t 0 r /Helvetica-Bold findfont 7.60979 sf 0 0 m (0.02) show NC gr  black 1 1 1 c
 gsave  2268 1415 0 0 C 1662.74 270.147 t 0 r /Helvetica-Bold findfont 7.60979 sf 0 0 m (0.00) show NC gr  black 1 1 1 c
 gsave  2268 1415 0 0 C 1784.5 270.147 t 0 r /Helvetica-Bold findfont 7.60979 sf 0 0 m (1.00) show NC gr  black 1 1 1 c
 gsave  2268 1415 0 0 C 1898.64 270.147 t 0 r /Helvetica-Bold findfont 7.60979 sf 0 0 m (\2550.00) show NC gr  black 1 1 1 c
 gsave  2268 1415 0 0 C 456.587 357.66 t 0 r /Helvetica-Bold findfont 7.60979 sf 0 0 m (\2550.01) show NC gr  black 1 1 1 c
 gsave  2268 1415 0 0 C 574.539 357.66 t 0 r /Helvetica-Bold findfont 7.60979 sf 0 0 m (\2550.01) show NC gr  black 1 1 1 c
 gsave  2268 1415 0 0 C 696.296 357.66 t 0 r /Helvetica-Bold findfont 7.60979 sf 0 0 m (\2550.02) show NC gr  black 1 1 1 c
 gsave  2268 1415 0 0 C 818.052 357.66 t 0 r /Helvetica-Bold findfont 7.60979 sf 0 0 m (0.00) show NC gr  black 1 1 1 c
 gsave  2268 1415 0 0 C 939.809 357.66 t 0 r /Helvetica-Bold findfont 7.60979 sf 0 0 m (0.11) show NC gr  black 1 1 1 c
 gsave  2268 1415 0 0 C 1061.57 357.66 t 0 r /Helvetica-Bold findfont 7.60979 sf 0 0 m (0.01) show NC gr  black 1 1 1 c
 gsave  2268 1415 0 0 C 1179.52 357.66 t 0 r /Helvetica-Bold findfont 7.60979 sf 0 0 m (0.02) show NC gr  black 1 1 1 c
 gsave  2268 1415 0 0 C 1297.47 357.66 t 0 r /Helvetica-Bold findfont 7.60979 sf 0 0 m (\2550.01) show NC gr  black 1 1 1 c
 gsave  2268 1415 0 0 C 1419.23 357.66 t 0 r /Helvetica-Bold findfont 7.60979 sf 0 0 m (\2550.02) show NC gr  black 1 1 1 c
 gsave  2268 1415 0 0 C 1537.18 357.66 t 0 r /Helvetica-Bold findfont 7.60979 sf 0 0 m (\2550.00) show NC gr  black 1 1 1 c
 gsave  2268 1415 0 0 C 1662.74 357.66 t 0 r /Helvetica-Bold findfont 7.60979 sf 0 0 m (1.00) show NC gr  black 1 1 1 c
 gsave  2268 1415 0 0 C 1784.5 357.66 t 0 r /Helvetica-Bold findfont 7.60979 sf 0 0 m (0.00) show NC gr  black 1 1 1 c
 gsave  2268 1415 0 0 C 1898.64 357.66 t 0 r /Helvetica-Bold findfont 7.60979 sf 0 0 m (\2550.09) show NC gr  black 1 1 1 c
 gsave  2268 1415 0 0 C 456.587 445.173 t 0 r /Helvetica-Bold findfont 7.60979 sf 0 0 m (\2550.00) show NC gr  black 1 1 1 c
 gsave  2268 1415 0 0 C 574.539 445.173 t 0 r /Helvetica-Bold findfont 7.60979 sf 0 0 m (\2550.01) show NC gr  black 1 1 1 c
 gsave  2268 1415 0 0 C 696.296 445.173 t 0 r /Helvetica-Bold findfont 7.60979 sf 0 0 m (\2550.01) show NC gr  black 1 1 1 c
 gsave  2268 1415 0 0 C 818.052 445.173 t 0 r /Helvetica-Bold findfont 7.60979 sf 0 0 m (0.01) show NC gr  black 1 1 1 c
 gsave  2268 1415 0 0 C 939.809 445.173 t 0 r /Helvetica-Bold findfont 7.60979 sf 0 0 m (0.03) show NC gr  black 1 1 1 c
 gsave  2268 1415 0 0 C 1061.57 445.173 t 0 r /Helvetica-Bold findfont 7.60979 sf 0 0 m (0.03) show NC gr  black 1 1 1 c
 gsave  2268 1415 0 0 C 1179.52 445.173 t 0 r /Helvetica-Bold findfont 7.60979 sf 0 0 m (0.01) show NC gr  black 1 1 1 c
 gsave  2268 1415 0 0 C 1301.27 445.173 t 0 r /Helvetica-Bold findfont 7.60979 sf 0 0 m (0.00) show NC gr  black 1 1 1 c
 gsave  2268 1415 0 0 C 1419.23 445.173 t 0 r /Helvetica-Bold findfont 7.60979 sf 0 0 m (\2550.00) show NC gr  black 1 1 1 c
 gsave  2268 1415 0 0 C 1540.98 445.173 t 0 r /Helvetica-Bold findfont 7.60979 sf 0 0 m (1.00) show NC gr  black 1 1 1 c
 gsave  2268 1415 0 0 C 1658.93 445.173 t 0 r /Helvetica-Bold findfont 7.60979 sf 0 0 m (\2550.00) show NC gr  black 1 1 1 c
 gsave  2268 1415 0 0 C 1784.5 445.173 t 0 r /Helvetica-Bold findfont 7.60979 sf 0 0 m (0.02) show NC gr  black 1 1 1 c
 gsave  2268 1415 0 0 C 1898.64 445.173 t 0 r /Helvetica-Bold findfont 7.60979 sf 0 0 m (\2550.35) show NC gr  black 1 1 1 c
 gsave  2268 1415 0 0 C 456.587 532.685 t 0 r /Helvetica-Bold findfont 7.60979 sf 0 0 m (\2550.01) show NC gr  black 1 1 1 c
 gsave  2268 1415 0 0 C 574.539 532.685 t 0 r /Helvetica-Bold findfont 7.60979 sf 0 0 m (\2550.02) show NC gr  black 1 1 1 c
 gsave  2268 1415 0 0 C 696.296 532.685 t 0 r /Helvetica-Bold findfont 7.60979 sf 0 0 m (\2550.03) show NC gr  black 1 1 1 c
 gsave  2268 1415 0 0 C 814.247 532.685 t 0 r /Helvetica-Bold findfont 7.60979 sf 0 0 m (\2550.02) show NC gr  black 1 1 1 c
 gsave  2268 1415 0 0 C 939.809 532.685 t 0 r /Helvetica-Bold findfont 7.60979 sf 0 0 m (0.16) show NC gr  black 1 1 1 c
 gsave  2268 1415 0 0 C 1061.57 532.685 t 0 r /Helvetica-Bold findfont 7.60979 sf 0 0 m (0.04) show NC gr  black 1 1 1 c
 gsave  2268 1415 0 0 C 1179.52 532.685 t 0 r /Helvetica-Bold findfont 7.60979 sf 0 0 m (0.05) show NC gr  black 1 1 1 c
 gsave  2268 1415 0 0 C 1297.47 532.685 t 0 r /Helvetica-Bold findfont 7.60979 sf 0 0 m (\2550.02) show NC gr  black 1 1 1 c
 gsave  2268 1415 0 0 C 1423.03 532.685 t 0 r /Helvetica-Bold findfont 7.60979 sf 0 0 m (1.00) show NC gr  black 1 1 1 c
 gsave  2268 1415 0 0 C 1537.18 532.685 t 0 r /Helvetica-Bold findfont 7.60979 sf 0 0 m (\2550.00) show NC gr  black 1 1 1 c
 gsave  2268 1415 0 0 C 1658.93 532.685 t 0 r /Helvetica-Bold findfont 7.60979 sf 0 0 m (\2550.02) show NC gr  black 1 1 1 c
 gsave  2268 1415 0 0 C 1780.69 532.685 t 0 r /Helvetica-Bold findfont 7.60979 sf 0 0 m (\2550.01) show NC gr  black 1 1 1 c
 gsave  2268 1415 0 0 C 1898.64 532.685 t 0 r /Helvetica-Bold findfont 7.60979 sf 0 0 m (\2550.59) show NC gr  black 1 1 1 c
 gsave  2268 1415 0 0 C 456.587 620.198 t 0 r /Helvetica-Bold findfont 7.60979 sf 0 0 m (\2550.01) show NC gr  black 1 1 1 c
 gsave  2268 1415 0 0 C 574.539 620.198 t 0 r /Helvetica-Bold findfont 7.60979 sf 0 0 m (\2550.02) show NC gr  black 1 1 1 c
 gsave  2268 1415 0 0 C 696.296 620.198 t 0 r /Helvetica-Bold findfont 7.60979 sf 0 0 m (\2550.03) show NC gr  black 1 1 1 c
 gsave  2268 1415 0 0 C 818.052 620.198 t 0 r /Helvetica-Bold findfont 7.60979 sf 0 0 m (0.01) show NC gr  black 1 1 1 c
 gsave  2268 1415 0 0 C 939.809 620.198 t 0 r /Helvetica-Bold findfont 7.60979 sf 0 0 m (0.05) show NC gr  black 1 1 1 c
 gsave  2268 1415 0 0 C 1061.57 620.198 t 0 r /Helvetica-Bold findfont 7.60979 sf 0 0 m (0.02) show NC gr  black 1 1 1 c
 gsave  2268 1415 0 0 C 1179.52 620.198 t 0 r /Helvetica-Bold findfont 7.60979 sf 0 0 m (0.03) show NC gr  black 1 1 1 c
 gsave  2268 1415 0 0 C 1301.27 620.198 t 0 r /Helvetica-Bold findfont 7.60979 sf 0 0 m (1.00) show NC gr  black 1 1 1 c
 gsave  2268 1415 0 0 C 1419.23 620.198 t 0 r /Helvetica-Bold findfont 7.60979 sf 0 0 m (\2550.02) show NC gr  black 1 1 1 c
 gsave  2268 1415 0 0 C 1540.98 620.198 t 0 r /Helvetica-Bold findfont 7.60979 sf 0 0 m (0.00) show NC gr  black 1 1 1 c
 gsave  2268 1415 0 0 C 1658.93 620.198 t 0 r /Helvetica-Bold findfont 7.60979 sf 0 0 m (\2550.01) show NC gr  black 1 1 1 c
 gsave  2268 1415 0 0 C 1780.69 620.198 t 0 r /Helvetica-Bold findfont 7.60979 sf 0 0 m (\2550.01) show NC gr  black 1 1 1 c
 gsave  2268 1415 0 0 C 1898.64 620.198 t 0 r /Helvetica-Bold findfont 7.60979 sf 0 0 m (\2550.61) show NC gr  black 1 1 1 c
 gsave  2268 1415 0 0 C 460.392 703.905 t 0 r /Helvetica-Bold findfont 7.60979 sf 0 0 m (0.02) show NC gr  black 1 1 1 c
 gsave  2268 1415 0 0 C 578.344 703.905 t 0 r /Helvetica-Bold findfont 7.60979 sf 0 0 m (0.02) show NC gr  black 1 1 1 c
 gsave  2268 1415 0 0 C 700.1 703.905 t 0 r /Helvetica-Bold findfont 7.60979 sf 0 0 m (0.02) show NC gr  black 1 1 1 c
 gsave  2268 1415 0 0 C 818.052 703.905 t 0 r /Helvetica-Bold findfont 7.60979 sf 0 0 m (0.02) show NC gr  black 1 1 1 c
 gsave  2268 1415 0 0 C 936.004 703.905 t 0 r /Helvetica-Bold findfont 7.60979 sf 0 0 m (\2550.14) show NC gr  black 1 1 1 c
 gsave  2268 1415 0 0 C 1057.76 703.905 t 0 r /Helvetica-Bold findfont 7.60979 sf 0 0 m (\2550.05) show NC gr  black 1 1 1 c
 gsave  2268 1415 0 0 C 1179.52 703.905 t 0 r /Helvetica-Bold findfont 7.60979 sf 0 0 m (1.00) show NC gr  black 1 1 1 c
 gsave  2268 1415 0 0 C 1301.27 703.905 t 0 r /Helvetica-Bold findfont 7.60979 sf 0 0 m (0.03) show NC gr  black 1 1 1 c
 gsave  2268 1415 0 0 C 1423.03 703.905 t 0 r /Helvetica-Bold findfont 7.60979 sf 0 0 m (0.05) show NC gr  black 1 1 1 c
 gsave  2268 1415 0 0 C 1540.98 703.905 t 0 r /Helvetica-Bold findfont 7.60979 sf 0 0 m (0.01) show NC gr  black 1 1 1 c
 gsave  2268 1415 0 0 C 1662.74 703.905 t 0 r /Helvetica-Bold findfont 7.60979 sf 0 0 m (0.02) show NC gr  black 1 1 1 c
 gsave  2268 1415 0 0 C 1784.5 703.905 t 0 r /Helvetica-Bold findfont 7.60979 sf 0 0 m (0.04) show NC gr  black 1 1 1 c
 gsave  2268 1415 0 0 C 1898.64 703.905 t 0 r /Helvetica-Bold findfont 7.60979 sf 0 0 m (\2550.08) show NC gr  black 1 1 1 c
 gsave  2268 1415 0 0 C 460.392 791.418 t 0 r /Helvetica-Bold findfont 7.60979 sf 0 0 m (0.05) show NC gr  black 1 1 1 c
 gsave  2268 1415 0 0 C 578.344 791.418 t 0 r /Helvetica-Bold findfont 7.60979 sf 0 0 m (0.08) show NC gr  black 1 1 1 c
 gsave  2268 1415 0 0 C 700.1 791.418 t 0 r /Helvetica-Bold findfont 7.60979 sf 0 0 m (0.10) show NC gr  black 1 1 1 c
 gsave  2268 1415 0 0 C 818.052 791.418 t 0 r /Helvetica-Bold findfont 7.60979 sf 0 0 m (0.02) show NC gr  black 1 1 1 c
 gsave  2268 1415 0 0 C 936.004 791.418 t 0 r /Helvetica-Bold findfont 7.60979 sf 0 0 m (\2550.36) show NC gr  black 1 1 1 c
 gsave  2268 1415 0 0 C 1061.57 791.418 t 0 r /Helvetica-Bold findfont 7.60979 sf 0 0 m (1.00) show NC gr  black 1 1 1 c
 gsave  2268 1415 0 0 C 1175.71 791.418 t 0 r /Helvetica-Bold findfont 7.60979 sf 0 0 m (\2550.05) show NC gr  black 1 1 1 c
 gsave  2268 1415 0 0 C 1301.27 791.418 t 0 r /Helvetica-Bold findfont 7.60979 sf 0 0 m (0.02) show NC gr  black 1 1 1 c
 gsave  2268 1415 0 0 C 1423.03 791.418 t 0 r /Helvetica-Bold findfont 7.60979 sf 0 0 m (0.04) show NC gr  black 1 1 1 c
 gsave  2268 1415 0 0 C 1540.98 791.418 t 0 r /Helvetica-Bold findfont 7.60979 sf 0 0 m (0.03) show NC gr  black 1 1 1 c
 gsave  2268 1415 0 0 C 1662.74 791.418 t 0 r /Helvetica-Bold findfont 7.60979 sf 0 0 m (0.01) show NC gr  black 1 1 1 c
 gsave  2268 1415 0 0 C 1784.5 791.418 t 0 r /Helvetica-Bold findfont 7.60979 sf 0 0 m (0.01) show NC gr  black 1 1 1 c
 gsave  2268 1415 0 0 C 1898.64 791.418 t 0 r /Helvetica-Bold findfont 7.60979 sf 0 0 m (\2550.06) show NC gr  black 1 1 1 c
 gsave  2268 1415 0 0 C 460.392 878.93 t 0 r /Helvetica-Bold findfont 7.60979 sf 0 0 m (0.14) show NC gr  black 1 1 1 c
 gsave  2268 1415 0 0 C 578.344 878.93 t 0 r /Helvetica-Bold findfont 7.60979 sf 0 0 m (0.16) show NC gr  black 1 1 1 c
 gsave  2268 1415 0 0 C 700.1 878.93 t 0 r /Helvetica-Bold findfont 7.60979 sf 0 0 m (0.15) show NC gr  black 1 1 1 c
 gsave  2268 1415 0 0 C 818.052 878.93 t 0 r /Helvetica-Bold findfont 7.60979 sf 0 0 m (0.16) show NC gr  black 1 1 1 c
 gsave  2268 1415 0 0 C 939.809 878.93 t 0 r /Helvetica-Bold findfont 7.60979 sf 0 0 m (1.00) show NC gr  black 1 1 1 c
 gsave  2268 1415 0 0 C 1057.76 878.93 t 0 r /Helvetica-Bold findfont 7.60979 sf 0 0 m (\2550.36) show NC gr  black 1 1 1 c
 gsave  2268 1415 0 0 C 1175.71 878.93 t 0 r /Helvetica-Bold findfont 7.60979 sf 0 0 m (\2550.14) show NC gr  black 1 1 1 c
 gsave  2268 1415 0 0 C 1301.27 878.93 t 0 r /Helvetica-Bold findfont 7.60979 sf 0 0 m (0.05) show NC gr  black 1 1 1 c
 gsave  2268 1415 0 0 C 1423.03 878.93 t 0 r /Helvetica-Bold findfont 7.60979 sf 0 0 m (0.16) show NC gr  black 1 1 1 c
 gsave  2268 1415 0 0 C 1540.98 878.93 t 0 r /Helvetica-Bold findfont 7.60979 sf 0 0 m (0.03) show NC gr  black 1 1 1 c
 gsave  2268 1415 0 0 C 1662.74 878.93 t 0 r /Helvetica-Bold findfont 7.60979 sf 0 0 m (0.11) show NC gr  black 1 1 1 c
 gsave  2268 1415 0 0 C 1780.69 878.93 t 0 r /Helvetica-Bold findfont 7.60979 sf 0 0 m (\2550.14) show NC gr  black 1 1 1 c
 gsave  2268 1415 0 0 C 1898.64 878.93 t 0 r /Helvetica-Bold findfont 7.60979 sf 0 0 m (\2550.26) show NC gr  black 1 1 1 c
 gsave  2268 1415 0 0 C 460.392 966.443 t 0 r /Helvetica-Bold findfont 7.60979 sf 0 0 m (0.05) show NC gr  black 1 1 1 c
 gsave  2268 1415 0 0 C 578.344 966.443 t 0 r /Helvetica-Bold findfont 7.60979 sf 0 0 m (0.08) show NC gr  black 1 1 1 c
 gsave  2268 1415 0 0 C 700.1 966.443 t 0 r /Helvetica-Bold findfont 7.60979 sf 0 0 m (0.09) show NC gr  black 1 1 1 c
 gsave  2268 1415 0 0 C 818.052 966.443 t 0 r /Helvetica-Bold findfont 7.60979 sf 0 0 m (1.00) show NC gr  black 1 1 1 c
 gsave  2268 1415 0 0 C 939.809 966.443 t 0 r /Helvetica-Bold findfont 7.60979 sf 0 0 m (0.16) show NC gr  black 1 1 1 c
 gsave  2268 1415 0 0 C 1061.57 966.443 t 0 r /Helvetica-Bold findfont 7.60979 sf 0 0 m (0.02) show NC gr  black 1 1 1 c
 gsave  2268 1415 0 0 C 1179.52 966.443 t 0 r /Helvetica-Bold findfont 7.60979 sf 0 0 m (0.02) show NC gr  black 1 1 1 c
 gsave  2268 1415 0 0 C 1301.27 966.443 t 0 r /Helvetica-Bold findfont 7.60979 sf 0 0 m (0.01) show NC gr  black 1 1 1 c
 gsave  2268 1415 0 0 C 1419.23 966.443 t 0 r /Helvetica-Bold findfont 7.60979 sf 0 0 m (\2550.02) show NC gr  black 1 1 1 c
 gsave  2268 1415 0 0 C 1540.98 966.443 t 0 r /Helvetica-Bold findfont 7.60979 sf 0 0 m (0.01) show NC gr  black 1 1 1 c
 gsave  2268 1415 0 0 C 1662.74 966.443 t 0 r /Helvetica-Bold findfont 7.60979 sf 0 0 m (0.00) show NC gr  black 1 1 1 c
 gsave  2268 1415 0 0 C 1780.69 966.443 t 0 r /Helvetica-Bold findfont 7.60979 sf 0 0 m (\2550.05) show NC gr  black 1 1 1 c
 gsave  2268 1415 0 0 C 1902.45 966.443 t 0 r /Helvetica-Bold findfont 7.60979 sf 0 0 m (0.00) show NC gr  black 1 1 1 c
 gsave  2268 1415 0 0 C 456.587 1053.96 t 0 r /Helvetica-Bold findfont 7.60979 sf 0 0 m (\2550.06) show NC gr  black 1 1 1 c
 gsave  2268 1415 0 0 C 574.539 1053.96 t 0 r /Helvetica-Bold findfont 7.60979 sf 0 0 m (\2550.08) show NC gr  black 1 1 1 c
 gsave  2268 1415 0 0 C 700.1 1053.96 t 0 r /Helvetica-Bold findfont 7.60979 sf 0 0 m (1.00) show NC gr  black 1 1 1 c
 gsave  2268 1415 0 0 C 818.052 1053.96 t 0 r /Helvetica-Bold findfont 7.60979 sf 0 0 m (0.09) show NC gr  black 1 1 1 c
 gsave  2268 1415 0 0 C 939.809 1053.96 t 0 r /Helvetica-Bold findfont 7.60979 sf 0 0 m (0.15) show NC gr  black 1 1 1 c
 gsave  2268 1415 0 0 C 1061.57 1053.96 t 0 r /Helvetica-Bold findfont 7.60979 sf 0 0 m (0.10) show NC gr  black 1 1 1 c
 gsave  2268 1415 0 0 C 1179.52 1053.96 t 0 r /Helvetica-Bold findfont 7.60979 sf 0 0 m (0.02) show NC gr  black 1 1 1 c
 gsave  2268 1415 0 0 C 1297.47 1053.96 t 0 r /Helvetica-Bold findfont 7.60979 sf 0 0 m (\2550.03) show NC gr  black 1 1 1 c
 gsave  2268 1415 0 0 C 1419.23 1053.96 t 0 r /Helvetica-Bold findfont 7.60979 sf 0 0 m (\2550.03) show NC gr  black 1 1 1 c
 gsave  2268 1415 0 0 C 1537.18 1053.96 t 0 r /Helvetica-Bold findfont 7.60979 sf 0 0 m (\2550.01) show NC gr  black 1 1 1 c
 gsave  2268 1415 0 0 C 1658.93 1053.96 t 0 r /Helvetica-Bold findfont 7.60979 sf 0 0 m (\2550.02) show NC gr  black 1 1 1 c
 gsave  2268 1415 0 0 C 1784.5 1053.96 t 0 r /Helvetica-Bold findfont 7.60979 sf 0 0 m (0.01) show NC gr  black 1 1 1 c
 gsave  2268 1415 0 0 C 1902.45 1053.96 t 0 r /Helvetica-Bold findfont 7.60979 sf 0 0 m (0.06) show NC gr  black 1 1 1 c
 gsave  2268 1415 0 0 C 456.587 1141.47 t 0 r /Helvetica-Bold findfont 7.60979 sf 0 0 m (\2550.05) show NC gr  black 1 1 1 c
 gsave  2268 1415 0 0 C 578.344 1141.47 t 0 r /Helvetica-Bold findfont 7.60979 sf 0 0 m (1.00) show NC gr  black 1 1 1 c
 gsave  2268 1415 0 0 C 696.296 1141.47 t 0 r /Helvetica-Bold findfont 7.60979 sf 0 0 m (\2550.08) show NC gr  black 1 1 1 c
 gsave  2268 1415 0 0 C 818.052 1141.47 t 0 r /Helvetica-Bold findfont 7.60979 sf 0 0 m (0.08) show NC gr  black 1 1 1 c
 gsave  2268 1415 0 0 C 939.809 1141.47 t 0 r /Helvetica-Bold findfont 7.60979 sf 0 0 m (0.16) show NC gr  black 1 1 1 c
 gsave  2268 1415 0 0 C 1061.57 1141.47 t 0 r /Helvetica-Bold findfont 7.60979 sf 0 0 m (0.08) show NC gr  black 1 1 1 c
 gsave  2268 1415 0 0 C 1179.52 1141.47 t 0 r /Helvetica-Bold findfont 7.60979 sf 0 0 m (0.02) show NC gr  black 1 1 1 c
 gsave  2268 1415 0 0 C 1297.47 1141.47 t 0 r /Helvetica-Bold findfont 7.60979 sf 0 0 m (\2550.02) show NC gr  black 1 1 1 c
 gsave  2268 1415 0 0 C 1419.23 1141.47 t 0 r /Helvetica-Bold findfont 7.60979 sf 0 0 m (\2550.02) show NC gr  black 1 1 1 c
 gsave  2268 1415 0 0 C 1537.18 1141.47 t 0 r /Helvetica-Bold findfont 7.60979 sf 0 0 m (\2550.01) show NC gr  black 1 1 1 c
 gsave  2268 1415 0 0 C 1658.93 1141.47 t 0 r /Helvetica-Bold findfont 7.60979 sf 0 0 m (\2550.01) show NC gr  black 1 1 1 c
 gsave  2268 1415 0 0 C 1784.5 1141.47 t 0 r /Helvetica-Bold findfont 7.60979 sf 0 0 m (0.00) show NC gr  black 1 1 1 c
 gsave  2268 1415 0 0 C 1902.45 1141.47 t 0 r /Helvetica-Bold findfont 7.60979 sf 0 0 m (0.04) show NC gr  black 1 1 1 c
 gsave  2268 1415 0 0 C 460.392 1228.98 t 0 r /Helvetica-Bold findfont 7.60979 sf 0 0 m (1.00) show NC gr  black 1 1 1 c
 gsave  2268 1415 0 0 C 574.539 1228.98 t 0 r /Helvetica-Bold findfont 7.60979 sf 0 0 m (\2550.05) show NC gr  black 1 1 1 c
 gsave  2268 1415 0 0 C 696.296 1228.98 t 0 r /Helvetica-Bold findfont 7.60979 sf 0 0 m (\2550.06) show NC gr  black 1 1 1 c
 gsave  2268 1415 0 0 C 818.052 1228.98 t 0 r /Helvetica-Bold findfont 7.60979 sf 0 0 m (0.05) show NC gr  black 1 1 1 c
 gsave  2268 1415 0 0 C 939.809 1228.98 t 0 r /Helvetica-Bold findfont 7.60979 sf 0 0 m (0.14) show NC gr  black 1 1 1 c
 gsave  2268 1415 0 0 C 1061.57 1228.98 t 0 r /Helvetica-Bold findfont 7.60979 sf 0 0 m (0.05) show NC gr  black 1 1 1 c
 gsave  2268 1415 0 0 C 1179.52 1228.98 t 0 r /Helvetica-Bold findfont 7.60979 sf 0 0 m (0.02) show NC gr  black 1 1 1 c
 gsave  2268 1415 0 0 C 1297.47 1228.98 t 0 r /Helvetica-Bold findfont 7.60979 sf 0 0 m (\2550.01) show NC gr  black 1 1 1 c
 gsave  2268 1415 0 0 C 1419.23 1228.98 t 0 r /Helvetica-Bold findfont 7.60979 sf 0 0 m (\2550.01) show NC gr  black 1 1 1 c
 gsave  2268 1415 0 0 C 1537.18 1228.98 t 0 r /Helvetica-Bold findfont 7.60979 sf 0 0 m (\2550.00) show NC gr  black 1 1 1 c
 gsave  2268 1415 0 0 C 1658.93 1228.98 t 0 r /Helvetica-Bold findfont 7.60979 sf 0 0 m (\2550.01) show NC gr  black 1 1 1 c
 gsave  2268 1415 0 0 C 1780.69 1228.98 t 0 r /Helvetica-Bold findfont 7.60979 sf 0 0 m (\2550.00) show NC gr  black 1 1 1 c
 gsave  2268 1415 0 0 C 1902.45 1228.98 t 0 r /Helvetica-Bold findfont 7.60979 sf 0 0 m (0.02) show NC gr  black
 gsave  2268 1415 0 0 C 905.565 1346.93 t 0 r /Helvetica findfont 64.6832 sf 0 0 m (h_corr_reduced) show NC gr 
 gr  gr showpage
end
%%EOF
