%!PS-Adobe-2.0 EPSF-2.0
%%BoundingBox:  0 0 567 354
%%Title: : c_corrMatrix_RooExpandedFitResult_afterFit
%%Creator: ROOT Version 6.10/06
%%CreationDate: Wed Apr 29 10:56:20 2020
%%DocumentNeededResources: ProcSet (FontSetInit)
%%EndComments
%%BeginProlog
80 dict begin
/s {stroke} def /l {lineto} def /m {moveto} def /t {translate} def
/r {rotate} def /rl {roll}  def /R {repeat} def
/d {rlineto} def /rm {rmoveto} def /gr {grestore} def /f {eofill} def
/c {setrgbcolor} def /black {0 setgray} def /sd {setdash} def
/cl {closepath} def /sf {scalefont setfont} def /lw {setlinewidth} def
/box {m dup 0 exch d exch 0 d 0 exch neg d cl} def
/NC{systemdict begin initclip end}def/C{NC box clip newpath}def
/bl {box s} def /bf {gsave box gsave f grestore 1 lw [] 0 sd s grestore} def /Y { 0 exch d} def /X { 0 d} def 
/K {{pop pop 0 moveto} exch kshow} bind def
/ita {/ang 15 def gsave [1 0 ang dup sin exch cos div 1 0 0] concat} def 
/mp {newpath /y exch def /x exch def} def
/side {[w .77 mul w .23 mul] .385 w mul sd w 0 l currentpoint t -144 r} def
/mr {mp x y w2 0 360 arc} def /m24 {mr s} def /m20 {mr f} def
/mb {mp x y w2 add m w2 neg 0 d 0 w neg d w 0 d 0 w d cl} def
/mt {mp x y w2 add m w2 neg w neg d w 0 d cl} def
/w4 {w 4 div} def
/w6 {w 6 div} def
/w8 {w 8 div} def
/m21 {mb f} def /m25 {mb s} def /m22 {mt f} def /m26{mt s} def
/m23 {mp x y w2 sub m w2 w d w neg 0 d cl f} def
/m27 {mp x y w2 add m w3 neg w2 neg d w3 w2 neg d w3 w2 d cl s} def
/m28 {mp x w2 sub y w2 sub w3 add m w3 0 d  0 w3 neg d w3 0 d 0 w3 d w3 0 d  0 w3 d w3 neg 0 d 0 w3 d w3 neg 0 d 0 w3 neg d w3 neg 0 d cl s } def
/m29 {mp gsave x w2 sub y w2 add w3 sub m currentpoint t 4 {side} repeat cl fill gr} def
/m30 {mp gsave x w2 sub y w2 add w3 sub m currentpoint t 4 {side} repeat cl s gr} def
/m31 {mp x y w2 sub m 0 w d x w2 sub y m w 0 d x w2 sub y w2 add m w w neg d x w2 sub y w2 sub m w w d s} def
/m32 {mp x y w2 sub m w2 w d w neg 0 d cl s} def
/m33 {mp x y w2 add m w3 neg w2 neg d w3 w2 neg d w3 w2 d cl f} def
/m34 {mp x w2 sub y w2 sub w3 add m w3 0 d  0 w3 neg d w3 0 d 0 w3 d w3 0 d  0 w3 d w3 neg 0 d 0 w3 d w3 neg 0 d 0 w3 neg d w3 neg 0 d cl f } def
/m35 {mp x y w2 add m w2 neg w2 neg d w2 w2 neg d w2 w2 d w2 neg w2 d x y w2 sub m 0 w d x w2 sub y m w 0 d s} def
/m36 {mb x w2 sub y w2 add m w w neg d x w2 sub y w2 sub m w w d s} def
/m37 {mp x y m w4 neg w2 d w4 neg w2 neg d w2 0 d  w4 neg w2 neg d w2 0 d w4 neg w2 d w2 0 d w4 neg w2 d w4 neg w2 neg d cl s} def
/m38 {mp x w4 sub y w2 add m w4 neg w4 neg d 0 w2 neg d w4 w4 neg d w2 0 d w4 w4 d 0 w2 d w4 neg w4 d w2 neg 0 d x y w2 sub m 0 w d x w2 sub y m w 0 d cl s} def
/m39 {mp x y m w4 neg w2 d w4 neg w2 neg d w2 0 d  w4 neg w2 neg d w2 0 d w4 neg w2 d w2 0 d w4 neg w2 d w4 neg w2 neg d cl f} def
/m40 {mp x y m w4 w2 d w4 w4 neg d w2 neg w4 neg d w2 w4 neg d w4 neg w4 neg d w4 neg w2 d w4 neg w2 neg d w4 neg w4 d w2 w4 d w2 neg w4 d w4 w4 d w4 w2 neg d cl s} def
/m41 {mp x y m w4 w2 d w4 w4 neg d w2 neg w4 neg d w2 w4 neg d w4 neg w4 neg d w4 neg w2 d w4 neg w2 neg d w4 neg w4 d w2 w4 d w2 neg w4 d w4 w4 d w4 w2 neg d cl f} def
/m42 {mp x y w2 add m w8 neg w2 -3 4 div mul d w2 -3 4 div mul w8 neg d w2 3 4 div mul w8 neg d w8 w2 -3 4 div mul d w8 w2 3 4 div mul d w2 3 4 div mul w8 d w2 -3 4 div mul w8 d w8 neg w2 3 4 div mul d cl s} def
/m43 {mp x y w2 add m w8 neg w2 -3 4 div mul d w2 -3 4 div mul w8 neg d w2 3 4 div mul w8 neg d w8 w2 -3 4 div mul d w8 w2 3 4 div mul d w2 3 4 div mul w8 d w2 -3 4 div mul w8 d w8 neg w2 3 4 div mul d cl f} def
/m44 {mp x y m w6 neg w2 d w2 2 3 div mul 0 d w6 neg w2 neg d w2 w6 d 0 w2 -2 3 div mul d w2 neg w6 d w6 w2 neg d w2 -2 3 div mul 0 d w6 w2 d w2 neg w6 neg d 0 w2 2 3 div mul d w2 w6 neg d cl s} def
/m45 {mp x y m w6 neg w2 d w2 2 3 div mul 0 d w6 neg w2 neg d w2 w6 d 0 w2 -2 3 div mul d w2 neg w6 d w6 w2 neg d w2 -2 3 div mul 0 d w6 w2 d w2 neg w6 neg d 0 w2 2 3 div mul d w2 w6 neg d cl f} def
/m46 {mp x y w4 add m w4 neg w4 d w4 neg w4 neg d  w4 w4 neg d w4 neg w4 neg d w4 w4 neg d w4 w4 d w4 w4 neg d w4 w4 d w4 neg w4 d w4 w4 d w4 neg w4 d w4 neg w4 neg d cl s} def
/m47 {mp x y w4 add m w4 neg w4 d w4 neg w4 neg d w4 w4 neg d w4 neg w4 neg d  w4 w4 neg d w4 w4 d w4 w4 neg d w4 w4 d w4 neg w4 d w4 w4 d w4 neg w4 d w4 neg w4 neg d cl f} def
/m48 {mp x y w4 add m w4 neg w4 d w4 neg w4 neg d w4 w4 neg d  w4 neg w4 neg d w4 w4 neg d w4 w4 d w4 w4 neg d w4 w4 d w4 neg w4 d w4 w4 d w4 neg w4 d w4 neg w4 neg d  w4 w4 neg d w4 neg w4 neg d w4 neg w4 d w4 w4 d cl f} def
/m49 {mp x w2 sub w3 add y w2 sub w3 add m  0 w3 neg d w3 0 d 0 w3 d w3 0 d 0 w3 d w3 neg 0 d 0 w3 d w3 neg 0 d 0 w3 neg d w3 neg 0 d 0 w3 neg d w3 0 d 0 w3 d w3 0 d 0 w3 neg d w3 neg 0 d cl f } def
/m2 {mp x y w2 sub m 0 w d x w2 sub y m w 0 d s} def
/m5 {mp x w2 sub y w2 sub m w w d x w2 sub y w2 add m w w neg d s} def
%%IncludeResource: ProcSet (FontSetInit)
%%IncludeResource: font Times-Roman
%%IncludeResource: font Times-Italic
%%IncludeResource: font Times-Bold
%%IncludeResource: font Times-BoldItalic
%%IncludeResource: font Helvetica
%%IncludeResource: font Helvetica-Oblique
%%IncludeResource: font Helvetica-Bold
%%IncludeResource: font Helvetica-BoldOblique
%%IncludeResource: font Courier
%%IncludeResource: font Courier-Oblique
%%IncludeResource: font Courier-Bold
%%IncludeResource: font Courier-BoldOblique
%%IncludeResource: font Symbol
%%IncludeResource: font ZapfDingbats
/reEncode {exch findfont dup length dict begin {1 index /FID eq  {pop pop} {def} ifelse } forall /Encoding exch def currentdict end dup /FontName get exch definefont pop } def [/Times-Bold /Times-Italic /Times-BoldItalic /Helvetica /Helvetica-Oblique
 /Helvetica-Bold /Helvetica-BoldOblique /Courier /Courier-Oblique /Courier-Bold /Courier-BoldOblique /Times-Roman /AvantGarde-Book /AvantGarde-BookOblique /AvantGarde-Demi /AvantGarde-DemiOblique /Bookman-Demi /Bookman-DemiItalic /Bookman-Light
 /Bookman-LightItalic /Helvetica-Narrow /Helvetica-Narrow-Bold /Helvetica-Narrow-BoldOblique /Helvetica-Narrow-Oblique /NewCenturySchlbk-Roman /NewCenturySchlbk-Bold /NewCenturySchlbk-BoldItalic /NewCenturySchlbk-Italic /Palatino-Bold
 /Palatino-BoldItalic /Palatino-Italic /Palatino-Roman ] {ISOLatin1Encoding reEncode } forall
%%EndProlog
%%BeginSetup
%%EndSetup
newpath  gsave  .25 .25 scale  gsave  0 0 t black[  ] 0 sd 3 lw 1 1 1 c 2268 1415 0 0 bf black 1 1 1 c 1565 1132 408 142 bf black 1565 1132 408 142 bl 1 1 1 c 1565 1132 408 142 bf black 1565 1132 408 142 bl 1 1 1 c 0.0718137 0.0335784 0.320588 c 87
 62 408 142 bf 87 62 495 142 bf 0.0829657 0.0893382 0.352451 c 87 62 582 142 bf 87 62 669 142 bf 87 62 756 142 bf 87 62 843 142 bf 0.0718137 0.0335784 0.320588 c 87 62 930 142 bf 87 62 1017 142 bf 87 62 1104 142 bf 0.0509804 0 0.231373 c 86 62 1191
 142 bf 0.0637255 0.00637255 0.291912 c 87 62 1277 142 bf 87 62 1364 142 bf 0.0136622 0 0.131056 c 87 62 1451 142 bf 87 62 1538 142 bf 0.0446078 0 0.204289 c 87 62 1625 142 bf 0.0718137 0.0335784 0.320588 c 87 62 1712 142 bf 87 62 1799 142 bf
 0.113235 0.859191 0.862132 c 87 62 1886 142 bf 0.0941176 0.145098 0.384314 c 87 63 408 204 bf 0.0829657 0.0893382 0.352451 c 87 63 495 204 bf 87 63 582 204 bf 0.106863 0.204044 0.433701 c 87 63 669 204 bf 0.0941176 0.145098 0.384314 c 87 63 756 204
 bf 0.0718137 0.0335784 0.320588 c 87 63 843 204 bf 0.0829657 0.0893382 0.352451 c 87 63 930 204 bf 0.0637255 0.00637255 0.291912 c 87 63 1017 204 bf 0.106863 0.204044 0.433701 c 87 63 1104 204 bf 0.0573529 0.00318627 0.261642 c 86 63 1191 204 bf
 0.0637255 0.00637255 0.291912 c 87 63 1277 204 bf 0.0718137 0.0335784 0.320588 c 87 63 1364 204 bf 87 63 1451 204 bf 87 63 1538 204 bf 87 63 1625 204 bf 0.0573529 0.00318627 0.261642 c 87 63 1712 204 bf 0.113235 0.859191 0.862132 c 87 63 1799 204 bf
 0.0718137 0.0335784 0.320588 c 87 63 1886 204 bf 87 63 408 267 bf 87 63 495 267 bf 87 63 582 267 bf 87 63 669 267 bf 87 63 756 267 bf 87 63 843 267 bf 87 63 930 267 bf 87 63 1017 267 bf 87 63 1104 267 bf 86 63 1191 267 bf 87 63 1277 267 bf 87 63
 1364 267 bf 87 63 1451 267 bf 87 63 1538 267 bf 87 63 1625 267 bf 0.113235 0.859191 0.862132 c 87 63 1712 267 bf 0.0573529 0.00318627 0.261642 c 87 63 1799 267 bf 0.0718137 0.0335784 0.320588 c 87 63 1886 267 bf 87 63 408 330 bf 87 63 495 330 bf 87
 63 582 330 bf 87 63 669 330 bf 87 63 756 330 bf 87 63 843 330 bf 87 63 930 330 bf 87 63 1017 330 bf 87 63 1104 330 bf 86 63 1191 330 bf 87 63 1277 330 bf 87 63 1364 330 bf 87 63 1451 330 bf 87 63 1538 330 bf 0.113235 0.859191 0.862132 c 87 63 1625
 330 bf 0.0718137 0.0335784 0.320588 c 87 63 1712 330 bf 87 63 1799 330 bf 0.0446078 0 0.204289 c 87 63 1886 330 bf 0.0718137 0.0335784 0.320588 c 87 63 408 393 bf 87 63 495 393 bf 87 63 582 393 bf 87 63 669 393 bf 87 63 756 393 bf 87 63 843 393 bf
 87 63 930 393 bf 87 63 1017 393 bf 87 63 1104 393 bf 0.0941176 0.145098 0.384314 c 86 63 1191 393 bf 0.0829657 0.0893382 0.352451 c 87 63 1277 393 bf 87 63 1364 393 bf 0.0718137 0.0335784 0.320588 c 87 63 1451 393 bf 0.113235 0.859191 0.862132 c 87
 63 1538 393 bf 0.0718137 0.0335784 0.320588 c 87 63 1625 393 bf 87 63 1712 393 bf 87 63 1799 393 bf 0.0136622 0 0.131056 c 87 63 1886 393 bf 0.0718137 0.0335784 0.320588 c 87 63 408 456 bf 87 63 495 456 bf 87 63 582 456 bf 87 63 669 456 bf 87 63 756
 456 bf 87 63 843 456 bf 87 63 930 456 bf 87 63 1017 456 bf 87 63 1104 456 bf 0.0829657 0.0893382 0.352451 c 86 63 1191 456 bf 0.0718137 0.0335784 0.320588 c 87 63 1277 456 bf 0.0829657 0.0893382 0.352451 c 87 63 1364 456 bf 0.113235 0.859191
 0.862132 c 87 63 1451 456 bf 0.0718137 0.0335784 0.320588 c 87 63 1538 456 bf 87 63 1625 456 bf 87 63 1712 456 bf 87 63 1799 456 bf 0.0136622 0 0.131056 c 87 63 1886 456 bf 0.0718137 0.0335784 0.320588 c 87 63 408 519 bf 87 63 495 519 bf 87 63 582
 519 bf 87 63 669 519 bf 87 63 756 519 bf 87 63 843 519 bf 87 63 930 519 bf 87 63 1017 519 bf 87 63 1104 519 bf 0.0573529 0.00318627 0.261642 c 86 63 1191 519 bf 0.0637255 0.00637255 0.291912 c 87 63 1277 519 bf 0.113235 0.859191 0.862132 c 87 63
 1364 519 bf 0.0829657 0.0893382 0.352451 c 87 63 1451 519 bf 87 63 1538 519 bf 0.0718137 0.0335784 0.320588 c 87 63 1625 519 bf 87 63 1712 519 bf 87 63 1799 519 bf 0.0637255 0.00637255 0.291912 c 87 63 1886 519 bf 0.0718137 0.0335784 0.320588 c 87
 63 408 582 bf 0.0829657 0.0893382 0.352451 c 87 63 495 582 bf 87 63 582 582 bf 0.0718137 0.0335784 0.320588 c 87 63 669 582 bf 87 63 756 582 bf 0.0829657 0.0893382 0.352451 c 87 63 843 582 bf 0.0718137 0.0335784 0.320588 c 87 63 930 582 bf 87 63
 1017 582 bf 87 63 1104 582 bf 0.0446078 0 0.204289 c 86 63 1191 582 bf 0.113235 0.859191 0.862132 c 87 63 1277 582 bf 0.0637255 0.00637255 0.291912 c 87 63 1364 582 bf 0.0718137 0.0335784 0.320588 c 87 63 1451 582 bf 0.0829657 0.0893382 0.352451 c
 87 63 1538 582 bf 0.0718137 0.0335784 0.320588 c 87 63 1625 582 bf 87 63 1712 582 bf 0.0637255 0.00637255 0.291912 c 87 63 1799 582 bf 87 63 1886 582 bf 0.0718137 0.0335784 0.320588 c 87 63 408 645 bf 0.0941176 0.145098 0.384314 c 87 63 495 645 bf
 87 63 582 645 bf 0.0637255 0.00637255 0.291912 c 87 63 669 645 bf 0.0718137 0.0335784 0.320588 c 87 63 756 645 bf 0.0941176 0.145098 0.384314 c 87 63 843 645 bf 87 63 930 645 bf 0.0718137 0.0335784 0.320588 c 87 63 1017 645 bf 0.0637255 0.00637255
 0.291912 c 87 63 1104 645 bf 0.113235 0.859191 0.862132 c 86 63 1191 645 bf 0.0446078 0 0.204289 c 87 63 1277 645 bf 0.0573529 0.00318627 0.261642 c 87 63 1364 645 bf 0.0829657 0.0893382 0.352451 c 87 63 1451 645 bf 0.0941176 0.145098 0.384314 c 87
 63 1538 645 bf 0.0718137 0.0335784 0.320588 c 87 63 1625 645 bf 87 63 1712 645 bf 0.0573529 0.00318627 0.261642 c 87 63 1799 645 bf 0.0509804 0 0.231373 c 87 63 1886 645 bf 0.0718137 0.0335784 0.320588 c 87 63 408 708 bf 87 63 495 708 bf 87 63 582
 708 bf 87 63 669 708 bf 87 63 756 708 bf 87 63 843 708 bf 87 63 930 708 bf 87 63 1017 708 bf 0.113235 0.859191 0.862132 c 87 63 1104 708 bf 0.0637255 0.00637255 0.291912 c 86 63 1191 708 bf 0.0718137 0.0335784 0.320588 c 87 63 1277 708 bf 87 63 1364
 708 bf 87 63 1451 708 bf 87 63 1538 708 bf 87 63 1625 708 bf 87 63 1712 708 bf 0.106863 0.204044 0.433701 c 87 63 1799 708 bf 0.0718137 0.0335784 0.320588 c 87 63 1886 708 bf 87 63 408 771 bf 87 63 495 771 bf 87 63 582 771 bf 87 63 669 771 bf 87 63
 756 771 bf 87 63 843 771 bf 87 63 930 771 bf 0.113235 0.859191 0.862132 c 87 63 1017 771 bf 0.0718137 0.0335784 0.320588 c 87 63 1104 771 bf 86 63 1191 771 bf 87 63 1277 771 bf 87 63 1364 771 bf 87 63 1451 771 bf 87 63 1538 771 bf 87 63 1625 771 bf
 87 63 1712 771 bf 0.0637255 0.00637255 0.291912 c 87 63 1799 771 bf 0.0718137 0.0335784 0.320588 c 87 63 1886 771 bf 0.0829657 0.0893382 0.352451 c 87 62 408 834 bf 87 62 495 834 bf 87 62 582 834 bf 0.0718137 0.0335784 0.320588 c 87 62 669 834 bf
 0.0829657 0.0893382 0.352451 c 87 62 756 834 bf 87 62 843 834 bf 0.113235 0.859191 0.862132 c 87 62 930 834 bf 0.0718137 0.0335784 0.320588 c 87 62 1017 834 bf 87 62 1104 834 bf 0.0941176 0.145098 0.384314 c 86 62 1191 834 bf 0.0718137 0.0335784
 0.320588 c 87 62 1277 834 bf 87 62 1364 834 bf 87 62 1451 834 bf 87 62 1538 834 bf 87 62 1625 834 bf 87 62 1712 834 bf 0.0829657 0.0893382 0.352451 c 87 62 1799 834 bf 0.0718137 0.0335784 0.320588 c 87 62 1886 834 bf 87 63 408 896 bf 0.0637255
 0.00637255 0.291912 c 87 63 495 896 bf 87 63 582 896 bf 0.0718137 0.0335784 0.320588 c 87 63 669 896 bf 87 63 756 896 bf 0.113235 0.859191 0.862132 c 87 63 843 896 bf 0.0829657 0.0893382 0.352451 c 87 63 930 896 bf 0.0718137 0.0335784 0.320588 c 87
 63 1017 896 bf 87 63 1104 896 bf 0.0941176 0.145098 0.384314 c 86 63 1191 896 bf 0.0829657 0.0893382 0.352451 c 87 63 1277 896 bf 0.0718137 0.0335784 0.320588 c 87 63 1364 896 bf 87 63 1451 896 bf 87 63 1538 896 bf 87 63 1625 896 bf 87 63 1712 896
 bf 87 63 1799 896 bf 0.0829657 0.0893382 0.352451 c 87 63 1886 896 bf 0.0718137 0.0335784 0.320588 c 87 63 408 959 bf 87 63 495 959 bf 87 63 582 959 bf 87 63 669 959 bf 0.113235 0.859191 0.862132 c 87 63 756 959 bf 0.0718137 0.0335784 0.320588 c 87
 63 843 959 bf 0.0829657 0.0893382 0.352451 c 87 63 930 959 bf 0.0718137 0.0335784 0.320588 c 87 63 1017 959 bf 87 63 1104 959 bf 86 63 1191 959 bf 87 63 1277 959 bf 87 63 1364 959 bf 87 63 1451 959 bf 87 63 1538 959 bf 87 63 1625 959 bf 87 63 1712
 959 bf 0.0941176 0.145098 0.384314 c 87 63 1799 959 bf 0.0829657 0.0893382 0.352451 c 87 63 1886 959 bf 0.0718137 0.0335784 0.320588 c 87 63 408 1022 bf 87 63 495 1022 bf 87 63 582 1022 bf 0.113235 0.859191 0.862132 c 87 63 669 1022 bf 0.0718137
 0.0335784 0.320588 c 87 63 756 1022 bf 87 63 843 1022 bf 87 63 930 1022 bf 87 63 1017 1022 bf 87 63 1104 1022 bf 0.0637255 0.00637255 0.291912 c 86 63 1191 1022 bf 0.0718137 0.0335784 0.320588 c 87 63 1277 1022 bf 87 63 1364 1022 bf 87 63 1451 1022
 bf 87 63 1538 1022 bf 87 63 1625 1022 bf 87 63 1712 1022 bf 0.106863 0.204044 0.433701 c 87 63 1799 1022 bf 0.0829657 0.0893382 0.352451 c 87 63 1886 1022 bf 0.0718137 0.0335784 0.320588 c 87 63 408 1085 bf 87 63 495 1085 bf 0.113235 0.859191
 0.862132 c 87 63 582 1085 bf 0.0718137 0.0335784 0.320588 c 87 63 669 1085 bf 87 63 756 1085 bf 0.0637255 0.00637255 0.291912 c 87 63 843 1085 bf 0.0829657 0.0893382 0.352451 c 87 63 930 1085 bf 0.0718137 0.0335784 0.320588 c 87 63 1017 1085 bf 87
 63 1104 1085 bf 0.0941176 0.145098 0.384314 c 86 63 1191 1085 bf 0.0829657 0.0893382 0.352451 c 87 63 1277 1085 bf 0.0718137 0.0335784 0.320588 c 87 63 1364 1085 bf 87 63 1451 1085 bf 87 63 1538 1085 bf 87 63 1625 1085 bf 87 63 1712 1085 bf
 0.0829657 0.0893382 0.352451 c 87 63 1799 1085 bf 87 63 1886 1085 bf 0.0718137 0.0335784 0.320588 c 87 63 408 1148 bf 0.113235 0.859191 0.862132 c 87 63 495 1148 bf 0.0718137 0.0335784 0.320588 c 87 63 582 1148 bf 87 63 669 1148 bf 87 63 756 1148 bf
 0.0637255 0.00637255 0.291912 c 87 63 843 1148 bf 0.0829657 0.0893382 0.352451 c 87 63 930 1148 bf 0.0718137 0.0335784 0.320588 c 87 63 1017 1148 bf 87 63 1104 1148 bf 0.0941176 0.145098 0.384314 c 86 63 1191 1148 bf 0.0829657 0.0893382 0.352451 c
 87 63 1277 1148 bf 0.0718137 0.0335784 0.320588 c 87 63 1364 1148 bf 87 63 1451 1148 bf 87 63 1538 1148 bf 87 63 1625 1148 bf 87 63 1712 1148 bf 0.0829657 0.0893382 0.352451 c 87 63 1799 1148 bf 0.0718137 0.0335784 0.320588 c 87 63 1886 1148 bf
 0.113235 0.859191 0.862132 c 87 63 408 1211 bf 0.0718137 0.0335784 0.320588 c 87 63 495 1211 bf 87 63 582 1211 bf 87 63 669 1211 bf 87 63 756 1211 bf 87 63 843 1211 bf 0.0829657 0.0893382 0.352451 c 87 63 930 1211 bf 0.0718137 0.0335784 0.320588 c
 87 63 1017 1211 bf 87 63 1104 1211 bf 86 63 1191 1211 bf 87 63 1277 1211 bf 87 63 1364 1211 bf 87 63 1451 1211 bf 87 63 1538 1211 bf 87 63 1625 1211 bf 87 63 1712 1211 bf 0.0941176 0.145098 0.384314 c 87 63 1799 1211 bf 0.0718137 0.0335784 0.320588
 c 87 63 1886 1211 bf 0.0136622 0 0.131056 c 102 56 1984 142 bf 0.028463 0 0.15408 c 102 57 1984 198 bf 0.0387255 0 0.179289 c 102 56 1984 255 bf 0.0446078 0 0.204289 c 102 57 1984 311 bf 0.0509804 0 0.231373 c 102 57 1984 368 bf 0.0573529 0.00318627
 0.261642 c 102 56 1984 425 bf 0.0637255 0.00637255 0.291912 c 102 57 1984 481 bf 0.0718137 0.0335784 0.320588 c 102 56 1984 538 bf 0.0829657 0.0893382 0.352451 c 102 57 1984 594 bf 0.0941176 0.145098 0.384314 c 102 57 1984 651 bf 0.106863 0.204044
 0.433701 c 102 56 1984 708 bf 0.118627 0.258456 0.479289 c 102 57 1984 764 bf 0.121814 0.318873 0.524265 c 102 57 1984 821 bf 0.113848 0.381005 0.564093 c 102 56 1984 878 bf 0.105882 0.443137 0.603922 c 102 57 1984 934 bf 0.102941 0.512255 0.648039
 c 102 56 1984 991 bf 0.0997549 0.587132 0.695833 c 102 57 1984 1047 bf 0.10098 0.672304 0.748775 c 102 57 1984 1104 bf 0.107353 0.769485 0.807721 c 102 56 1984 1161 bf 0.113235 0.859191 0.862132 c 102 57 1984 1217 bf black 2086 142 m 1132 Y s 2032
 152 m 54 X s 2032 292 m 54 X s 2032 433 m 54 X s 2032 573 m 54 X s 2032 713 m 54 X s 2032 853 m 54 X s 2032 993 m 54 X s 2032 1134 m 54 X s 2032 1274 m 54 X s 2032 152 m 54 X s
 gsave  2268 1415 0 0 C 2119.33 133.171 t 0 r /Helvetica findfont 45.6587 sf 0 0 m (0.6) show NC gr 
 gsave  2268 1415 0 0 C 2096.5 133.171 t 0 r /Symbol findfont 45.6587 sf 0 0 m (-) show NC gr 
 gsave  2268 1415 0 0 C 2119.33 273.952 t 0 r /Helvetica findfont 45.6587 sf 0 0 m (0.4) show NC gr 
 gsave  2268 1415 0 0 C 2096.5 273.952 t 0 r /Symbol findfont 45.6587 sf 0 0 m (-) show NC gr 
 gsave  2268 1415 0 0 C 2119.33 414.733 t 0 r /Helvetica findfont 45.6587 sf 0 0 m (0.2) show NC gr 
 gsave  2268 1415 0 0 C 2096.5 414.733 t 0 r /Symbol findfont 45.6587 sf 0 0 m (-) show NC gr 
 gsave  2268 1415 0 0 C 2096.5 555.514 t 0 r /Helvetica findfont 45.6587 sf 0 0 m (0) show NC gr 
 gsave  2268 1415 0 0 C 2096.5 696.295 t 0 r /Helvetica findfont 45.6587 sf 0 0 m (0.2) show NC gr 
 gsave  2268 1415 0 0 C 2096.5 837.077 t 0 r /Helvetica findfont 45.6587 sf 0 0 m (0.4) show NC gr 
 gsave  2268 1415 0 0 C 2096.5 977.858 t 0 r /Helvetica findfont 45.6587 sf 0 0 m (0.6) show NC gr 
 gsave  2268 1415 0 0 C 2096.5 1114.83 t 0 r /Helvetica findfont 45.6587 sf 0 0 m (0.8) show NC gr 
 gsave  2268 1415 0 0 C 2096.5 1255.61 t 0 r /Helvetica findfont 45.6587 sf 0 0 m (1) show NC gr  1 1 1 c black 408 142 m 1565 X s
 gsave  2268 1415 0 0 C 456.587 -129.366 t 90 r /Helvetica findfont 22.8294 sf 0 0 m (alpha_JER_EffectiveNP1) show NC gr 
 gsave  2268 1415 0 0 C 544.1 -133.171 t 90 r /Helvetica findfont 22.8294 sf 0 0 m (alpha_JER_EffectiveNP2) show NC gr 
 gsave  2268 1415 0 0 C 631.612 -133.171 t 90 r /Helvetica findfont 22.8294 sf 0 0 m (alpha_JER_EffectiveNP3) show NC gr 
 gsave  2268 1415 0 0 C 719.125 -133.171 t 90 r /Helvetica findfont 22.8294 sf 0 0 m (alpha_JER_EffectiveNP4) show NC gr 
 gsave  2268 1415 0 0 C 806.637 -133.171 t 90 r /Helvetica findfont 22.8294 sf 0 0 m (alpha_JER_EffectiveNP5) show NC gr 
 gsave  2268 1415 0 0 C 890.345 -129.366 t 90 r /Helvetica findfont 22.8294 sf 0 0 m (alpha_JES_GroupedNP1) show NC gr 
 gsave  2268 1415 0 0 C 977.858 -133.171 t 90 r /Helvetica findfont 22.8294 sf 0 0 m (alpha_JES_GroupedNP2) show NC gr 
 gsave  2268 1415 0 0 C 1065.37 3.80489 t 90 r /Helvetica findfont 22.8294 sf 0 0 m (alpha_cTag) show NC gr 
 gsave  2268 1415 0 0 C 1152.88 19.0245 t 90 r /Helvetica findfont 22.8294 sf 0 0 m (alpha_prw) show NC gr 
 gsave  2268 1415 0 0 C 1240.4 -148.391 t 90 r /Helvetica findfont 22.8294 sf 0 0 m (alpha_ttbar_Fragmentation) show NC gr 
 gsave  2268 1415 0 0 C 1327.91 -125.561 t 90 r /Helvetica findfont 22.8294 sf 0 0 m (alpha_ttbar_HardScatter) show NC gr 
 gsave  2268 1415 0 0 C 1415.42 -98.9272 t 90 r /Helvetica findfont 22.8294 sf 0 0 m (alpha_ttbar_Radiation) show NC gr 
 gsave  2268 1415 0 0 C 1499.13 -95.1223 t 90 r /Helvetica findfont 22.8294 sf 0 0 m (alpha_xsec_singletop) show NC gr 
 gsave  2268 1415 0 0 C 1586.64 -30.4391 t 90 r /Helvetica findfont 22.8294 sf 0 0 m (alpha_xsec_ttV) show NC gr 
 gsave  2268 1415 0 0 C 1674.15 -57.0734 t 90 r /Helvetica findfont 22.8294 sf 0 0 m (alpha_xsec_wjets) show NC gr 
 gsave  2268 1415 0 0 C 1761.67 -201.659 t 90 r /Helvetica findfont 22.8294 sf 0 0 m (gamma_stat_bWN7_cuts_bin_0) show NC gr 
 gsave  2268 1415 0 0 C 1849.18 41.8538 t 90 r /Helvetica findfont 22.8294 sf 0 0 m (mu_SIG) show NC gr 
 gsave  2268 1415 0 0 C 1936.69 34.244 t 90 r /Helvetica findfont 22.8294 sf 0 0 m (mu_ttbar) show NC gr  408 171 m -29 Y s 495 171 m -29 Y s 582 171 m -29 Y s 669 171 m -29 Y s 756 171 m -29 Y s 843 171 m -29 Y s 930 171 m -29 Y s 1017 171 m -29 Y s
 1104 171 m -29 Y s 1191 171 m -29 Y s 1277 171 m -29 Y s 1364 171 m -29 Y s 1451 171 m -29 Y s 1538 171 m -29 Y s 1625 171 m -29 Y s 1712 171 m -29 Y s 1799 171 m -29 Y s 1886 171 m -29 Y s 1973 171 m -29 Y s 408 142 m 1132 Y s
 gsave  2268 1415 0 0 C 292.977 167.415 t 0 r /Helvetica findfont 22.8294 sf 0 0 m (mu_ttbar) show NC gr 
 gsave  2268 1415 0 0 C 300.587 228.294 t 0 r /Helvetica findfont 22.8294 sf 0 0 m (mu_SIG) show NC gr 
 gsave  2268 1415 0 0 C 57.0734 292.977 t 0 r /Helvetica findfont 22.8294 sf 0 0 m (gamma_stat_bWN7_cuts_bin_0) show NC gr 
 gsave  2268 1415 0 0 C 201.659 357.66 t 0 r /Helvetica findfont 22.8294 sf 0 0 m (alpha_xsec_wjets) show NC gr 
 gsave  2268 1415 0 0 C 228.294 418.538 t 0 r /Helvetica findfont 22.8294 sf 0 0 m (alpha_xsec_ttV) show NC gr 
 gsave  2268 1415 0 0 C 163.61 483.221 t 0 r /Helvetica findfont 22.8294 sf 0 0 m (alpha_xsec_singletop) show NC gr 
 gsave  2268 1415 0 0 C 159.806 544.1 t 0 r /Helvetica findfont 22.8294 sf 0 0 m (alpha_ttbar_Radiation) show NC gr 
 gsave  2268 1415 0 0 C 133.171 608.783 t 0 r /Helvetica findfont 22.8294 sf 0 0 m (alpha_ttbar_HardScatter) show NC gr 
 gsave  2268 1415 0 0 C 110.342 669.661 t 0 r /Helvetica findfont 22.8294 sf 0 0 m (alpha_ttbar_Fragmentation) show NC gr 
 gsave  2268 1415 0 0 C 277.757 734.344 t 0 r /Helvetica findfont 22.8294 sf 0 0 m (alpha_prw) show NC gr 
 gsave  2268 1415 0 0 C 262.538 795.223 t 0 r /Helvetica findfont 22.8294 sf 0 0 m (alpha_cTag) show NC gr 
 gsave  2268 1415 0 0 C 125.561 859.906 t 0 r /Helvetica findfont 22.8294 sf 0 0 m (alpha_JES_GroupedNP2) show NC gr 
 gsave  2268 1415 0 0 C 129.366 920.784 t 0 r /Helvetica findfont 22.8294 sf 0 0 m (alpha_JES_GroupedNP1) show NC gr 
 gsave  2268 1415 0 0 C 125.561 985.467 t 0 r /Helvetica findfont 22.8294 sf 0 0 m (alpha_JER_EffectiveNP5) show NC gr 
 gsave  2268 1415 0 0 C 125.561 1046.35 t 0 r /Helvetica findfont 22.8294 sf 0 0 m (alpha_JER_EffectiveNP4) show NC gr 
 gsave  2268 1415 0 0 C 125.561 1111.03 t 0 r /Helvetica findfont 22.8294 sf 0 0 m (alpha_JER_EffectiveNP3) show NC gr 
 gsave  2268 1415 0 0 C 125.561 1171.91 t 0 r /Helvetica findfont 22.8294 sf 0 0 m (alpha_JER_EffectiveNP2) show NC gr 
 gsave  2268 1415 0 0 C 129.366 1236.59 t 0 r /Helvetica findfont 22.8294 sf 0 0 m (alpha_JER_EffectiveNP1) show NC gr  463 142 m -55 X s 463 204 m -55 X s 463 267 m -55 X s 463 330 m -55 X s 463 393 m -55 X s 463 456 m -55 X s 463 519 m -55 X s 463
 582 m -55 X s 463 645 m -55 X s 463 708 m -55 X s 463 771 m -55 X s 463 834 m -55 X s 463 896 m -55 X s 463 959 m -55 X s 463 1022 m -55 X s 463 1085 m -55 X s 463 1148 m -55 X s 463 1211 m -55 X s 463 1274 m -55 X s 1 1 1 c black 1 1 1 c
 gsave  2268 1415 0 0 C 437.563 171.22 t 0 r /Helvetica-Bold findfont 7.60979 sf 0 0 m (\2550.05) show NC gr  black 1 1 1 c
 gsave  2268 1415 0 0 C 528.88 171.22 t 0 r /Helvetica-Bold findfont 7.60979 sf 0 0 m (0.02) show NC gr  black 1 1 1 c
 gsave  2268 1415 0 0 C 616.393 171.22 t 0 r /Helvetica-Bold findfont 7.60979 sf 0 0 m (0.04) show NC gr  black 1 1 1 c
 gsave  2268 1415 0 0 C 703.905 171.22 t 0 r /Helvetica-Bold findfont 7.60979 sf 0 0 m (0.04) show NC gr  black 1 1 1 c
 gsave  2268 1415 0 0 C 791.418 171.22 t 0 r /Helvetica-Bold findfont 7.60979 sf 0 0 m (0.07) show NC gr  black 1 1 1 c
 gsave  2268 1415 0 0 C 875.125 171.22 t 0 r /Helvetica-Bold findfont 7.60979 sf 0 0 m (0.05) show NC gr  black 1 1 1 c
 gsave  2268 1415 0 0 C 962.638 171.22 t 0 r /Helvetica-Bold findfont 7.60979 sf 0 0 m (0.01) show NC gr  black 1 1 1 c
 gsave  2268 1415 0 0 C 1046.35 171.22 t 0 r /Helvetica-Bold findfont 7.60979 sf 0 0 m (\2550.04) show NC gr  black 1 1 1 c
 gsave  2268 1415 0 0 C 1137.66 171.22 t 0 r /Helvetica-Bold findfont 7.60979 sf 0 0 m (0.00) show NC gr  black 1 1 1 c
 gsave  2268 1415 0 0 C 1221.37 171.22 t 0 r /Helvetica-Bold findfont 7.60979 sf 0 0 m (\2550.25) show NC gr  black 1 1 1 c
 gsave  2268 1415 0 0 C 1308.88 171.22 t 0 r /Helvetica-Bold findfont 7.60979 sf 0 0 m (\2550.06) show NC gr  black 1 1 1 c
 gsave  2268 1415 0 0 C 1396.4 171.22 t 0 r /Helvetica-Bold findfont 7.60979 sf 0 0 m (\2550.08) show NC gr  black 1 1 1 c
 gsave  2268 1415 0 0 C 1480.1 171.22 t 0 r /Helvetica-Bold findfont 7.60979 sf 0 0 m (\2550.62) show NC gr  black 1 1 1 c
 gsave  2268 1415 0 0 C 1567.62 171.22 t 0 r /Helvetica-Bold findfont 7.60979 sf 0 0 m (\2550.60) show NC gr  black 1 1 1 c
 gsave  2268 1415 0 0 C 1655.13 171.22 t 0 r /Helvetica-Bold findfont 7.60979 sf 0 0 m (\2550.35) show NC gr  black 1 1 1 c
 gsave  2268 1415 0 0 C 1742.64 171.22 t 0 r /Helvetica-Bold findfont 7.60979 sf 0 0 m (\2550.00) show NC gr  black 1 1 1 c
 gsave  2268 1415 0 0 C 1830.15 171.22 t 0 r /Helvetica-Bold findfont 7.60979 sf 0 0 m (\2550.03) show NC gr  black 1 1 1 c
 gsave  2268 1415 0 0 C 1921.47 171.22 t 0 r /Helvetica-Bold findfont 7.60979 sf 0 0 m (1.00) show NC gr  black 1 1 1 c
 gsave  2268 1415 0 0 C 441.368 232.098 t 0 r /Helvetica-Bold findfont 7.60979 sf 0 0 m (0.18) show NC gr  black 1 1 1 c
 gsave  2268 1415 0 0 C 528.88 232.098 t 0 r /Helvetica-Bold findfont 7.60979 sf 0 0 m (0.10) show NC gr  black 1 1 1 c
 gsave  2268 1415 0 0 C 616.393 232.098 t 0 r /Helvetica-Bold findfont 7.60979 sf 0 0 m (0.04) show NC gr  black 1 1 1 c
 gsave  2268 1415 0 0 C 703.905 232.098 t 0 r /Helvetica-Bold findfont 7.60979 sf 0 0 m (0.23) show NC gr  black 1 1 1 c
 gsave  2268 1415 0 0 C 791.418 232.098 t 0 r /Helvetica-Bold findfont 7.60979 sf 0 0 m (0.12) show NC gr  black 1 1 1 c
 gsave  2268 1415 0 0 C 875.125 232.098 t 0 r /Helvetica-Bold findfont 7.60979 sf 0 0 m (0.01) show NC gr  black 1 1 1 c
 gsave  2268 1415 0 0 C 962.638 232.098 t 0 r /Helvetica-Bold findfont 7.60979 sf 0 0 m (0.03) show NC gr  black 1 1 1 c
 gsave  2268 1415 0 0 C 1046.35 232.098 t 0 r /Helvetica-Bold findfont 7.60979 sf 0 0 m (\2550.13) show NC gr  black 1 1 1 c
 gsave  2268 1415 0 0 C 1137.66 232.098 t 0 r /Helvetica-Bold findfont 7.60979 sf 0 0 m (0.24) show NC gr  black 1 1 1 c
 gsave  2268 1415 0 0 C 1221.37 232.098 t 0 r /Helvetica-Bold findfont 7.60979 sf 0 0 m (\2550.16) show NC gr  black 1 1 1 c
 gsave  2268 1415 0 0 C 1308.88 232.098 t 0 r /Helvetica-Bold findfont 7.60979 sf 0 0 m (\2550.10) show NC gr  black 1 1 1 c
 gsave  2268 1415 0 0 C 1396.4 232.098 t 0 r /Helvetica-Bold findfont 7.60979 sf 0 0 m (\2550.01) show NC gr  black 1 1 1 c
 gsave  2268 1415 0 0 C 1483.91 232.098 t 0 r /Helvetica-Bold findfont 7.60979 sf 0 0 m (0.03) show NC gr  black 1 1 1 c
 gsave  2268 1415 0 0 C 1571.42 232.098 t 0 r /Helvetica-Bold findfont 7.60979 sf 0 0 m (0.02) show NC gr  black 1 1 1 c
 gsave  2268 1415 0 0 C 1658.93 232.098 t 0 r /Helvetica-Bold findfont 7.60979 sf 0 0 m (0.02) show NC gr  black 1 1 1 c
 gsave  2268 1415 0 0 C 1742.64 232.098 t 0 r /Helvetica-Bold findfont 7.60979 sf 0 0 m (\2550.20) show NC gr  black 1 1 1 c
 gsave  2268 1415 0 0 C 1833.96 232.098 t 0 r /Helvetica-Bold findfont 7.60979 sf 0 0 m (1.00) show NC gr  black 1 1 1 c
 gsave  2268 1415 0 0 C 1917.67 232.098 t 0 r /Helvetica-Bold findfont 7.60979 sf 0 0 m (\2550.03) show NC gr  black 1 1 1 c
 gsave  2268 1415 0 0 C 441.368 296.782 t 0 r /Helvetica-Bold findfont 7.60979 sf 0 0 m (0.00) show NC gr  black 1 1 1 c
 gsave  2268 1415 0 0 C 528.88 296.782 t 0 r /Helvetica-Bold findfont 7.60979 sf 0 0 m (0.00) show NC gr  black 1 1 1 c
 gsave  2268 1415 0 0 C 612.588 296.782 t 0 r /Helvetica-Bold findfont 7.60979 sf 0 0 m (\2550.00) show NC gr  black 1 1 1 c
 gsave  2268 1415 0 0 C 700.1 296.782 t 0 r /Helvetica-Bold findfont 7.60979 sf 0 0 m (\2550.00) show NC gr  black 1 1 1 c
 gsave  2268 1415 0 0 C 787.613 296.782 t 0 r /Helvetica-Bold findfont 7.60979 sf 0 0 m (\2550.00) show NC gr  black 1 1 1 c
 gsave  2268 1415 0 0 C 871.321 296.782 t 0 r /Helvetica-Bold findfont 7.60979 sf 0 0 m (\2550.00) show NC gr  black 1 1 1 c
 gsave  2268 1415 0 0 C 962.638 296.782 t 0 r /Helvetica-Bold findfont 7.60979 sf 0 0 m (0.01) show NC gr  black 1 1 1 c
 gsave  2268 1415 0 0 C 1050.15 296.782 t 0 r /Helvetica-Bold findfont 7.60979 sf 0 0 m (0.00) show NC gr  black 1 1 1 c
 gsave  2268 1415 0 0 C 1133.86 296.782 t 0 r /Helvetica-Bold findfont 7.60979 sf 0 0 m (\2550.02) show NC gr  black 1 1 1 c
 gsave  2268 1415 0 0 C 1225.18 296.782 t 0 r /Helvetica-Bold findfont 7.60979 sf 0 0 m (0.03) show NC gr  black 1 1 1 c
 gsave  2268 1415 0 0 C 1308.88 296.782 t 0 r /Helvetica-Bold findfont 7.60979 sf 0 0 m (\2550.00) show NC gr  black 1 1 1 c
 gsave  2268 1415 0 0 C 1396.4 296.782 t 0 r /Helvetica-Bold findfont 7.60979 sf 0 0 m (\2550.01) show NC gr  black 1 1 1 c
 gsave  2268 1415 0 0 C 1483.91 296.782 t 0 r /Helvetica-Bold findfont 7.60979 sf 0 0 m (0.00) show NC gr  black 1 1 1 c
 gsave  2268 1415 0 0 C 1571.42 296.782 t 0 r /Helvetica-Bold findfont 7.60979 sf 0 0 m (0.00) show NC gr  black 1 1 1 c
 gsave  2268 1415 0 0 C 1655.13 296.782 t 0 r /Helvetica-Bold findfont 7.60979 sf 0 0 m (\2550.00) show NC gr  black 1 1 1 c
 gsave  2268 1415 0 0 C 1746.45 296.782 t 0 r /Helvetica-Bold findfont 7.60979 sf 0 0 m (1.00) show NC gr  black 1 1 1 c
 gsave  2268 1415 0 0 C 1830.15 296.782 t 0 r /Helvetica-Bold findfont 7.60979 sf 0 0 m (\2550.20) show NC gr  black 1 1 1 c
 gsave  2268 1415 0 0 C 1917.67 296.782 t 0 r /Helvetica-Bold findfont 7.60979 sf 0 0 m (\2550.00) show NC gr  black 1 1 1 c
 gsave  2268 1415 0 0 C 441.368 361.465 t 0 r /Helvetica-Bold findfont 7.60979 sf 0 0 m (0.03) show NC gr  black 1 1 1 c
 gsave  2268 1415 0 0 C 528.88 361.465 t 0 r /Helvetica-Bold findfont 7.60979 sf 0 0 m (0.00) show NC gr  black 1 1 1 c
 gsave  2268 1415 0 0 C 612.588 361.465 t 0 r /Helvetica-Bold findfont 7.60979 sf 0 0 m (\2550.01) show NC gr  black 1 1 1 c
 gsave  2268 1415 0 0 C 700.1 361.465 t 0 r /Helvetica-Bold findfont 7.60979 sf 0 0 m (\2550.02) show NC gr  black 1 1 1 c
 gsave  2268 1415 0 0 C 787.613 361.465 t 0 r /Helvetica-Bold findfont 7.60979 sf 0 0 m (\2550.03) show NC gr  black 1 1 1 c
 gsave  2268 1415 0 0 C 871.321 361.465 t 0 r /Helvetica-Bold findfont 7.60979 sf 0 0 m (\2550.01) show NC gr  black 1 1 1 c
 gsave  2268 1415 0 0 C 962.638 361.465 t 0 r /Helvetica-Bold findfont 7.60979 sf 0 0 m (0.01) show NC gr  black 1 1 1 c
 gsave  2268 1415 0 0 C 1046.35 361.465 t 0 r /Helvetica-Bold findfont 7.60979 sf 0 0 m (\2550.00) show NC gr  black 1 1 1 c
 gsave  2268 1415 0 0 C 1137.66 361.465 t 0 r /Helvetica-Bold findfont 7.60979 sf 0 0 m (0.02) show NC gr  black 1 1 1 c
 gsave  2268 1415 0 0 C 1225.18 361.465 t 0 r /Helvetica-Bold findfont 7.60979 sf 0 0 m (0.03) show NC gr  black 1 1 1 c
 gsave  2268 1415 0 0 C 1312.69 361.465 t 0 r /Helvetica-Bold findfont 7.60979 sf 0 0 m (0.03) show NC gr  black 1 1 1 c
 gsave  2268 1415 0 0 C 1400.2 361.465 t 0 r /Helvetica-Bold findfont 7.60979 sf 0 0 m (0.01) show NC gr  black 1 1 1 c
 gsave  2268 1415 0 0 C 1483.91 361.465 t 0 r /Helvetica-Bold findfont 7.60979 sf 0 0 m (0.01) show NC gr  black 1 1 1 c
 gsave  2268 1415 0 0 C 1571.42 361.465 t 0 r /Helvetica-Bold findfont 7.60979 sf 0 0 m (0.00) show NC gr  black 1 1 1 c
 gsave  2268 1415 0 0 C 1658.93 361.465 t 0 r /Helvetica-Bold findfont 7.60979 sf 0 0 m (1.00) show NC gr  black 1 1 1 c
 gsave  2268 1415 0 0 C 1742.64 361.465 t 0 r /Helvetica-Bold findfont 7.60979 sf 0 0 m (\2550.00) show NC gr  black 1 1 1 c
 gsave  2268 1415 0 0 C 1833.96 361.465 t 0 r /Helvetica-Bold findfont 7.60979 sf 0 0 m (0.02) show NC gr  black 1 1 1 c
 gsave  2268 1415 0 0 C 1917.67 361.465 t 0 r /Helvetica-Bold findfont 7.60979 sf 0 0 m (\2550.35) show NC gr  black 1 1 1 c
 gsave  2268 1415 0 0 C 441.368 422.343 t 0 r /Helvetica-Bold findfont 7.60979 sf 0 0 m (0.02) show NC gr  black 1 1 1 c
 gsave  2268 1415 0 0 C 525.075 422.343 t 0 r /Helvetica-Bold findfont 7.60979 sf 0 0 m (\2550.01) show NC gr  black 1 1 1 c
 gsave  2268 1415 0 0 C 612.588 422.343 t 0 r /Helvetica-Bold findfont 7.60979 sf 0 0 m (\2550.02) show NC gr  black 1 1 1 c
 gsave  2268 1415 0 0 C 700.1 422.343 t 0 r /Helvetica-Bold findfont 7.60979 sf 0 0 m (\2550.02) show NC gr  black 1 1 1 c
 gsave  2268 1415 0 0 C 787.613 422.343 t 0 r /Helvetica-Bold findfont 7.60979 sf 0 0 m (\2550.03) show NC gr  black 1 1 1 c
 gsave  2268 1415 0 0 C 871.321 422.343 t 0 r /Helvetica-Bold findfont 7.60979 sf 0 0 m (\2550.02) show NC gr  black 1 1 1 c
 gsave  2268 1415 0 0 C 958.833 422.343 t 0 r /Helvetica-Bold findfont 7.60979 sf 0 0 m (\2550.03) show NC gr  black 1 1 1 c
 gsave  2268 1415 0 0 C 1050.15 422.343 t 0 r /Helvetica-Bold findfont 7.60979 sf 0 0 m (0.00) show NC gr  black 1 1 1 c
 gsave  2268 1415 0 0 C 1133.86 422.343 t 0 r /Helvetica-Bold findfont 7.60979 sf 0 0 m (\2550.01) show NC gr  black 1 1 1 c
 gsave  2268 1415 0 0 C 1225.18 422.343 t 0 r /Helvetica-Bold findfont 7.60979 sf 0 0 m (0.15) show NC gr  black 1 1 1 c
 gsave  2268 1415 0 0 C 1312.69 422.343 t 0 r /Helvetica-Bold findfont 7.60979 sf 0 0 m (0.04) show NC gr  black 1 1 1 c
 gsave  2268 1415 0 0 C 1400.2 422.343 t 0 r /Helvetica-Bold findfont 7.60979 sf 0 0 m (0.05) show NC gr  black 1 1 1 c
 gsave  2268 1415 0 0 C 1480.1 422.343 t 0 r /Helvetica-Bold findfont 7.60979 sf 0 0 m (\2550.02) show NC gr  black 1 1 1 c
 gsave  2268 1415 0 0 C 1571.42 422.343 t 0 r /Helvetica-Bold findfont 7.60979 sf 0 0 m (1.00) show NC gr  black 1 1 1 c
 gsave  2268 1415 0 0 C 1658.93 422.343 t 0 r /Helvetica-Bold findfont 7.60979 sf 0 0 m (0.00) show NC gr  black 1 1 1 c
 gsave  2268 1415 0 0 C 1746.45 422.343 t 0 r /Helvetica-Bold findfont 7.60979 sf 0 0 m (0.00) show NC gr  black 1 1 1 c
 gsave  2268 1415 0 0 C 1833.96 422.343 t 0 r /Helvetica-Bold findfont 7.60979 sf 0 0 m (0.02) show NC gr  black 1 1 1 c
 gsave  2268 1415 0 0 C 1917.67 422.343 t 0 r /Helvetica-Bold findfont 7.60979 sf 0 0 m (\2550.60) show NC gr  black 1 1 1 c
 gsave  2268 1415 0 0 C 441.368 487.026 t 0 r /Helvetica-Bold findfont 7.60979 sf 0 0 m (0.03) show NC gr  black 1 1 1 c
 gsave  2268 1415 0 0 C 525.075 487.026 t 0 r /Helvetica-Bold findfont 7.60979 sf 0 0 m (\2550.01) show NC gr  black 1 1 1 c
 gsave  2268 1415 0 0 C 612.588 487.026 t 0 r /Helvetica-Bold findfont 7.60979 sf 0 0 m (\2550.01) show NC gr  black 1 1 1 c
 gsave  2268 1415 0 0 C 700.1 487.026 t 0 r /Helvetica-Bold findfont 7.60979 sf 0 0 m (\2550.01) show NC gr  black 1 1 1 c
 gsave  2268 1415 0 0 C 787.613 487.026 t 0 r /Helvetica-Bold findfont 7.60979 sf 0 0 m (\2550.04) show NC gr  black 1 1 1 c
 gsave  2268 1415 0 0 C 871.321 487.026 t 0 r /Helvetica-Bold findfont 7.60979 sf 0 0 m (\2550.02) show NC gr  black 1 1 1 c
 gsave  2268 1415 0 0 C 962.638 487.026 t 0 r /Helvetica-Bold findfont 7.60979 sf 0 0 m (0.00) show NC gr  black 1 1 1 c
 gsave  2268 1415 0 0 C 1046.35 487.026 t 0 r /Helvetica-Bold findfont 7.60979 sf 0 0 m (\2550.00) show NC gr  black 1 1 1 c
 gsave  2268 1415 0 0 C 1133.86 487.026 t 0 r /Helvetica-Bold findfont 7.60979 sf 0 0 m (\2550.02) show NC gr  black 1 1 1 c
 gsave  2268 1415 0 0 C 1225.18 487.026 t 0 r /Helvetica-Bold findfont 7.60979 sf 0 0 m (0.04) show NC gr  black 1 1 1 c
 gsave  2268 1415 0 0 C 1312.69 487.026 t 0 r /Helvetica-Bold findfont 7.60979 sf 0 0 m (0.02) show NC gr  black 1 1 1 c
 gsave  2268 1415 0 0 C 1400.2 487.026 t 0 r /Helvetica-Bold findfont 7.60979 sf 0 0 m (0.03) show NC gr  black 1 1 1 c
 gsave  2268 1415 0 0 C 1483.91 487.026 t 0 r /Helvetica-Bold findfont 7.60979 sf 0 0 m (1.00) show NC gr  black 1 1 1 c
 gsave  2268 1415 0 0 C 1567.62 487.026 t 0 r /Helvetica-Bold findfont 7.60979 sf 0 0 m (\2550.02) show NC gr  black 1 1 1 c
 gsave  2268 1415 0 0 C 1658.93 487.026 t 0 r /Helvetica-Bold findfont 7.60979 sf 0 0 m (0.01) show NC gr  black 1 1 1 c
 gsave  2268 1415 0 0 C 1746.45 487.026 t 0 r /Helvetica-Bold findfont 7.60979 sf 0 0 m (0.00) show NC gr  black 1 1 1 c
 gsave  2268 1415 0 0 C 1833.96 487.026 t 0 r /Helvetica-Bold findfont 7.60979 sf 0 0 m (0.03) show NC gr  black 1 1 1 c
 gsave  2268 1415 0 0 C 1917.67 487.026 t 0 r /Helvetica-Bold findfont 7.60979 sf 0 0 m (\2550.62) show NC gr  black 1 1 1 c
 gsave  2268 1415 0 0 C 437.563 547.905 t 0 r /Helvetica-Bold findfont 7.60979 sf 0 0 m (\2550.01) show NC gr  black 1 1 1 c
 gsave  2268 1415 0 0 C 528.88 547.905 t 0 r /Helvetica-Bold findfont 7.60979 sf 0 0 m (0.01) show NC gr  black 1 1 1 c
 gsave  2268 1415 0 0 C 616.393 547.905 t 0 r /Helvetica-Bold findfont 7.60979 sf 0 0 m (0.02) show NC gr  black 1 1 1 c
 gsave  2268 1415 0 0 C 703.905 547.905 t 0 r /Helvetica-Bold findfont 7.60979 sf 0 0 m (0.01) show NC gr  black 1 1 1 c
 gsave  2268 1415 0 0 C 791.418 547.905 t 0 r /Helvetica-Bold findfont 7.60979 sf 0 0 m (0.01) show NC gr  black 1 1 1 c
 gsave  2268 1415 0 0 C 875.125 547.905 t 0 r /Helvetica-Bold findfont 7.60979 sf 0 0 m (0.02) show NC gr  black 1 1 1 c
 gsave  2268 1415 0 0 C 962.638 547.905 t 0 r /Helvetica-Bold findfont 7.60979 sf 0 0 m (0.02) show NC gr  black 1 1 1 c
 gsave  2268 1415 0 0 C 1046.35 547.905 t 0 r /Helvetica-Bold findfont 7.60979 sf 0 0 m (\2550.01) show NC gr  black 1 1 1 c
 gsave  2268 1415 0 0 C 1137.66 547.905 t 0 r /Helvetica-Bold findfont 7.60979 sf 0 0 m (0.03) show NC gr  black 1 1 1 c
 gsave  2268 1415 0 0 C 1221.37 547.905 t 0 r /Helvetica-Bold findfont 7.60979 sf 0 0 m (\2550.14) show NC gr  black 1 1 1 c
 gsave  2268 1415 0 0 C 1308.88 547.905 t 0 r /Helvetica-Bold findfont 7.60979 sf 0 0 m (\2550.05) show NC gr  black 1 1 1 c
 gsave  2268 1415 0 0 C 1400.2 547.905 t 0 r /Helvetica-Bold findfont 7.60979 sf 0 0 m (1.00) show NC gr  black 1 1 1 c
 gsave  2268 1415 0 0 C 1483.91 547.905 t 0 r /Helvetica-Bold findfont 7.60979 sf 0 0 m (0.03) show NC gr  black 1 1 1 c
 gsave  2268 1415 0 0 C 1571.42 547.905 t 0 r /Helvetica-Bold findfont 7.60979 sf 0 0 m (0.05) show NC gr  black 1 1 1 c
 gsave  2268 1415 0 0 C 1658.93 547.905 t 0 r /Helvetica-Bold findfont 7.60979 sf 0 0 m (0.01) show NC gr  black 1 1 1 c
 gsave  2268 1415 0 0 C 1742.64 547.905 t 0 r /Helvetica-Bold findfont 7.60979 sf 0 0 m (\2550.01) show NC gr  black 1 1 1 c
 gsave  2268 1415 0 0 C 1830.15 547.905 t 0 r /Helvetica-Bold findfont 7.60979 sf 0 0 m (\2550.01) show NC gr  black 1 1 1 c
 gsave  2268 1415 0 0 C 1917.67 547.905 t 0 r /Helvetica-Bold findfont 7.60979 sf 0 0 m (\2550.08) show NC gr  black 1 1 1 c
 gsave  2268 1415 0 0 C 441.368 612.588 t 0 r /Helvetica-Bold findfont 7.60979 sf 0 0 m (0.00) show NC gr  black 1 1 1 c
 gsave  2268 1415 0 0 C 528.88 612.588 t 0 r /Helvetica-Bold findfont 7.60979 sf 0 0 m (0.04) show NC gr  black 1 1 1 c
 gsave  2268 1415 0 0 C 616.393 612.588 t 0 r /Helvetica-Bold findfont 7.60979 sf 0 0 m (0.08) show NC gr  black 1 1 1 c
 gsave  2268 1415 0 0 C 700.1 612.588 t 0 r /Helvetica-Bold findfont 7.60979 sf 0 0 m (\2550.01) show NC gr  black 1 1 1 c
 gsave  2268 1415 0 0 C 791.418 612.588 t 0 r /Helvetica-Bold findfont 7.60979 sf 0 0 m (0.02) show NC gr  black 1 1 1 c
 gsave  2268 1415 0 0 C 875.125 612.588 t 0 r /Helvetica-Bold findfont 7.60979 sf 0 0 m (0.10) show NC gr  black 1 1 1 c
 gsave  2268 1415 0 0 C 962.638 612.588 t 0 r /Helvetica-Bold findfont 7.60979 sf 0 0 m (0.02) show NC gr  black 1 1 1 c
 gsave  2268 1415 0 0 C 1046.35 612.588 t 0 r /Helvetica-Bold findfont 7.60979 sf 0 0 m (\2550.01) show NC gr  black 1 1 1 c
 gsave  2268 1415 0 0 C 1133.86 612.588 t 0 r /Helvetica-Bold findfont 7.60979 sf 0 0 m (\2550.02) show NC gr  black 1 1 1 c
 gsave  2268 1415 0 0 C 1221.37 612.588 t 0 r /Helvetica-Bold findfont 7.60979 sf 0 0 m (\2550.35) show NC gr  black 1 1 1 c
 gsave  2268 1415 0 0 C 1312.69 612.588 t 0 r /Helvetica-Bold findfont 7.60979 sf 0 0 m (1.00) show NC gr  black 1 1 1 c
 gsave  2268 1415 0 0 C 1396.4 612.588 t 0 r /Helvetica-Bold findfont 7.60979 sf 0 0 m (\2550.05) show NC gr  black 1 1 1 c
 gsave  2268 1415 0 0 C 1483.91 612.588 t 0 r /Helvetica-Bold findfont 7.60979 sf 0 0 m (0.02) show NC gr  black 1 1 1 c
 gsave  2268 1415 0 0 C 1571.42 612.588 t 0 r /Helvetica-Bold findfont 7.60979 sf 0 0 m (0.04) show NC gr  black 1 1 1 c
 gsave  2268 1415 0 0 C 1658.93 612.588 t 0 r /Helvetica-Bold findfont 7.60979 sf 0 0 m (0.03) show NC gr  black 1 1 1 c
 gsave  2268 1415 0 0 C 1742.64 612.588 t 0 r /Helvetica-Bold findfont 7.60979 sf 0 0 m (\2550.00) show NC gr  black 1 1 1 c
 gsave  2268 1415 0 0 C 1830.15 612.588 t 0 r /Helvetica-Bold findfont 7.60979 sf 0 0 m (\2550.10) show NC gr  black 1 1 1 c
 gsave  2268 1415 0 0 C 1917.67 612.588 t 0 r /Helvetica-Bold findfont 7.60979 sf 0 0 m (\2550.06) show NC gr  black 1 1 1 c
 gsave  2268 1415 0 0 C 441.368 673.466 t 0 r /Helvetica-Bold findfont 7.60979 sf 0 0 m (0.02) show NC gr  black 1 1 1 c
 gsave  2268 1415 0 0 C 528.88 673.466 t 0 r /Helvetica-Bold findfont 7.60979 sf 0 0 m (0.13) show NC gr  black 1 1 1 c
 gsave  2268 1415 0 0 C 616.393 673.466 t 0 r /Helvetica-Bold findfont 7.60979 sf 0 0 m (0.15) show NC gr  black 1 1 1 c
 gsave  2268 1415 0 0 C 700.1 673.466 t 0 r /Helvetica-Bold findfont 7.60979 sf 0 0 m (\2550.06) show NC gr  black 1 1 1 c
 gsave  2268 1415 0 0 C 787.613 673.466 t 0 r /Helvetica-Bold findfont 7.60979 sf 0 0 m (\2550.05) show NC gr  black 1 1 1 c
 gsave  2268 1415 0 0 C 875.125 673.466 t 0 r /Helvetica-Bold findfont 7.60979 sf 0 0 m (0.15) show NC gr  black 1 1 1 c
 gsave  2268 1415 0 0 C 962.638 673.466 t 0 r /Helvetica-Bold findfont 7.60979 sf 0 0 m (0.16) show NC gr  black 1 1 1 c
 gsave  2268 1415 0 0 C 1050.15 673.466 t 0 r /Helvetica-Bold findfont 7.60979 sf 0 0 m (0.01) show NC gr  black 1 1 1 c
 gsave  2268 1415 0 0 C 1133.86 673.466 t 0 r /Helvetica-Bold findfont 7.60979 sf 0 0 m (\2550.09) show NC gr  black 1 1 1 c
 gsave  2268 1415 0 0 C 1225.18 673.466 t 0 r /Helvetica-Bold findfont 7.60979 sf 0 0 m (1.00) show NC gr  black 1 1 1 c
 gsave  2268 1415 0 0 C 1308.88 673.466 t 0 r /Helvetica-Bold findfont 7.60979 sf 0 0 m (\2550.35) show NC gr  black 1 1 1 c
 gsave  2268 1415 0 0 C 1396.4 673.466 t 0 r /Helvetica-Bold findfont 7.60979 sf 0 0 m (\2550.14) show NC gr  black 1 1 1 c
 gsave  2268 1415 0 0 C 1483.91 673.466 t 0 r /Helvetica-Bold findfont 7.60979 sf 0 0 m (0.04) show NC gr  black 1 1 1 c
 gsave  2268 1415 0 0 C 1571.42 673.466 t 0 r /Helvetica-Bold findfont 7.60979 sf 0 0 m (0.15) show NC gr  black 1 1 1 c
 gsave  2268 1415 0 0 C 1658.93 673.466 t 0 r /Helvetica-Bold findfont 7.60979 sf 0 0 m (0.03) show NC gr  black 1 1 1 c
 gsave  2268 1415 0 0 C 1746.45 673.466 t 0 r /Helvetica-Bold findfont 7.60979 sf 0 0 m (0.03) show NC gr  black 1 1 1 c
 gsave  2268 1415 0 0 C 1830.15 673.466 t 0 r /Helvetica-Bold findfont 7.60979 sf 0 0 m (\2550.16) show NC gr  black 1 1 1 c
 gsave  2268 1415 0 0 C 1917.67 673.466 t 0 r /Helvetica-Bold findfont 7.60979 sf 0 0 m (\2550.25) show NC gr  black 1 1 1 c
 gsave  2268 1415 0 0 C 441.368 738.149 t 0 r /Helvetica-Bold findfont 7.60979 sf 0 0 m (0.02) show NC gr  black 1 1 1 c
 gsave  2268 1415 0 0 C 528.88 738.149 t 0 r /Helvetica-Bold findfont 7.60979 sf 0 0 m (0.02) show NC gr  black 1 1 1 c
 gsave  2268 1415 0 0 C 616.393 738.149 t 0 r /Helvetica-Bold findfont 7.60979 sf 0 0 m (0.01) show NC gr  black 1 1 1 c
 gsave  2268 1415 0 0 C 703.905 738.149 t 0 r /Helvetica-Bold findfont 7.60979 sf 0 0 m (0.02) show NC gr  black 1 1 1 c
 gsave  2268 1415 0 0 C 791.418 738.149 t 0 r /Helvetica-Bold findfont 7.60979 sf 0 0 m (0.01) show NC gr  black 1 1 1 c
 gsave  2268 1415 0 0 C 875.125 738.149 t 0 r /Helvetica-Bold findfont 7.60979 sf 0 0 m (0.01) show NC gr  black 1 1 1 c
 gsave  2268 1415 0 0 C 958.833 738.149 t 0 r /Helvetica-Bold findfont 7.60979 sf 0 0 m (\2550.02) show NC gr  black 1 1 1 c
 gsave  2268 1415 0 0 C 1046.35 738.149 t 0 r /Helvetica-Bold findfont 7.60979 sf 0 0 m (\2550.01) show NC gr  black 1 1 1 c
 gsave  2268 1415 0 0 C 1137.66 738.149 t 0 r /Helvetica-Bold findfont 7.60979 sf 0 0 m (1.00) show NC gr  black 1 1 1 c
 gsave  2268 1415 0 0 C 1221.37 738.149 t 0 r /Helvetica-Bold findfont 7.60979 sf 0 0 m (\2550.09) show NC gr  black 1 1 1 c
 gsave  2268 1415 0 0 C 1308.88 738.149 t 0 r /Helvetica-Bold findfont 7.60979 sf 0 0 m (\2550.02) show NC gr  black 1 1 1 c
 gsave  2268 1415 0 0 C 1400.2 738.149 t 0 r /Helvetica-Bold findfont 7.60979 sf 0 0 m (0.03) show NC gr  black 1 1 1 c
 gsave  2268 1415 0 0 C 1480.1 738.149 t 0 r /Helvetica-Bold findfont 7.60979 sf 0 0 m (\2550.02) show NC gr  black 1 1 1 c
 gsave  2268 1415 0 0 C 1567.62 738.149 t 0 r /Helvetica-Bold findfont 7.60979 sf 0 0 m (\2550.01) show NC gr  black 1 1 1 c
 gsave  2268 1415 0 0 C 1658.93 738.149 t 0 r /Helvetica-Bold findfont 7.60979 sf 0 0 m (0.02) show NC gr  black 1 1 1 c
 gsave  2268 1415 0 0 C 1742.64 738.149 t 0 r /Helvetica-Bold findfont 7.60979 sf 0 0 m (\2550.02) show NC gr  black 1 1 1 c
 gsave  2268 1415 0 0 C 1833.96 738.149 t 0 r /Helvetica-Bold findfont 7.60979 sf 0 0 m (0.24) show NC gr  black 1 1 1 c
 gsave  2268 1415 0 0 C 1921.47 738.149 t 0 r /Helvetica-Bold findfont 7.60979 sf 0 0 m (0.00) show NC gr  black 1 1 1 c
 gsave  2268 1415 0 0 C 437.563 799.028 t 0 r /Helvetica-Bold findfont 7.60979 sf 0 0 m (\2550.01) show NC gr  black 1 1 1 c
 gsave  2268 1415 0 0 C 525.075 799.028 t 0 r /Helvetica-Bold findfont 7.60979 sf 0 0 m (\2550.00) show NC gr  black 1 1 1 c
 gsave  2268 1415 0 0 C 612.588 799.028 t 0 r /Helvetica-Bold findfont 7.60979 sf 0 0 m (\2550.00) show NC gr  black 1 1 1 c
 gsave  2268 1415 0 0 C 700.1 799.028 t 0 r /Helvetica-Bold findfont 7.60979 sf 0 0 m (\2550.02) show NC gr  black 1 1 1 c
 gsave  2268 1415 0 0 C 787.613 799.028 t 0 r /Helvetica-Bold findfont 7.60979 sf 0 0 m (\2550.01) show NC gr  black 1 1 1 c
 gsave  2268 1415 0 0 C 871.321 799.028 t 0 r /Helvetica-Bold findfont 7.60979 sf 0 0 m (\2550.00) show NC gr  black 1 1 1 c
 gsave  2268 1415 0 0 C 962.638 799.028 t 0 r /Helvetica-Bold findfont 7.60979 sf 0 0 m (0.02) show NC gr  black 1 1 1 c
 gsave  2268 1415 0 0 C 1050.15 799.028 t 0 r /Helvetica-Bold findfont 7.60979 sf 0 0 m (1.00) show NC gr  black 1 1 1 c
 gsave  2268 1415 0 0 C 1133.86 799.028 t 0 r /Helvetica-Bold findfont 7.60979 sf 0 0 m (\2550.01) show NC gr  black 1 1 1 c
 gsave  2268 1415 0 0 C 1225.18 799.028 t 0 r /Helvetica-Bold findfont 7.60979 sf 0 0 m (0.01) show NC gr  black 1 1 1 c
 gsave  2268 1415 0 0 C 1308.88 799.028 t 0 r /Helvetica-Bold findfont 7.60979 sf 0 0 m (\2550.01) show NC gr  black 1 1 1 c
 gsave  2268 1415 0 0 C 1396.4 799.028 t 0 r /Helvetica-Bold findfont 7.60979 sf 0 0 m (\2550.01) show NC gr  black 1 1 1 c
 gsave  2268 1415 0 0 C 1480.1 799.028 t 0 r /Helvetica-Bold findfont 7.60979 sf 0 0 m (\2550.00) show NC gr  black 1 1 1 c
 gsave  2268 1415 0 0 C 1571.42 799.028 t 0 r /Helvetica-Bold findfont 7.60979 sf 0 0 m (0.00) show NC gr  black 1 1 1 c
 gsave  2268 1415 0 0 C 1655.13 799.028 t 0 r /Helvetica-Bold findfont 7.60979 sf 0 0 m (\2550.00) show NC gr  black 1 1 1 c
 gsave  2268 1415 0 0 C 1746.45 799.028 t 0 r /Helvetica-Bold findfont 7.60979 sf 0 0 m (0.00) show NC gr  black 1 1 1 c
 gsave  2268 1415 0 0 C 1830.15 799.028 t 0 r /Helvetica-Bold findfont 7.60979 sf 0 0 m (\2550.13) show NC gr  black 1 1 1 c
 gsave  2268 1415 0 0 C 1917.67 799.028 t 0 r /Helvetica-Bold findfont 7.60979 sf 0 0 m (\2550.04) show NC gr  black 1 1 1 c
 gsave  2268 1415 0 0 C 441.368 863.711 t 0 r /Helvetica-Bold findfont 7.60979 sf 0 0 m (0.04) show NC gr  black 1 1 1 c
 gsave  2268 1415 0 0 C 528.88 863.711 t 0 r /Helvetica-Bold findfont 7.60979 sf 0 0 m (0.06) show NC gr  black 1 1 1 c
 gsave  2268 1415 0 0 C 616.393 863.711 t 0 r /Helvetica-Bold findfont 7.60979 sf 0 0 m (0.09) show NC gr  black 1 1 1 c
 gsave  2268 1415 0 0 C 703.905 863.711 t 0 r /Helvetica-Bold findfont 7.60979 sf 0 0 m (0.03) show NC gr  black 1 1 1 c
 gsave  2268 1415 0 0 C 791.418 863.711 t 0 r /Helvetica-Bold findfont 7.60979 sf 0 0 m (0.06) show NC gr  black 1 1 1 c
 gsave  2268 1415 0 0 C 875.125 863.711 t 0 r /Helvetica-Bold findfont 7.60979 sf 0 0 m (0.09) show NC gr  black 1 1 1 c
 gsave  2268 1415 0 0 C 962.638 863.711 t 0 r /Helvetica-Bold findfont 7.60979 sf 0 0 m (1.00) show NC gr  black 1 1 1 c
 gsave  2268 1415 0 0 C 1050.15 863.711 t 0 r /Helvetica-Bold findfont 7.60979 sf 0 0 m (0.02) show NC gr  black 1 1 1 c
 gsave  2268 1415 0 0 C 1133.86 863.711 t 0 r /Helvetica-Bold findfont 7.60979 sf 0 0 m (\2550.02) show NC gr  black 1 1 1 c
 gsave  2268 1415 0 0 C 1225.18 863.711 t 0 r /Helvetica-Bold findfont 7.60979 sf 0 0 m (0.16) show NC gr  black 1 1 1 c
 gsave  2268 1415 0 0 C 1312.69 863.711 t 0 r /Helvetica-Bold findfont 7.60979 sf 0 0 m (0.02) show NC gr  black 1 1 1 c
 gsave  2268 1415 0 0 C 1400.2 863.711 t 0 r /Helvetica-Bold findfont 7.60979 sf 0 0 m (0.02) show NC gr  black 1 1 1 c
 gsave  2268 1415 0 0 C 1483.91 863.711 t 0 r /Helvetica-Bold findfont 7.60979 sf 0 0 m (0.00) show NC gr  black 1 1 1 c
 gsave  2268 1415 0 0 C 1567.62 863.711 t 0 r /Helvetica-Bold findfont 7.60979 sf 0 0 m (\2550.03) show NC gr  black 1 1 1 c
 gsave  2268 1415 0 0 C 1658.93 863.711 t 0 r /Helvetica-Bold findfont 7.60979 sf 0 0 m (0.01) show NC gr  black 1 1 1 c
 gsave  2268 1415 0 0 C 1746.45 863.711 t 0 r /Helvetica-Bold findfont 7.60979 sf 0 0 m (0.01) show NC gr  black 1 1 1 c
 gsave  2268 1415 0 0 C 1833.96 863.711 t 0 r /Helvetica-Bold findfont 7.60979 sf 0 0 m (0.03) show NC gr  black 1 1 1 c
 gsave  2268 1415 0 0 C 1921.47 863.711 t 0 r /Helvetica-Bold findfont 7.60979 sf 0 0 m (0.01) show NC gr  black 1 1 1 c
 gsave  2268 1415 0 0 C 437.563 924.589 t 0 r /Helvetica-Bold findfont 7.60979 sf 0 0 m (\2550.04) show NC gr  black 1 1 1 c
 gsave  2268 1415 0 0 C 525.075 924.589 t 0 r /Helvetica-Bold findfont 7.60979 sf 0 0 m (\2550.05) show NC gr  black 1 1 1 c
 gsave  2268 1415 0 0 C 612.588 924.589 t 0 r /Helvetica-Bold findfont 7.60979 sf 0 0 m (\2550.08) show NC gr  black 1 1 1 c
 gsave  2268 1415 0 0 C 703.905 924.589 t 0 r /Helvetica-Bold findfont 7.60979 sf 0 0 m (0.00) show NC gr  black 1 1 1 c
 gsave  2268 1415 0 0 C 787.613 924.589 t 0 r /Helvetica-Bold findfont 7.60979 sf 0 0 m (\2550.04) show NC gr  black 1 1 1 c
 gsave  2268 1415 0 0 C 875.125 924.589 t 0 r /Helvetica-Bold findfont 7.60979 sf 0 0 m (1.00) show NC gr  black 1 1 1 c
 gsave  2268 1415 0 0 C 962.638 924.589 t 0 r /Helvetica-Bold findfont 7.60979 sf 0 0 m (0.09) show NC gr  black 1 1 1 c
 gsave  2268 1415 0 0 C 1046.35 924.589 t 0 r /Helvetica-Bold findfont 7.60979 sf 0 0 m (\2550.00) show NC gr  black 1 1 1 c
 gsave  2268 1415 0 0 C 1137.66 924.589 t 0 r /Helvetica-Bold findfont 7.60979 sf 0 0 m (0.01) show NC gr  black 1 1 1 c
 gsave  2268 1415 0 0 C 1225.18 924.589 t 0 r /Helvetica-Bold findfont 7.60979 sf 0 0 m (0.15) show NC gr  black 1 1 1 c
 gsave  2268 1415 0 0 C 1312.69 924.589 t 0 r /Helvetica-Bold findfont 7.60979 sf 0 0 m (0.10) show NC gr  black 1 1 1 c
 gsave  2268 1415 0 0 C 1400.2 924.589 t 0 r /Helvetica-Bold findfont 7.60979 sf 0 0 m (0.02) show NC gr  black 1 1 1 c
 gsave  2268 1415 0 0 C 1480.1 924.589 t 0 r /Helvetica-Bold findfont 7.60979 sf 0 0 m (\2550.02) show NC gr  black 1 1 1 c
 gsave  2268 1415 0 0 C 1567.62 924.589 t 0 r /Helvetica-Bold findfont 7.60979 sf 0 0 m (\2550.02) show NC gr  black 1 1 1 c
 gsave  2268 1415 0 0 C 1655.13 924.589 t 0 r /Helvetica-Bold findfont 7.60979 sf 0 0 m (\2550.01) show NC gr  black 1 1 1 c
 gsave  2268 1415 0 0 C 1742.64 924.589 t 0 r /Helvetica-Bold findfont 7.60979 sf 0 0 m (\2550.00) show NC gr  black 1 1 1 c
 gsave  2268 1415 0 0 C 1833.96 924.589 t 0 r /Helvetica-Bold findfont 7.60979 sf 0 0 m (0.01) show NC gr  black 1 1 1 c
 gsave  2268 1415 0 0 C 1921.47 924.589 t 0 r /Helvetica-Bold findfont 7.60979 sf 0 0 m (0.05) show NC gr  black 1 1 1 c
 gsave  2268 1415 0 0 C 441.368 989.272 t 0 r /Helvetica-Bold findfont 7.60979 sf 0 0 m (0.01) show NC gr  black 1 1 1 c
 gsave  2268 1415 0 0 C 525.075 989.272 t 0 r /Helvetica-Bold findfont 7.60979 sf 0 0 m (\2550.01) show NC gr  black 1 1 1 c
 gsave  2268 1415 0 0 C 612.588 989.272 t 0 r /Helvetica-Bold findfont 7.60979 sf 0 0 m (\2550.02) show NC gr  black 1 1 1 c
 gsave  2268 1415 0 0 C 700.1 989.272 t 0 r /Helvetica-Bold findfont 7.60979 sf 0 0 m (\2550.03) show NC gr  black 1 1 1 c
 gsave  2268 1415 0 0 C 791.418 989.272 t 0 r /Helvetica-Bold findfont 7.60979 sf 0 0 m (1.00) show NC gr  black 1 1 1 c
 gsave  2268 1415 0 0 C 871.321 989.272 t 0 r /Helvetica-Bold findfont 7.60979 sf 0 0 m (\2550.04) show NC gr  black 1 1 1 c
 gsave  2268 1415 0 0 C 962.638 989.272 t 0 r /Helvetica-Bold findfont 7.60979 sf 0 0 m (0.06) show NC gr  black 1 1 1 c
 gsave  2268 1415 0 0 C 1046.35 989.272 t 0 r /Helvetica-Bold findfont 7.60979 sf 0 0 m (\2550.01) show NC gr  black 1 1 1 c
 gsave  2268 1415 0 0 C 1137.66 989.272 t 0 r /Helvetica-Bold findfont 7.60979 sf 0 0 m (0.01) show NC gr  black 1 1 1 c
 gsave  2268 1415 0 0 C 1221.37 989.272 t 0 r /Helvetica-Bold findfont 7.60979 sf 0 0 m (\2550.05) show NC gr  black 1 1 1 c
 gsave  2268 1415 0 0 C 1312.69 989.272 t 0 r /Helvetica-Bold findfont 7.60979 sf 0 0 m (0.02) show NC gr  black 1 1 1 c
 gsave  2268 1415 0 0 C 1400.2 989.272 t 0 r /Helvetica-Bold findfont 7.60979 sf 0 0 m (0.01) show NC gr  black 1 1 1 c
 gsave  2268 1415 0 0 C 1480.1 989.272 t 0 r /Helvetica-Bold findfont 7.60979 sf 0 0 m (\2550.04) show NC gr  black 1 1 1 c
 gsave  2268 1415 0 0 C 1567.62 989.272 t 0 r /Helvetica-Bold findfont 7.60979 sf 0 0 m (\2550.03) show NC gr  black 1 1 1 c
 gsave  2268 1415 0 0 C 1655.13 989.272 t 0 r /Helvetica-Bold findfont 7.60979 sf 0 0 m (\2550.03) show NC gr  black 1 1 1 c
 gsave  2268 1415 0 0 C 1742.64 989.272 t 0 r /Helvetica-Bold findfont 7.60979 sf 0 0 m (\2550.00) show NC gr  black 1 1 1 c
 gsave  2268 1415 0 0 C 1833.96 989.272 t 0 r /Helvetica-Bold findfont 7.60979 sf 0 0 m (0.12) show NC gr  black 1 1 1 c
 gsave  2268 1415 0 0 C 1921.47 989.272 t 0 r /Helvetica-Bold findfont 7.60979 sf 0 0 m (0.07) show NC gr  black 1 1 1 c
 gsave  2268 1415 0 0 C 437.563 1050.15 t 0 r /Helvetica-Bold findfont 7.60979 sf 0 0 m (\2550.04) show NC gr  black 1 1 1 c
 gsave  2268 1415 0 0 C 528.88 1050.15 t 0 r /Helvetica-Bold findfont 7.60979 sf 0 0 m (0.01) show NC gr  black 1 1 1 c
 gsave  2268 1415 0 0 C 616.393 1050.15 t 0 r /Helvetica-Bold findfont 7.60979 sf 0 0 m (0.01) show NC gr  black 1 1 1 c
 gsave  2268 1415 0 0 C 703.905 1050.15 t 0 r /Helvetica-Bold findfont 7.60979 sf 0 0 m (1.00) show NC gr  black 1 1 1 c
 gsave  2268 1415 0 0 C 787.613 1050.15 t 0 r /Helvetica-Bold findfont 7.60979 sf 0 0 m (\2550.03) show NC gr  black 1 1 1 c
 gsave  2268 1415 0 0 C 875.125 1050.15 t 0 r /Helvetica-Bold findfont 7.60979 sf 0 0 m (0.00) show NC gr  black 1 1 1 c
 gsave  2268 1415 0 0 C 962.638 1050.15 t 0 r /Helvetica-Bold findfont 7.60979 sf 0 0 m (0.03) show NC gr  black 1 1 1 c
 gsave  2268 1415 0 0 C 1046.35 1050.15 t 0 r /Helvetica-Bold findfont 7.60979 sf 0 0 m (\2550.02) show NC gr  black 1 1 1 c
 gsave  2268 1415 0 0 C 1137.66 1050.15 t 0 r /Helvetica-Bold findfont 7.60979 sf 0 0 m (0.02) show NC gr  black 1 1 1 c
 gsave  2268 1415 0 0 C 1221.37 1050.15 t 0 r /Helvetica-Bold findfont 7.60979 sf 0 0 m (\2550.06) show NC gr  black 1 1 1 c
 gsave  2268 1415 0 0 C 1308.88 1050.15 t 0 r /Helvetica-Bold findfont 7.60979 sf 0 0 m (\2550.01) show NC gr  black 1 1 1 c
 gsave  2268 1415 0 0 C 1400.2 1050.15 t 0 r /Helvetica-Bold findfont 7.60979 sf 0 0 m (0.01) show NC gr  black 1 1 1 c
 gsave  2268 1415 0 0 C 1480.1 1050.15 t 0 r /Helvetica-Bold findfont 7.60979 sf 0 0 m (\2550.01) show NC gr  black 1 1 1 c
 gsave  2268 1415 0 0 C 1567.62 1050.15 t 0 r /Helvetica-Bold findfont 7.60979 sf 0 0 m (\2550.02) show NC gr  black 1 1 1 c
 gsave  2268 1415 0 0 C 1655.13 1050.15 t 0 r /Helvetica-Bold findfont 7.60979 sf 0 0 m (\2550.02) show NC gr  black 1 1 1 c
 gsave  2268 1415 0 0 C 1742.64 1050.15 t 0 r /Helvetica-Bold findfont 7.60979 sf 0 0 m (\2550.00) show NC gr  black 1 1 1 c
 gsave  2268 1415 0 0 C 1833.96 1050.15 t 0 r /Helvetica-Bold findfont 7.60979 sf 0 0 m (0.23) show NC gr  black 1 1 1 c
 gsave  2268 1415 0 0 C 1921.47 1050.15 t 0 r /Helvetica-Bold findfont 7.60979 sf 0 0 m (0.04) show NC gr  black 1 1 1 c
 gsave  2268 1415 0 0 C 437.563 1114.83 t 0 r /Helvetica-Bold findfont 7.60979 sf 0 0 m (\2550.01) show NC gr  black 1 1 1 c
 gsave  2268 1415 0 0 C 525.075 1114.83 t 0 r /Helvetica-Bold findfont 7.60979 sf 0 0 m (\2550.05) show NC gr  black 1 1 1 c
 gsave  2268 1415 0 0 C 616.393 1114.83 t 0 r /Helvetica-Bold findfont 7.60979 sf 0 0 m (1.00) show NC gr  black 1 1 1 c
 gsave  2268 1415 0 0 C 703.905 1114.83 t 0 r /Helvetica-Bold findfont 7.60979 sf 0 0 m (0.01) show NC gr  black 1 1 1 c
 gsave  2268 1415 0 0 C 787.613 1114.83 t 0 r /Helvetica-Bold findfont 7.60979 sf 0 0 m (\2550.02) show NC gr  black 1 1 1 c
 gsave  2268 1415 0 0 C 871.321 1114.83 t 0 r /Helvetica-Bold findfont 7.60979 sf 0 0 m (\2550.08) show NC gr  black 1 1 1 c
 gsave  2268 1415 0 0 C 962.638 1114.83 t 0 r /Helvetica-Bold findfont 7.60979 sf 0 0 m (0.09) show NC gr  black 1 1 1 c
 gsave  2268 1415 0 0 C 1046.35 1114.83 t 0 r /Helvetica-Bold findfont 7.60979 sf 0 0 m (\2550.00) show NC gr  black 1 1 1 c
 gsave  2268 1415 0 0 C 1137.66 1114.83 t 0 r /Helvetica-Bold findfont 7.60979 sf 0 0 m (0.01) show NC gr  black 1 1 1 c
 gsave  2268 1415 0 0 C 1225.18 1114.83 t 0 r /Helvetica-Bold findfont 7.60979 sf 0 0 m (0.15) show NC gr  black 1 1 1 c
 gsave  2268 1415 0 0 C 1312.69 1114.83 t 0 r /Helvetica-Bold findfont 7.60979 sf 0 0 m (0.08) show NC gr  black 1 1 1 c
 gsave  2268 1415 0 0 C 1400.2 1114.83 t 0 r /Helvetica-Bold findfont 7.60979 sf 0 0 m (0.02) show NC gr  black 1 1 1 c
 gsave  2268 1415 0 0 C 1480.1 1114.83 t 0 r /Helvetica-Bold findfont 7.60979 sf 0 0 m (\2550.01) show NC gr  black 1 1 1 c
 gsave  2268 1415 0 0 C 1567.62 1114.83 t 0 r /Helvetica-Bold findfont 7.60979 sf 0 0 m (\2550.02) show NC gr  black 1 1 1 c
 gsave  2268 1415 0 0 C 1655.13 1114.83 t 0 r /Helvetica-Bold findfont 7.60979 sf 0 0 m (\2550.01) show NC gr  black 1 1 1 c
 gsave  2268 1415 0 0 C 1742.64 1114.83 t 0 r /Helvetica-Bold findfont 7.60979 sf 0 0 m (\2550.00) show NC gr  black 1 1 1 c
 gsave  2268 1415 0 0 C 1833.96 1114.83 t 0 r /Helvetica-Bold findfont 7.60979 sf 0 0 m (0.04) show NC gr  black 1 1 1 c
 gsave  2268 1415 0 0 C 1921.47 1114.83 t 0 r /Helvetica-Bold findfont 7.60979 sf 0 0 m (0.04) show NC gr  black 1 1 1 c
 gsave  2268 1415 0 0 C 437.563 1175.71 t 0 r /Helvetica-Bold findfont 7.60979 sf 0 0 m (\2550.03) show NC gr  black 1 1 1 c
 gsave  2268 1415 0 0 C 528.88 1175.71 t 0 r /Helvetica-Bold findfont 7.60979 sf 0 0 m (1.00) show NC gr  black 1 1 1 c
 gsave  2268 1415 0 0 C 612.588 1175.71 t 0 r /Helvetica-Bold findfont 7.60979 sf 0 0 m (\2550.05) show NC gr  black 1 1 1 c
 gsave  2268 1415 0 0 C 703.905 1175.71 t 0 r /Helvetica-Bold findfont 7.60979 sf 0 0 m (0.01) show NC gr  black 1 1 1 c
 gsave  2268 1415 0 0 C 787.613 1175.71 t 0 r /Helvetica-Bold findfont 7.60979 sf 0 0 m (\2550.01) show NC gr  black 1 1 1 c
 gsave  2268 1415 0 0 C 871.321 1175.71 t 0 r /Helvetica-Bold findfont 7.60979 sf 0 0 m (\2550.05) show NC gr  black 1 1 1 c
 gsave  2268 1415 0 0 C 962.638 1175.71 t 0 r /Helvetica-Bold findfont 7.60979 sf 0 0 m (0.06) show NC gr  black 1 1 1 c
 gsave  2268 1415 0 0 C 1046.35 1175.71 t 0 r /Helvetica-Bold findfont 7.60979 sf 0 0 m (\2550.00) show NC gr  black 1 1 1 c
 gsave  2268 1415 0 0 C 1137.66 1175.71 t 0 r /Helvetica-Bold findfont 7.60979 sf 0 0 m (0.02) show NC gr  black 1 1 1 c
 gsave  2268 1415 0 0 C 1225.18 1175.71 t 0 r /Helvetica-Bold findfont 7.60979 sf 0 0 m (0.13) show NC gr  black 1 1 1 c
 gsave  2268 1415 0 0 C 1312.69 1175.71 t 0 r /Helvetica-Bold findfont 7.60979 sf 0 0 m (0.04) show NC gr  black 1 1 1 c
 gsave  2268 1415 0 0 C 1400.2 1175.71 t 0 r /Helvetica-Bold findfont 7.60979 sf 0 0 m (0.01) show NC gr  black 1 1 1 c
 gsave  2268 1415 0 0 C 1480.1 1175.71 t 0 r /Helvetica-Bold findfont 7.60979 sf 0 0 m (\2550.01) show NC gr  black 1 1 1 c
 gsave  2268 1415 0 0 C 1567.62 1175.71 t 0 r /Helvetica-Bold findfont 7.60979 sf 0 0 m (\2550.01) show NC gr  black 1 1 1 c
 gsave  2268 1415 0 0 C 1658.93 1175.71 t 0 r /Helvetica-Bold findfont 7.60979 sf 0 0 m (0.00) show NC gr  black 1 1 1 c
 gsave  2268 1415 0 0 C 1746.45 1175.71 t 0 r /Helvetica-Bold findfont 7.60979 sf 0 0 m (0.00) show NC gr  black 1 1 1 c
 gsave  2268 1415 0 0 C 1833.96 1175.71 t 0 r /Helvetica-Bold findfont 7.60979 sf 0 0 m (0.10) show NC gr  black 1 1 1 c
 gsave  2268 1415 0 0 C 1921.47 1175.71 t 0 r /Helvetica-Bold findfont 7.60979 sf 0 0 m (0.02) show NC gr  black 1 1 1 c
 gsave  2268 1415 0 0 C 441.368 1240.4 t 0 r /Helvetica-Bold findfont 7.60979 sf 0 0 m (1.00) show NC gr  black 1 1 1 c
 gsave  2268 1415 0 0 C 525.075 1240.4 t 0 r /Helvetica-Bold findfont 7.60979 sf 0 0 m (\2550.03) show NC gr  black 1 1 1 c
 gsave  2268 1415 0 0 C 612.588 1240.4 t 0 r /Helvetica-Bold findfont 7.60979 sf 0 0 m (\2550.01) show NC gr  black 1 1 1 c
 gsave  2268 1415 0 0 C 700.1 1240.4 t 0 r /Helvetica-Bold findfont 7.60979 sf 0 0 m (\2550.04) show NC gr  black 1 1 1 c
 gsave  2268 1415 0 0 C 791.418 1240.4 t 0 r /Helvetica-Bold findfont 7.60979 sf 0 0 m (0.01) show NC gr  black 1 1 1 c
 gsave  2268 1415 0 0 C 871.321 1240.4 t 0 r /Helvetica-Bold findfont 7.60979 sf 0 0 m (\2550.04) show NC gr  black 1 1 1 c
 gsave  2268 1415 0 0 C 962.638 1240.4 t 0 r /Helvetica-Bold findfont 7.60979 sf 0 0 m (0.04) show NC gr  black 1 1 1 c
 gsave  2268 1415 0 0 C 1046.35 1240.4 t 0 r /Helvetica-Bold findfont 7.60979 sf 0 0 m (\2550.01) show NC gr  black 1 1 1 c
 gsave  2268 1415 0 0 C 1137.66 1240.4 t 0 r /Helvetica-Bold findfont 7.60979 sf 0 0 m (0.02) show NC gr  black 1 1 1 c
 gsave  2268 1415 0 0 C 1225.18 1240.4 t 0 r /Helvetica-Bold findfont 7.60979 sf 0 0 m (0.02) show NC gr  black 1 1 1 c
 gsave  2268 1415 0 0 C 1312.69 1240.4 t 0 r /Helvetica-Bold findfont 7.60979 sf 0 0 m (0.00) show NC gr  black 1 1 1 c
 gsave  2268 1415 0 0 C 1396.4 1240.4 t 0 r /Helvetica-Bold findfont 7.60979 sf 0 0 m (\2550.01) show NC gr  black 1 1 1 c
 gsave  2268 1415 0 0 C 1483.91 1240.4 t 0 r /Helvetica-Bold findfont 7.60979 sf 0 0 m (0.03) show NC gr  black 1 1 1 c
 gsave  2268 1415 0 0 C 1571.42 1240.4 t 0 r /Helvetica-Bold findfont 7.60979 sf 0 0 m (0.02) show NC gr  black 1 1 1 c
 gsave  2268 1415 0 0 C 1658.93 1240.4 t 0 r /Helvetica-Bold findfont 7.60979 sf 0 0 m (0.03) show NC gr  black 1 1 1 c
 gsave  2268 1415 0 0 C 1746.45 1240.4 t 0 r /Helvetica-Bold findfont 7.60979 sf 0 0 m (0.00) show NC gr  black 1 1 1 c
 gsave  2268 1415 0 0 C 1833.96 1240.4 t 0 r /Helvetica-Bold findfont 7.60979 sf 0 0 m (0.18) show NC gr  black 1 1 1 c
 gsave  2268 1415 0 0 C 1917.67 1240.4 t 0 r /Helvetica-Bold findfont 7.60979 sf 0 0 m (\2550.05) show NC gr  black
 gsave  2268 1415 0 0 C 905.565 1346.93 t 0 r /Helvetica findfont 64.6832 sf 0 0 m (h_corr_reduced) show NC gr 
 gr  gr showpage
end
%%EOF
