%!PS-Adobe-2.0 EPSF-2.0
%%BoundingBox:  0 0 567 354
%%Title: : c_corrMatrix_RooExpandedFitResult_afterFit
%%Creator: ROOT Version 6.10/06
%%CreationDate: Wed Apr 29 11:02:30 2020
%%DocumentNeededResources: ProcSet (FontSetInit)
%%EndComments
%%BeginProlog
80 dict begin
/s {stroke} def /l {lineto} def /m {moveto} def /t {translate} def
/r {rotate} def /rl {roll}  def /R {repeat} def
/d {rlineto} def /rm {rmoveto} def /gr {grestore} def /f {eofill} def
/c {setrgbcolor} def /black {0 setgray} def /sd {setdash} def
/cl {closepath} def /sf {scalefont setfont} def /lw {setlinewidth} def
/box {m dup 0 exch d exch 0 d 0 exch neg d cl} def
/NC{systemdict begin initclip end}def/C{NC box clip newpath}def
/bl {box s} def /bf {gsave box gsave f grestore 1 lw [] 0 sd s grestore} def /Y { 0 exch d} def /X { 0 d} def 
/K {{pop pop 0 moveto} exch kshow} bind def
/ita {/ang 15 def gsave [1 0 ang dup sin exch cos div 1 0 0] concat} def 
/mp {newpath /y exch def /x exch def} def
/side {[w .77 mul w .23 mul] .385 w mul sd w 0 l currentpoint t -144 r} def
/mr {mp x y w2 0 360 arc} def /m24 {mr s} def /m20 {mr f} def
/mb {mp x y w2 add m w2 neg 0 d 0 w neg d w 0 d 0 w d cl} def
/mt {mp x y w2 add m w2 neg w neg d w 0 d cl} def
/w4 {w 4 div} def
/w6 {w 6 div} def
/w8 {w 8 div} def
/m21 {mb f} def /m25 {mb s} def /m22 {mt f} def /m26{mt s} def
/m23 {mp x y w2 sub m w2 w d w neg 0 d cl f} def
/m27 {mp x y w2 add m w3 neg w2 neg d w3 w2 neg d w3 w2 d cl s} def
/m28 {mp x w2 sub y w2 sub w3 add m w3 0 d  0 w3 neg d w3 0 d 0 w3 d w3 0 d  0 w3 d w3 neg 0 d 0 w3 d w3 neg 0 d 0 w3 neg d w3 neg 0 d cl s } def
/m29 {mp gsave x w2 sub y w2 add w3 sub m currentpoint t 4 {side} repeat cl fill gr} def
/m30 {mp gsave x w2 sub y w2 add w3 sub m currentpoint t 4 {side} repeat cl s gr} def
/m31 {mp x y w2 sub m 0 w d x w2 sub y m w 0 d x w2 sub y w2 add m w w neg d x w2 sub y w2 sub m w w d s} def
/m32 {mp x y w2 sub m w2 w d w neg 0 d cl s} def
/m33 {mp x y w2 add m w3 neg w2 neg d w3 w2 neg d w3 w2 d cl f} def
/m34 {mp x w2 sub y w2 sub w3 add m w3 0 d  0 w3 neg d w3 0 d 0 w3 d w3 0 d  0 w3 d w3 neg 0 d 0 w3 d w3 neg 0 d 0 w3 neg d w3 neg 0 d cl f } def
/m35 {mp x y w2 add m w2 neg w2 neg d w2 w2 neg d w2 w2 d w2 neg w2 d x y w2 sub m 0 w d x w2 sub y m w 0 d s} def
/m36 {mb x w2 sub y w2 add m w w neg d x w2 sub y w2 sub m w w d s} def
/m37 {mp x y m w4 neg w2 d w4 neg w2 neg d w2 0 d  w4 neg w2 neg d w2 0 d w4 neg w2 d w2 0 d w4 neg w2 d w4 neg w2 neg d cl s} def
/m38 {mp x w4 sub y w2 add m w4 neg w4 neg d 0 w2 neg d w4 w4 neg d w2 0 d w4 w4 d 0 w2 d w4 neg w4 d w2 neg 0 d x y w2 sub m 0 w d x w2 sub y m w 0 d cl s} def
/m39 {mp x y m w4 neg w2 d w4 neg w2 neg d w2 0 d  w4 neg w2 neg d w2 0 d w4 neg w2 d w2 0 d w4 neg w2 d w4 neg w2 neg d cl f} def
/m40 {mp x y m w4 w2 d w4 w4 neg d w2 neg w4 neg d w2 w4 neg d w4 neg w4 neg d w4 neg w2 d w4 neg w2 neg d w4 neg w4 d w2 w4 d w2 neg w4 d w4 w4 d w4 w2 neg d cl s} def
/m41 {mp x y m w4 w2 d w4 w4 neg d w2 neg w4 neg d w2 w4 neg d w4 neg w4 neg d w4 neg w2 d w4 neg w2 neg d w4 neg w4 d w2 w4 d w2 neg w4 d w4 w4 d w4 w2 neg d cl f} def
/m42 {mp x y w2 add m w8 neg w2 -3 4 div mul d w2 -3 4 div mul w8 neg d w2 3 4 div mul w8 neg d w8 w2 -3 4 div mul d w8 w2 3 4 div mul d w2 3 4 div mul w8 d w2 -3 4 div mul w8 d w8 neg w2 3 4 div mul d cl s} def
/m43 {mp x y w2 add m w8 neg w2 -3 4 div mul d w2 -3 4 div mul w8 neg d w2 3 4 div mul w8 neg d w8 w2 -3 4 div mul d w8 w2 3 4 div mul d w2 3 4 div mul w8 d w2 -3 4 div mul w8 d w8 neg w2 3 4 div mul d cl f} def
/m44 {mp x y m w6 neg w2 d w2 2 3 div mul 0 d w6 neg w2 neg d w2 w6 d 0 w2 -2 3 div mul d w2 neg w6 d w6 w2 neg d w2 -2 3 div mul 0 d w6 w2 d w2 neg w6 neg d 0 w2 2 3 div mul d w2 w6 neg d cl s} def
/m45 {mp x y m w6 neg w2 d w2 2 3 div mul 0 d w6 neg w2 neg d w2 w6 d 0 w2 -2 3 div mul d w2 neg w6 d w6 w2 neg d w2 -2 3 div mul 0 d w6 w2 d w2 neg w6 neg d 0 w2 2 3 div mul d w2 w6 neg d cl f} def
/m46 {mp x y w4 add m w4 neg w4 d w4 neg w4 neg d  w4 w4 neg d w4 neg w4 neg d w4 w4 neg d w4 w4 d w4 w4 neg d w4 w4 d w4 neg w4 d w4 w4 d w4 neg w4 d w4 neg w4 neg d cl s} def
/m47 {mp x y w4 add m w4 neg w4 d w4 neg w4 neg d w4 w4 neg d w4 neg w4 neg d  w4 w4 neg d w4 w4 d w4 w4 neg d w4 w4 d w4 neg w4 d w4 w4 d w4 neg w4 d w4 neg w4 neg d cl f} def
/m48 {mp x y w4 add m w4 neg w4 d w4 neg w4 neg d w4 w4 neg d  w4 neg w4 neg d w4 w4 neg d w4 w4 d w4 w4 neg d w4 w4 d w4 neg w4 d w4 w4 d w4 neg w4 d w4 neg w4 neg d  w4 w4 neg d w4 neg w4 neg d w4 neg w4 d w4 w4 d cl f} def
/m49 {mp x w2 sub w3 add y w2 sub w3 add m  0 w3 neg d w3 0 d 0 w3 d w3 0 d 0 w3 d w3 neg 0 d 0 w3 d w3 neg 0 d 0 w3 neg d w3 neg 0 d 0 w3 neg d w3 0 d 0 w3 d w3 0 d 0 w3 neg d w3 neg 0 d cl f } def
/m2 {mp x y w2 sub m 0 w d x w2 sub y m w 0 d s} def
/m5 {mp x w2 sub y w2 sub m w w d x w2 sub y w2 add m w w neg d s} def
%%IncludeResource: ProcSet (FontSetInit)
%%IncludeResource: font Times-Roman
%%IncludeResource: font Times-Italic
%%IncludeResource: font Times-Bold
%%IncludeResource: font Times-BoldItalic
%%IncludeResource: font Helvetica
%%IncludeResource: font Helvetica-Oblique
%%IncludeResource: font Helvetica-Bold
%%IncludeResource: font Helvetica-BoldOblique
%%IncludeResource: font Courier
%%IncludeResource: font Courier-Oblique
%%IncludeResource: font Courier-Bold
%%IncludeResource: font Courier-BoldOblique
%%IncludeResource: font Symbol
%%IncludeResource: font ZapfDingbats
/reEncode {exch findfont dup length dict begin {1 index /FID eq  {pop pop} {def} ifelse } forall /Encoding exch def currentdict end dup /FontName get exch definefont pop } def [/Times-Bold /Times-Italic /Times-BoldItalic /Helvetica /Helvetica-Oblique
 /Helvetica-Bold /Helvetica-BoldOblique /Courier /Courier-Oblique /Courier-Bold /Courier-BoldOblique /Times-Roman /AvantGarde-Book /AvantGarde-BookOblique /AvantGarde-Demi /AvantGarde-DemiOblique /Bookman-Demi /Bookman-DemiItalic /Bookman-Light
 /Bookman-LightItalic /Helvetica-Narrow /Helvetica-Narrow-Bold /Helvetica-Narrow-BoldOblique /Helvetica-Narrow-Oblique /NewCenturySchlbk-Roman /NewCenturySchlbk-Bold /NewCenturySchlbk-BoldItalic /NewCenturySchlbk-Italic /Palatino-Bold
 /Palatino-BoldItalic /Palatino-Italic /Palatino-Roman ] {ISOLatin1Encoding reEncode } forall
%%EndProlog
%%BeginSetup
%%EndSetup
newpath  gsave  .25 .25 scale  gsave  0 0 t black[  ] 0 sd 3 lw 1 1 1 c 2268 1415 0 0 bf black 1 1 1 c 1565 1132 408 142 bf black 1565 1132 408 142 bl 1 1 1 c 1565 1132 408 142 bf black 1565 1132 408 142 bl 1 1 1 c 0.0829657 0.0893382 0.352451 c 68
 49 408 142 bf 0.0718137 0.0335784 0.320588 c 68 49 476 142 bf 0.0829657 0.0893382 0.352451 c 68 49 544 142 bf 68 49 612 142 bf 68 49 680 142 bf 0.0718137 0.0335784 0.320588 c 68 49 748 142 bf 0.0509804 0 0.231373 c 68 49 816 142 bf 0.0637255
 0.00637255 0.291912 c 68 49 884 142 bf 68 49 952 142 bf 0.0136622 0 0.131056 c 69 49 1020 142 bf 68 49 1089 142 bf 0.0446078 0 0.204289 c 68 49 1157 142 bf 0.0637255 0.00637255 0.291912 c 68 49 1225 142 bf 0.0829657 0.0893382 0.352451 c 68 49 1293
 142 bf 0.0637255 0.00637255 0.291912 c 68 49 1361 142 bf 0.0718137 0.0335784 0.320588 c 68 49 1429 142 bf 68 49 1497 142 bf 0.0637255 0.00637255 0.291912 c 68 49 1565 142 bf 0.0718137 0.0335784 0.320588 c 68 49 1633 142 bf 68 49 1701 142 bf 68 49
 1769 142 bf 0.0637255 0.00637255 0.291912 c 68 49 1837 142 bf 0.113235 0.859191 0.862132 c 68 49 1905 142 bf 0.0718137 0.0335784 0.320588 c 68 49 408 191 bf 68 49 476 191 bf 68 49 544 191 bf 68 49 612 191 bf 68 49 680 191 bf 68 49 748 191 bf
 0.0637255 0.00637255 0.291912 c 68 49 816 191 bf 0.0718137 0.0335784 0.320588 c 68 49 884 191 bf 68 49 952 191 bf 69 49 1020 191 bf 68 49 1089 191 bf 68 49 1157 191 bf 68 49 1225 191 bf 68 49 1293 191 bf 68 49 1361 191 bf 68 49 1429 191 bf 68 49
 1497 191 bf 68 49 1565 191 bf 68 49 1633 191 bf 68 49 1701 191 bf 68 49 1769 191 bf 0.113235 0.859191 0.862132 c 68 49 1837 191 bf 0.0637255 0.00637255 0.291912 c 68 49 1905 191 bf 0.0829657 0.0893382 0.352451 c 68 49 408 240 bf 0.0718137 0.0335784
 0.320588 c 68 49 476 240 bf 68 49 544 240 bf 68 49 612 240 bf 68 49 680 240 bf 68 49 748 240 bf 68 49 816 240 bf 68 49 884 240 bf 0.0637255 0.00637255 0.291912 c 68 49 952 240 bf 0.0718137 0.0335784 0.320588 c 69 49 1020 240 bf 68 49 1089 240 bf 68
 49 1157 240 bf 68 49 1225 240 bf 68 49 1293 240 bf 68 49 1361 240 bf 68 49 1429 240 bf 68 49 1497 240 bf 68 49 1565 240 bf 68 49 1633 240 bf 68 49 1701 240 bf 0.113235 0.859191 0.862132 c 68 49 1769 240 bf 0.0718137 0.0335784 0.320588 c 68 49 1837
 240 bf 68 49 1905 240 bf 68 49 408 289 bf 0.0829657 0.0893382 0.352451 c 68 49 476 289 bf 0.0718137 0.0335784 0.320588 c 68 49 544 289 bf 0.0829657 0.0893382 0.352451 c 68 49 612 289 bf 0.0718137 0.0335784 0.320588 c 68 49 680 289 bf 0.0829657
 0.0893382 0.352451 c 68 49 748 289 bf 0.0718137 0.0335784 0.320588 c 68 49 816 289 bf 0.0637255 0.00637255 0.291912 c 68 49 884 289 bf 0.0718137 0.0335784 0.320588 c 68 49 952 289 bf 69 49 1020 289 bf 68 49 1089 289 bf 68 49 1157 289 bf 68 49 1225
 289 bf 68 49 1293 289 bf 68 49 1361 289 bf 68 49 1429 289 bf 68 49 1497 289 bf 68 49 1565 289 bf 68 49 1633 289 bf 0.113235 0.859191 0.862132 c 68 49 1701 289 bf 0.0718137 0.0335784 0.320588 c 68 49 1769 289 bf 68 49 1837 289 bf 68 49 1905 289 bf
 0.0829657 0.0893382 0.352451 c 68 50 408 338 bf 0.0718137 0.0335784 0.320588 c 68 50 476 338 bf 0.0829657 0.0893382 0.352451 c 68 50 544 338 bf 0.0637255 0.00637255 0.291912 c 68 50 612 338 bf 0.0829657 0.0893382 0.352451 c 68 50 680 338 bf
 0.0718137 0.0335784 0.320588 c 68 50 748 338 bf 0.0637255 0.00637255 0.291912 c 68 50 816 338 bf 0.0718137 0.0335784 0.320588 c 68 50 884 338 bf 68 50 952 338 bf 69 50 1020 338 bf 68 50 1089 338 bf 0.0637255 0.00637255 0.291912 c 68 50 1157 338 bf
 0.0718137 0.0335784 0.320588 c 68 50 1225 338 bf 0.0829657 0.0893382 0.352451 c 68 50 1293 338 bf 0.0718137 0.0335784 0.320588 c 68 50 1361 338 bf 68 50 1429 338 bf 68 50 1497 338 bf 68 50 1565 338 bf 0.113235 0.859191 0.862132 c 68 50 1633 338 bf
 0.0718137 0.0335784 0.320588 c 68 50 1701 338 bf 68 50 1769 338 bf 68 50 1837 338 bf 68 50 1905 338 bf 68 49 408 388 bf 68 49 476 388 bf 0.0637255 0.00637255 0.291912 c 68 49 544 388 bf 0.0718137 0.0335784 0.320588 c 68 49 612 388 bf 68 49 680 388
 bf 0.0941176 0.145098 0.384314 c 68 49 748 388 bf 0.0637255 0.00637255 0.291912 c 68 49 816 388 bf 0.0718137 0.0335784 0.320588 c 68 49 884 388 bf 68 49 952 388 bf 0.0829657 0.0893382 0.352451 c 69 49 1020 388 bf 68 49 1089 388 bf 0.0718137
 0.0335784 0.320588 c 68 49 1157 388 bf 68 49 1225 388 bf 68 49 1293 388 bf 0.0829657 0.0893382 0.352451 c 68 49 1361 388 bf 0.0718137 0.0335784 0.320588 c 68 49 1429 388 bf 68 49 1497 388 bf 0.113235 0.859191 0.862132 c 68 49 1565 388 bf 0.0718137
 0.0335784 0.320588 c 68 49 1633 388 bf 68 49 1701 388 bf 68 49 1769 388 bf 68 49 1837 388 bf 0.0637255 0.00637255 0.291912 c 68 49 1905 388 bf 0.0718137 0.0335784 0.320588 c 68 49 408 437 bf 68 49 476 437 bf 0.0829657 0.0893382 0.352451 c 68 49 544
 437 bf 0.0718137 0.0335784 0.320588 c 68 49 612 437 bf 0.0829657 0.0893382 0.352451 c 68 49 680 437 bf 0.0718137 0.0335784 0.320588 c 68 49 748 437 bf 0.0829657 0.0893382 0.352451 c 68 49 816 437 bf 0.0637255 0.00637255 0.291912 c 68 49 884 437 bf
 0.0718137 0.0335784 0.320588 c 68 49 952 437 bf 69 49 1020 437 bf 68 49 1089 437 bf 68 49 1157 437 bf 68 49 1225 437 bf 68 49 1293 437 bf 68 49 1361 437 bf 68 49 1429 437 bf 0.113235 0.859191 0.862132 c 68 49 1497 437 bf 0.0718137 0.0335784 0.320588
 c 68 49 1565 437 bf 68 49 1633 437 bf 68 49 1701 437 bf 68 49 1769 437 bf 68 49 1837 437 bf 68 49 1905 437 bf 68 49 408 486 bf 68 49 476 486 bf 68 49 544 486 bf 68 49 612 486 bf 68 49 680 486 bf 0.0637255 0.00637255 0.291912 c 68 49 748 486 bf
 0.0573529 0.00318627 0.261642 c 68 49 816 486 bf 0.0718137 0.0335784 0.320588 c 68 49 884 486 bf 0.0829657 0.0893382 0.352451 c 68 49 952 486 bf 0.0718137 0.0335784 0.320588 c 69 49 1020 486 bf 68 49 1089 486 bf 68 49 1157 486 bf 68 49 1225 486 bf
 0.0829657 0.0893382 0.352451 c 68 49 1293 486 bf 0.0718137 0.0335784 0.320588 c 68 49 1361 486 bf 0.113235 0.859191 0.862132 c 68 49 1429 486 bf 0.0718137 0.0335784 0.320588 c 68 49 1497 486 bf 68 49 1565 486 bf 68 49 1633 486 bf 68 49 1701 486 bf
 68 49 1769 486 bf 68 49 1837 486 bf 68 49 1905 486 bf 0.0637255 0.00637255 0.291912 c 68 50 408 535 bf 0.0718137 0.0335784 0.320588 c 68 50 476 535 bf 68 50 544 535 bf 68 50 612 535 bf 0.0637255 0.00637255 0.291912 c 68 50 680 535 bf 0.0829657
 0.0893382 0.352451 c 68 50 748 535 bf 0.0637255 0.00637255 0.291912 c 68 50 816 535 bf 0.0829657 0.0893382 0.352451 c 68 50 884 535 bf 0.0718137 0.0335784 0.320588 c 68 50 952 535 bf 69 50 1020 535 bf 0.0829657 0.0893382 0.352451 c 68 50 1089 535 bf
 0.0718137 0.0335784 0.320588 c 68 50 1157 535 bf 0.0829657 0.0893382 0.352451 c 68 50 1225 535 bf 0.0718137 0.0335784 0.320588 c 68 50 1293 535 bf 0.113235 0.859191 0.862132 c 68 50 1361 535 bf 0.0718137 0.0335784 0.320588 c 68 50 1429 535 bf 68 50
 1497 535 bf 0.0829657 0.0893382 0.352451 c 68 50 1565 535 bf 0.0718137 0.0335784 0.320588 c 68 50 1633 535 bf 68 50 1701 535 bf 68 50 1769 535 bf 68 50 1837 535 bf 0.0637255 0.00637255 0.291912 c 68 50 1905 535 bf 0.0718137 0.0335784 0.320588 c 68
 49 408 585 bf 68 49 476 585 bf 68 49 544 585 bf 0.0637255 0.00637255 0.291912 c 68 49 612 585 bf 0.0718137 0.0335784 0.320588 c 68 49 680 585 bf 68 49 748 585 bf 0.0573529 0.00318627 0.261642 c 68 49 816 585 bf 0.0637255 0.00637255 0.291912 c 68 49
 884 585 bf 0.0718137 0.0335784 0.320588 c 68 49 952 585 bf 69 49 1020 585 bf 68 49 1089 585 bf 68 49 1157 585 bf 68 49 1225 585 bf 0.113235 0.859191 0.862132 c 68 49 1293 585 bf 0.0718137 0.0335784 0.320588 c 68 49 1361 585 bf 0.0829657 0.0893382
 0.352451 c 68 49 1429 585 bf 0.0718137 0.0335784 0.320588 c 68 49 1497 585 bf 68 49 1565 585 bf 0.0829657 0.0893382 0.352451 c 68 49 1633 585 bf 0.0718137 0.0335784 0.320588 c 68 49 1701 585 bf 68 49 1769 585 bf 68 49 1837 585 bf 0.0829657 0.0893382
 0.352451 c 68 49 1905 585 bf 0.0718137 0.0335784 0.320588 c 68 49 408 634 bf 68 49 476 634 bf 68 49 544 634 bf 68 49 612 634 bf 68 49 680 634 bf 68 49 748 634 bf 0.0941176 0.145098 0.384314 c 68 49 816 634 bf 0.0718137 0.0335784 0.320588 c 68 49 884
 634 bf 68 49 952 634 bf 69 49 1020 634 bf 68 49 1089 634 bf 68 49 1157 634 bf 0.113235 0.859191 0.862132 c 68 49 1225 634 bf 0.0718137 0.0335784 0.320588 c 68 49 1293 634 bf 0.0829657 0.0893382 0.352451 c 68 49 1361 634 bf 0.0718137 0.0335784
 0.320588 c 68 49 1429 634 bf 68 49 1497 634 bf 68 49 1565 634 bf 68 49 1633 634 bf 68 49 1701 634 bf 68 49 1769 634 bf 68 49 1837 634 bf 0.0637255 0.00637255 0.291912 c 68 49 1905 634 bf 0.0718137 0.0335784 0.320588 c 68 49 408 683 bf 68 49 476 683
 bf 68 49 544 683 bf 68 49 612 683 bf 68 49 680 683 bf 68 49 748 683 bf 68 49 816 683 bf 68 49 884 683 bf 68 49 952 683 bf 69 49 1020 683 bf 68 49 1089 683 bf 0.113235 0.859191 0.862132 c 68 49 1157 683 bf 0.0718137 0.0335784 0.320588 c 68 49 1225
 683 bf 68 49 1293 683 bf 68 49 1361 683 bf 68 49 1429 683 bf 68 49 1497 683 bf 68 49 1565 683 bf 0.0637255 0.00637255 0.291912 c 68 49 1633 683 bf 0.0718137 0.0335784 0.320588 c 68 49 1701 683 bf 68 49 1769 683 bf 68 49 1837 683 bf 0.0446078 0
 0.204289 c 68 49 1905 683 bf 0.0718137 0.0335784 0.320588 c 68 50 408 732 bf 68 50 476 732 bf 68 50 544 732 bf 68 50 612 732 bf 68 50 680 732 bf 68 50 748 732 bf 0.0941176 0.145098 0.384314 c 68 50 816 732 bf 0.0829657 0.0893382 0.352451 c 68 50 884
 732 bf 68 50 952 732 bf 0.0718137 0.0335784 0.320588 c 69 50 1020 732 bf 0.113235 0.859191 0.862132 c 68 50 1089 732 bf 0.0718137 0.0335784 0.320588 c 68 50 1157 732 bf 68 50 1225 732 bf 68 50 1293 732 bf 0.0829657 0.0893382 0.352451 c 68 50 1361
 732 bf 0.0718137 0.0335784 0.320588 c 68 50 1429 732 bf 68 50 1497 732 bf 0.0829657 0.0893382 0.352451 c 68 50 1565 732 bf 0.0718137 0.0335784 0.320588 c 68 50 1633 732 bf 68 50 1701 732 bf 68 50 1769 732 bf 68 50 1837 732 bf 0.0136622 0 0.131056 c
 68 50 1905 732 bf 0.0718137 0.0335784 0.320588 c 68 49 408 782 bf 68 49 476 782 bf 68 49 544 782 bf 68 49 612 782 bf 68 49 680 782 bf 68 49 748 782 bf 0.0829657 0.0893382 0.352451 c 68 49 816 782 bf 0.0718137 0.0335784 0.320588 c 68 49 884 782 bf 68
 49 952 782 bf 0.113235 0.859191 0.862132 c 69 49 1020 782 bf 0.0718137 0.0335784 0.320588 c 68 49 1089 782 bf 68 49 1157 782 bf 68 49 1225 782 bf 68 49 1293 782 bf 68 49 1361 782 bf 68 49 1429 782 bf 68 49 1497 782 bf 0.0829657 0.0893382 0.352451 c
 68 49 1565 782 bf 0.0718137 0.0335784 0.320588 c 68 49 1633 782 bf 68 49 1701 782 bf 68 49 1769 782 bf 68 49 1837 782 bf 0.0136622 0 0.131056 c 68 49 1905 782 bf 0.0718137 0.0335784 0.320588 c 68 49 408 831 bf 68 49 476 831 bf 68 49 544 831 bf 68 49
 612 831 bf 68 49 680 831 bf 68 49 748 831 bf 0.0573529 0.00318627 0.261642 c 68 49 816 831 bf 0.0637255 0.00637255 0.291912 c 68 49 884 831 bf 0.113235 0.859191 0.862132 c 68 49 952 831 bf 0.0718137 0.0335784 0.320588 c 69 49 1020 831 bf 0.0829657
 0.0893382 0.352451 c 68 49 1089 831 bf 0.0718137 0.0335784 0.320588 c 68 49 1157 831 bf 68 49 1225 831 bf 68 49 1293 831 bf 68 49 1361 831 bf 0.0829657 0.0893382 0.352451 c 68 49 1429 831 bf 0.0718137 0.0335784 0.320588 c 68 49 1497 831 bf 68 49
 1565 831 bf 68 49 1633 831 bf 68 49 1701 831 bf 0.0637255 0.00637255 0.291912 c 68 49 1769 831 bf 0.0718137 0.0335784 0.320588 c 68 49 1837 831 bf 0.0637255 0.00637255 0.291912 c 68 49 1905 831 bf 0.0829657 0.0893382 0.352451 c 68 49 408 880 bf 68
 49 476 880 bf 68 49 544 880 bf 0.0718137 0.0335784 0.320588 c 68 49 612 880 bf 0.0829657 0.0893382 0.352451 c 68 49 680 880 bf 0.0718137 0.0335784 0.320588 c 68 49 748 880 bf 0.0446078 0 0.204289 c 68 49 816 880 bf 0.113235 0.859191 0.862132 c 68 49
 884 880 bf 0.0637255 0.00637255 0.291912 c 68 49 952 880 bf 0.0718137 0.0335784 0.320588 c 69 49 1020 880 bf 0.0829657 0.0893382 0.352451 c 68 49 1089 880 bf 0.0718137 0.0335784 0.320588 c 68 49 1157 880 bf 68 49 1225 880 bf 0.0637255 0.00637255
 0.291912 c 68 49 1293 880 bf 0.0829657 0.0893382 0.352451 c 68 49 1361 880 bf 0.0718137 0.0335784 0.320588 c 68 49 1429 880 bf 0.0637255 0.00637255 0.291912 c 68 49 1497 880 bf 0.0718137 0.0335784 0.320588 c 68 49 1565 880 bf 68 49 1633 880 bf
 0.0637255 0.00637255 0.291912 c 68 49 1701 880 bf 0.0718137 0.0335784 0.320588 c 68 49 1769 880 bf 68 49 1837 880 bf 0.0637255 0.00637255 0.291912 c 68 49 1905 880 bf 0.0718137 0.0335784 0.320588 c 68 49 408 929 bf 0.0941176 0.145098 0.384314 c 68
 49 476 929 bf 68 49 544 929 bf 0.0718137 0.0335784 0.320588 c 68 49 612 929 bf 0.0941176 0.145098 0.384314 c 68 49 680 929 bf 68 49 748 929 bf 0.113235 0.859191 0.862132 c 68 49 816 929 bf 0.0446078 0 0.204289 c 68 49 884 929 bf 0.0573529 0.00318627
 0.261642 c 68 49 952 929 bf 0.0829657 0.0893382 0.352451 c 69 49 1020 929 bf 0.0941176 0.145098 0.384314 c 68 49 1089 929 bf 0.0718137 0.0335784 0.320588 c 68 49 1157 929 bf 0.0941176 0.145098 0.384314 c 68 49 1225 929 bf 0.0573529 0.00318627
 0.261642 c 68 49 1293 929 bf 0.0637255 0.00637255 0.291912 c 68 49 1361 929 bf 0.0573529 0.00318627 0.261642 c 68 49 1429 929 bf 0.0829657 0.0893382 0.352451 c 68 49 1497 929 bf 0.0637255 0.00637255 0.291912 c 68 49 1565 929 bf 68 49 1633 929 bf
 0.0718137 0.0335784 0.320588 c 68 49 1701 929 bf 68 49 1769 929 bf 0.0637255 0.00637255 0.291912 c 68 49 1837 929 bf 0.0509804 0 0.231373 c 68 49 1905 929 bf 0.0829657 0.0893382 0.352451 c 68 50 408 978 bf 68 50 476 978 bf 68 50 544 978 bf 0.0718137
 0.0335784 0.320588 c 68 50 612 978 bf 0.0829657 0.0893382 0.352451 c 68 50 680 978 bf 0.113235 0.859191 0.862132 c 68 50 748 978 bf 0.0941176 0.145098 0.384314 c 68 50 816 978 bf 0.0718137 0.0335784 0.320588 c 68 50 884 978 bf 68 50 952 978 bf 69 50
 1020 978 bf 68 50 1089 978 bf 68 50 1157 978 bf 68 50 1225 978 bf 68 50 1293 978 bf 0.0829657 0.0893382 0.352451 c 68 50 1361 978 bf 0.0637255 0.00637255 0.291912 c 68 50 1429 978 bf 0.0718137 0.0335784 0.320588 c 68 50 1497 978 bf 0.0941176
 0.145098 0.384314 c 68 50 1565 978 bf 0.0718137 0.0335784 0.320588 c 68 50 1633 978 bf 0.0829657 0.0893382 0.352451 c 68 50 1701 978 bf 0.0718137 0.0335784 0.320588 c 68 50 1769 978 bf 68 50 1837 978 bf 68 50 1905 978 bf 0.0637255 0.00637255
 0.291912 c 68 49 408 1028 bf 68 49 476 1028 bf 68 49 544 1028 bf 0.0718137 0.0335784 0.320588 c 68 49 612 1028 bf 0.113235 0.859191 0.862132 c 68 49 680 1028 bf 0.0829657 0.0893382 0.352451 c 68 49 748 1028 bf 0.0941176 0.145098 0.384314 c 68 49 816
 1028 bf 0.0829657 0.0893382 0.352451 c 68 49 884 1028 bf 0.0718137 0.0335784 0.320588 c 68 49 952 1028 bf 69 49 1020 1028 bf 68 49 1089 1028 bf 68 49 1157 1028 bf 68 49 1225 1028 bf 68 49 1293 1028 bf 0.0637255 0.00637255 0.291912 c 68 49 1361 1028
 bf 0.0718137 0.0335784 0.320588 c 68 49 1429 1028 bf 0.0829657 0.0893382 0.352451 c 68 49 1497 1028 bf 0.0718137 0.0335784 0.320588 c 68 49 1565 1028 bf 0.0829657 0.0893382 0.352451 c 68 49 1633 1028 bf 0.0718137 0.0335784 0.320588 c 68 49 1701 1028
 bf 68 49 1769 1028 bf 68 49 1837 1028 bf 0.0829657 0.0893382 0.352451 c 68 49 1905 1028 bf 0.0718137 0.0335784 0.320588 c 68 49 408 1077 bf 68 49 476 1077 bf 68 49 544 1077 bf 0.113235 0.859191 0.862132 c 68 49 612 1077 bf 0.0718137 0.0335784
 0.320588 c 68 49 680 1077 bf 68 49 748 1077 bf 68 49 816 1077 bf 68 49 884 1077 bf 68 49 952 1077 bf 69 49 1020 1077 bf 68 49 1089 1077 bf 68 49 1157 1077 bf 68 49 1225 1077 bf 0.0637255 0.00637255 0.291912 c 68 49 1293 1077 bf 0.0718137 0.0335784
 0.320588 c 68 49 1361 1077 bf 68 49 1429 1077 bf 68 49 1497 1077 bf 68 49 1565 1077 bf 0.0637255 0.00637255 0.291912 c 68 49 1633 1077 bf 0.0829657 0.0893382 0.352451 c 68 49 1701 1077 bf 0.0718137 0.0335784 0.320588 c 68 49 1769 1077 bf 68 49 1837
 1077 bf 0.0829657 0.0893382 0.352451 c 68 49 1905 1077 bf 0.0637255 0.00637255 0.291912 c 68 49 408 1126 bf 68 49 476 1126 bf 0.113235 0.859191 0.862132 c 68 49 544 1126 bf 0.0718137 0.0335784 0.320588 c 68 49 612 1126 bf 0.0637255 0.00637255
 0.291912 c 68 49 680 1126 bf 0.0829657 0.0893382 0.352451 c 68 49 748 1126 bf 0.0941176 0.145098 0.384314 c 68 49 816 1126 bf 0.0829657 0.0893382 0.352451 c 68 49 884 1126 bf 0.0718137 0.0335784 0.320588 c 68 49 952 1126 bf 69 49 1020 1126 bf 68 49
 1089 1126 bf 68 49 1157 1126 bf 68 49 1225 1126 bf 68 49 1293 1126 bf 68 49 1361 1126 bf 68 49 1429 1126 bf 0.0829657 0.0893382 0.352451 c 68 49 1497 1126 bf 0.0637255 0.00637255 0.291912 c 68 49 1565 1126 bf 0.0829657 0.0893382 0.352451 c 68 49
 1633 1126 bf 0.0718137 0.0335784 0.320588 c 68 49 1701 1126 bf 68 49 1769 1126 bf 68 49 1837 1126 bf 0.0829657 0.0893382 0.352451 c 68 49 1905 1126 bf 0.0718137 0.0335784 0.320588 c 68 50 408 1175 bf 0.113235 0.859191 0.862132 c 68 50 476 1175 bf
 0.0637255 0.00637255 0.291912 c 68 50 544 1175 bf 0.0718137 0.0335784 0.320588 c 68 50 612 1175 bf 0.0637255 0.00637255 0.291912 c 68 50 680 1175 bf 0.0829657 0.0893382 0.352451 c 68 50 748 1175 bf 0.0941176 0.145098 0.384314 c 68 50 816 1175 bf
 0.0829657 0.0893382 0.352451 c 68 50 884 1175 bf 0.0718137 0.0335784 0.320588 c 68 50 952 1175 bf 69 50 1020 1175 bf 68 50 1089 1175 bf 68 50 1157 1175 bf 68 50 1225 1175 bf 68 50 1293 1175 bf 68 50 1361 1175 bf 68 50 1429 1175 bf 68 50 1497 1175 bf
 68 50 1565 1175 bf 68 50 1633 1175 bf 0.0829657 0.0893382 0.352451 c 68 50 1701 1175 bf 0.0718137 0.0335784 0.320588 c 68 50 1769 1175 bf 68 50 1837 1175 bf 68 50 1905 1175 bf 0.113235 0.859191 0.862132 c 68 49 408 1225 bf 0.0718137 0.0335784
 0.320588 c 68 49 476 1225 bf 0.0637255 0.00637255 0.291912 c 68 49 544 1225 bf 0.0718137 0.0335784 0.320588 c 68 49 612 1225 bf 0.0637255 0.00637255 0.291912 c 68 49 680 1225 bf 0.0829657 0.0893382 0.352451 c 68 49 748 1225 bf 0.0718137 0.0335784
 0.320588 c 68 49 816 1225 bf 0.0829657 0.0893382 0.352451 c 68 49 884 1225 bf 0.0718137 0.0335784 0.320588 c 68 49 952 1225 bf 69 49 1020 1225 bf 68 49 1089 1225 bf 68 49 1157 1225 bf 68 49 1225 1225 bf 68 49 1293 1225 bf 0.0637255 0.00637255
 0.291912 c 68 49 1361 1225 bf 0.0718137 0.0335784 0.320588 c 68 49 1429 1225 bf 68 49 1497 1225 bf 68 49 1565 1225 bf 0.0829657 0.0893382 0.352451 c 68 49 1633 1225 bf 0.0718137 0.0335784 0.320588 c 68 49 1701 1225 bf 0.0829657 0.0893382 0.352451 c
 68 49 1769 1225 bf 0.0718137 0.0335784 0.320588 c 68 49 1837 1225 bf 0.0829657 0.0893382 0.352451 c 68 49 1905 1225 bf 0.0136622 0 0.131056 c 102 56 1984 142 bf 0.028463 0 0.15408 c 102 57 1984 198 bf 0.0387255 0 0.179289 c 102 56 1984 255 bf
 0.0446078 0 0.204289 c 102 57 1984 311 bf 0.0509804 0 0.231373 c 102 57 1984 368 bf 0.0573529 0.00318627 0.261642 c 102 56 1984 425 bf 0.0637255 0.00637255 0.291912 c 102 57 1984 481 bf 0.0718137 0.0335784 0.320588 c 102 56 1984 538 bf 0.0829657
 0.0893382 0.352451 c 102 57 1984 594 bf 0.0941176 0.145098 0.384314 c 102 57 1984 651 bf 0.106863 0.204044 0.433701 c 102 56 1984 708 bf 0.118627 0.258456 0.479289 c 102 57 1984 764 bf 0.121814 0.318873 0.524265 c 102 57 1984 821 bf 0.113848
 0.381005 0.564093 c 102 56 1984 878 bf 0.105882 0.443137 0.603922 c 102 57 1984 934 bf 0.102941 0.512255 0.648039 c 102 56 1984 991 bf 0.0997549 0.587132 0.695833 c 102 57 1984 1047 bf 0.10098 0.672304 0.748775 c 102 57 1984 1104 bf 0.107353
 0.769485 0.807721 c 102 56 1984 1161 bf 0.113235 0.859191 0.862132 c 102 57 1984 1217 bf black 2086 142 m 1132 Y s 2032 145 m 54 X s 2032 286 m 54 X s 2032 427 m 54 X s 2032 568 m 54 X s 2032 709 m 54 X s 2032 850 m 54 X s 2032 992 m 54 X s 2032
 1133 m 54 X s 2032 1274 m 54 X s 2032 145 m 54 X s
 gsave  2268 1415 0 0 C 2119.33 129.366 t 0 r /Helvetica findfont 45.6587 sf 0 0 m (0.6) show NC gr 
 gsave  2268 1415 0 0 C 2096.5 129.366 t 0 r /Symbol findfont 45.6587 sf 0 0 m (-) show NC gr 
 gsave  2268 1415 0 0 C 2119.33 270.147 t 0 r /Helvetica findfont 45.6587 sf 0 0 m (0.4) show NC gr 
 gsave  2268 1415 0 0 C 2096.5 270.147 t 0 r /Symbol findfont 45.6587 sf 0 0 m (-) show NC gr 
 gsave  2268 1415 0 0 C 2119.33 410.928 t 0 r /Helvetica findfont 45.6587 sf 0 0 m (0.2) show NC gr 
 gsave  2268 1415 0 0 C 2096.5 410.928 t 0 r /Symbol findfont 45.6587 sf 0 0 m (-) show NC gr 
 gsave  2268 1415 0 0 C 2096.5 551.71 t 0 r /Helvetica findfont 45.6587 sf 0 0 m (0) show NC gr 
 gsave  2268 1415 0 0 C 2096.5 692.491 t 0 r /Helvetica findfont 45.6587 sf 0 0 m (0.2) show NC gr 
 gsave  2268 1415 0 0 C 2096.5 833.272 t 0 r /Helvetica findfont 45.6587 sf 0 0 m (0.4) show NC gr 
 gsave  2268 1415 0 0 C 2096.5 974.053 t 0 r /Helvetica findfont 45.6587 sf 0 0 m (0.6) show NC gr 
 gsave  2268 1415 0 0 C 2096.5 1114.83 t 0 r /Helvetica findfont 45.6587 sf 0 0 m (0.8) show NC gr 
 gsave  2268 1415 0 0 C 2096.5 1255.61 t 0 r /Helvetica findfont 45.6587 sf 0 0 m (1) show NC gr  1 1 1 c black 408 142 m 1565 X s
 gsave  2268 1415 0 0 C 448.977 -133.171 t 90 r /Helvetica findfont 19.0245 sf 0 0 m (alpha_JER_DataVsMC_MC16) show NC gr 
 gsave  2268 1415 0 0 C 517.466 -87.5126 t 90 r /Helvetica findfont 19.0245 sf 0 0 m (alpha_JER_EffectiveNP2) show NC gr 
 gsave  2268 1415 0 0 C 582.149 -87.5126 t 90 r /Helvetica findfont 19.0245 sf 0 0 m (alpha_JER_EffectiveNP3) show NC gr 
 gsave  2268 1415 0 0 C 650.637 -87.5126 t 90 r /Helvetica findfont 19.0245 sf 0 0 m (alpha_JER_EffectiveNP4) show NC gr 
 gsave  2268 1415 0 0 C 719.125 -87.5126 t 90 r /Helvetica findfont 19.0245 sf 0 0 m (alpha_JES_GroupedNP1) show NC gr 
 gsave  2268 1415 0 0 C 787.613 -87.5126 t 90 r /Helvetica findfont 19.0245 sf 0 0 m (alpha_JES_GroupedNP2) show NC gr 
 gsave  2268 1415 0 0 C 856.101 -102.732 t 90 r /Helvetica findfont 19.0245 sf 0 0 m (alpha_ttbar_Fragmentation) show NC gr 
 gsave  2268 1415 0 0 C 924.589 -83.7077 t 90 r /Helvetica findfont 19.0245 sf 0 0 m (alpha_ttbar_HardScatter) show NC gr 
 gsave  2268 1415 0 0 C 993.077 -60.8783 t 90 r /Helvetica findfont 19.0245 sf 0 0 m (alpha_ttbar_Radiation) show NC gr 
 gsave  2268 1415 0 0 C 1061.57 -57.0734 t 90 r /Helvetica findfont 19.0245 sf 0 0 m (alpha_xsec_singletop) show NC gr 
 gsave  2268 1415 0 0 C 1130.05 -7.60979 t 90 r /Helvetica findfont 19.0245 sf 0 0 m (alpha_xsec_ttV) show NC gr 
 gsave  2268 1415 0 0 C 1194.74 -26.6343 t 90 r /Helvetica findfont 19.0245 sf 0 0 m (alpha_xsec_wjets) show NC gr 
 gsave  2268 1415 0 0 C 1263.22 -186.44 t 90 r /Helvetica findfont 19.0245 sf 0 0 m (gamma_stat_TCR_bWN_cuts_bin_0) show NC gr 
 gsave  2268 1415 0 0 C 1331.71 -156.001 t 90 r /Helvetica findfont 19.0245 sf 0 0 m (gamma_stat_bWN10_cuts_bin_0) show NC gr 
 gsave  2268 1415 0 0 C 1400.2 -144.586 t 90 r /Helvetica findfont 19.0245 sf 0 0 m (gamma_stat_bWN2_cuts_bin_0) show NC gr 
 gsave  2268 1415 0 0 C 1468.69 -144.586 t 90 r /Helvetica findfont 19.0245 sf 0 0 m (gamma_stat_bWN3_cuts_bin_0) show NC gr 
 gsave  2268 1415 0 0 C 1537.18 -144.586 t 90 r /Helvetica findfont 19.0245 sf 0 0 m (gamma_stat_bWN4_cuts_bin_0) show NC gr 
 gsave  2268 1415 0 0 C 1605.67 -144.586 t 90 r /Helvetica findfont 19.0245 sf 0 0 m (gamma_stat_bWN5_cuts_bin_0) show NC gr 
 gsave  2268 1415 0 0 C 1674.15 -144.586 t 90 r /Helvetica findfont 19.0245 sf 0 0 m (gamma_stat_bWN6_cuts_bin_0) show NC gr 
 gsave  2268 1415 0 0 C 1738.84 -144.586 t 90 r /Helvetica findfont 19.0245 sf 0 0 m (gamma_stat_bWN7_cuts_bin_0) show NC gr 
 gsave  2268 1415 0 0 C 1807.32 -144.586 t 90 r /Helvetica findfont 19.0245 sf 0 0 m (gamma_stat_bWN9_cuts_bin_0) show NC gr 
 gsave  2268 1415 0 0 C 1875.81 53.2685 t 90 r /Helvetica findfont 19.0245 sf 0 0 m (mu_SIG) show NC gr 
 gsave  2268 1415 0 0 C 1944.3 49.4636 t 90 r /Helvetica findfont 19.0245 sf 0 0 m (mu_ttbar) show NC gr  408 171 m -29 Y s 476 171 m -29 Y s 544 171 m -29 Y s 612 171 m -29 Y s 680 171 m -29 Y s 748 171 m -29 Y s 816 171 m -29 Y s 884 171 m -29 Y s
 952 171 m -29 Y s 1020 171 m -29 Y s 1089 171 m -29 Y s 1157 171 m -29 Y s 1225 171 m -29 Y s 1293 171 m -29 Y s 1361 171 m -29 Y s 1429 171 m -29 Y s 1497 171 m -29 Y s 1565 171 m -29 Y s 1633 171 m -29 Y s 1701 171 m -29 Y s 1769 171 m -29 Y s
 1837 171 m -29 Y s 1905 171 m -29 Y s 1973 171 m -29 Y s 408 142 m 1132 Y s
 gsave  2268 1415 0 0 C 308.196 159.806 t 0 r /Helvetica findfont 19.0245 sf 0 0 m (mu_ttbar) show NC gr 
 gsave  2268 1415 0 0 C 312.001 209.269 t 0 r /Helvetica findfont 19.0245 sf 0 0 m (mu_SIG) show NC gr 
 gsave  2268 1415 0 0 C 114.147 258.733 t 0 r /Helvetica findfont 19.0245 sf 0 0 m (gamma_stat_bWN9_cuts_bin_0) show NC gr 
 gsave  2268 1415 0 0 C 114.147 308.196 t 0 r /Helvetica findfont 19.0245 sf 0 0 m (gamma_stat_bWN7_cuts_bin_0) show NC gr 
 gsave  2268 1415 0 0 C 114.147 357.66 t 0 r /Helvetica findfont 19.0245 sf 0 0 m (gamma_stat_bWN6_cuts_bin_0) show NC gr 
 gsave  2268 1415 0 0 C 114.147 407.124 t 0 r /Helvetica findfont 19.0245 sf 0 0 m (gamma_stat_bWN5_cuts_bin_0) show NC gr 
 gsave  2268 1415 0 0 C 114.147 456.587 t 0 r /Helvetica findfont 19.0245 sf 0 0 m (gamma_stat_bWN4_cuts_bin_0) show NC gr 
 gsave  2268 1415 0 0 C 114.147 506.051 t 0 r /Helvetica findfont 19.0245 sf 0 0 m (gamma_stat_bWN3_cuts_bin_0) show NC gr 
 gsave  2268 1415 0 0 C 114.147 555.514 t 0 r /Helvetica findfont 19.0245 sf 0 0 m (gamma_stat_bWN2_cuts_bin_0) show NC gr 
 gsave  2268 1415 0 0 C 102.732 604.978 t 0 r /Helvetica findfont 19.0245 sf 0 0 m (gamma_stat_bWN10_cuts_bin_0) show NC gr 
 gsave  2268 1415 0 0 C 72.293 654.442 t 0 r /Helvetica findfont 19.0245 sf 0 0 m (gamma_stat_TCR_bWN_cuts_bin_0) show NC gr 
 gsave  2268 1415 0 0 C 232.099 700.1 t 0 r /Helvetica findfont 19.0245 sf 0 0 m (alpha_xsec_wjets) show NC gr 
 gsave  2268 1415 0 0 C 251.123 749.564 t 0 r /Helvetica findfont 19.0245 sf 0 0 m (alpha_xsec_ttV) show NC gr 
 gsave  2268 1415 0 0 C 201.659 799.028 t 0 r /Helvetica findfont 19.0245 sf 0 0 m (alpha_xsec_singletop) show NC gr 
 gsave  2268 1415 0 0 C 197.854 848.491 t 0 r /Helvetica findfont 19.0245 sf 0 0 m (alpha_ttbar_Radiation) show NC gr 
 gsave  2268 1415 0 0 C 175.025 897.955 t 0 r /Helvetica findfont 19.0245 sf 0 0 m (alpha_ttbar_HardScatter) show NC gr 
 gsave  2268 1415 0 0 C 156.001 947.418 t 0 r /Helvetica findfont 19.0245 sf 0 0 m (alpha_ttbar_Fragmentation) show NC gr 
 gsave  2268 1415 0 0 C 171.22 996.882 t 0 r /Helvetica findfont 19.0245 sf 0 0 m (alpha_JES_GroupedNP2) show NC gr 
 gsave  2268 1415 0 0 C 171.22 1046.35 t 0 r /Helvetica findfont 19.0245 sf 0 0 m (alpha_JES_GroupedNP1) show NC gr 
 gsave  2268 1415 0 0 C 171.22 1095.81 t 0 r /Helvetica findfont 19.0245 sf 0 0 m (alpha_JER_EffectiveNP4) show NC gr 
 gsave  2268 1415 0 0 C 171.22 1145.27 t 0 r /Helvetica findfont 19.0245 sf 0 0 m (alpha_JER_EffectiveNP3) show NC gr 
 gsave  2268 1415 0 0 C 171.22 1194.74 t 0 r /Helvetica findfont 19.0245 sf 0 0 m (alpha_JER_EffectiveNP2) show NC gr 
 gsave  2268 1415 0 0 C 125.561 1244.2 t 0 r /Helvetica findfont 19.0245 sf 0 0 m (alpha_JER_DataVsMC_MC16) show NC gr  463 142 m -55 X s 463 191 m -55 X s 463 240 m -55 X s 463 289 m -55 X s 463 338 m -55 X s 463 388 m -55 X s 463 437 m -55 X s 463
 486 m -55 X s 463 535 m -55 X s 463 585 m -55 X s 463 634 m -55 X s 463 683 m -55 X s 463 732 m -55 X s 463 782 m -55 X s 463 831 m -55 X s 463 880 m -55 X s 463 929 m -55 X s 463 978 m -55 X s 463 1028 m -55 X s 463 1077 m -55 X s 463 1126 m -55 X
 s 463 1175 m -55 X s 463 1225 m -55 X s 463 1274 m -55 X s 1 1 1 c black 1 1 1 c
 gsave  2268 1415 0 0 C 433.758 163.61 t 0 r /Helvetica-Bold findfont 7.60979 sf 0 0 m (0.04) show NC gr  black 1 1 1 c
 gsave  2268 1415 0 0 C 502.246 163.61 t 0 r /Helvetica-Bold findfont 7.60979 sf 0 0 m (0.02) show NC gr  black 1 1 1 c
 gsave  2268 1415 0 0 C 566.929 163.61 t 0 r /Helvetica-Bold findfont 7.60979 sf 0 0 m (0.04) show NC gr  black 1 1 1 c
 gsave  2268 1415 0 0 C 635.417 163.61 t 0 r /Helvetica-Bold findfont 7.60979 sf 0 0 m (0.04) show NC gr  black 1 1 1 c
 gsave  2268 1415 0 0 C 703.905 163.61 t 0 r /Helvetica-Bold findfont 7.60979 sf 0 0 m (0.06) show NC gr  black 1 1 1 c
 gsave  2268 1415 0 0 C 768.589 163.61 t 0 r /Helvetica-Bold findfont 7.60979 sf 0 0 m (\2550.00) show NC gr  black 1 1 1 c
 gsave  2268 1415 0 0 C 837.077 163.61 t 0 r /Helvetica-Bold findfont 7.60979 sf 0 0 m (\2550.26) show NC gr  black 1 1 1 c
 gsave  2268 1415 0 0 C 905.565 163.61 t 0 r /Helvetica-Bold findfont 7.60979 sf 0 0 m (\2550.06) show NC gr  black 1 1 1 c
 gsave  2268 1415 0 0 C 974.053 163.61 t 0 r /Helvetica-Bold findfont 7.60979 sf 0 0 m (\2550.08) show NC gr  black 1 1 1 c
 gsave  2268 1415 0 0 C 1042.54 163.61 t 0 r /Helvetica-Bold findfont 7.60979 sf 0 0 m (\2550.60) show NC gr  black 1 1 1 c
 gsave  2268 1415 0 0 C 1111.03 163.61 t 0 r /Helvetica-Bold findfont 7.60979 sf 0 0 m (\2550.59) show NC gr  black 1 1 1 c
 gsave  2268 1415 0 0 C 1175.71 163.61 t 0 r /Helvetica-Bold findfont 7.60979 sf 0 0 m (\2550.34) show NC gr  black 1 1 1 c
 gsave  2268 1415 0 0 C 1244.2 163.61 t 0 r /Helvetica-Bold findfont 7.60979 sf 0 0 m (\2550.12) show NC gr  black 1 1 1 c
 gsave  2268 1415 0 0 C 1316.49 163.61 t 0 r /Helvetica-Bold findfont 7.60979 sf 0 0 m (0.06) show NC gr  black 1 1 1 c
 gsave  2268 1415 0 0 C 1381.18 163.61 t 0 r /Helvetica-Bold findfont 7.60979 sf 0 0 m (\2550.08) show NC gr  black 1 1 1 c
 gsave  2268 1415 0 0 C 1449.66 163.61 t 0 r /Helvetica-Bold findfont 7.60979 sf 0 0 m (\2550.00) show NC gr  black 1 1 1 c
 gsave  2268 1415 0 0 C 1518.15 163.61 t 0 r /Helvetica-Bold findfont 7.60979 sf 0 0 m (\2550.03) show NC gr  black 1 1 1 c
 gsave  2268 1415 0 0 C 1586.64 163.61 t 0 r /Helvetica-Bold findfont 7.60979 sf 0 0 m (\2550.07) show NC gr  black 1 1 1 c
 gsave  2268 1415 0 0 C 1658.93 163.61 t 0 r /Helvetica-Bold findfont 7.60979 sf 0 0 m (0.02) show NC gr  black 1 1 1 c
 gsave  2268 1415 0 0 C 1719.81 163.61 t 0 r /Helvetica-Bold findfont 7.60979 sf 0 0 m (\2550.02) show NC gr  black 1 1 1 c
 gsave  2268 1415 0 0 C 1792.1 163.61 t 0 r /Helvetica-Bold findfont 7.60979 sf 0 0 m (0.01) show NC gr  black 1 1 1 c
 gsave  2268 1415 0 0 C 1856.79 163.61 t 0 r /Helvetica-Bold findfont 7.60979 sf 0 0 m (\2550.11) show NC gr  black 1 1 1 c
 gsave  2268 1415 0 0 C 1929.08 163.61 t 0 r /Helvetica-Bold findfont 7.60979 sf 0 0 m (1.00) show NC gr  black 1 1 1 c
 gsave  2268 1415 0 0 C 429.953 213.074 t 0 r /Helvetica-Bold findfont 7.60979 sf 0 0 m (\2550.00) show NC gr  black 1 1 1 c
 gsave  2268 1415 0 0 C 502.246 213.074 t 0 r /Helvetica-Bold findfont 7.60979 sf 0 0 m (0.01) show NC gr  black 1 1 1 c
 gsave  2268 1415 0 0 C 566.929 213.074 t 0 r /Helvetica-Bold findfont 7.60979 sf 0 0 m (0.01) show NC gr  black 1 1 1 c
 gsave  2268 1415 0 0 C 635.417 213.074 t 0 r /Helvetica-Bold findfont 7.60979 sf 0 0 m (0.00) show NC gr  black 1 1 1 c
 gsave  2268 1415 0 0 C 703.905 213.074 t 0 r /Helvetica-Bold findfont 7.60979 sf 0 0 m (0.01) show NC gr  black 1 1 1 c
 gsave  2268 1415 0 0 C 772.393 213.074 t 0 r /Helvetica-Bold findfont 7.60979 sf 0 0 m (0.01) show NC gr  black 1 1 1 c
 gsave  2268 1415 0 0 C 837.077 213.074 t 0 r /Helvetica-Bold findfont 7.60979 sf 0 0 m (\2550.08) show NC gr  black 1 1 1 c
 gsave  2268 1415 0 0 C 905.565 213.074 t 0 r /Helvetica-Bold findfont 7.60979 sf 0 0 m (\2550.03) show NC gr  black 1 1 1 c
 gsave  2268 1415 0 0 C 974.053 213.074 t 0 r /Helvetica-Bold findfont 7.60979 sf 0 0 m (\2550.00) show NC gr  black 1 1 1 c
 gsave  2268 1415 0 0 C 1042.54 213.074 t 0 r /Helvetica-Bold findfont 7.60979 sf 0 0 m (\2550.00) show NC gr  black 1 1 1 c
 gsave  2268 1415 0 0 C 1111.03 213.074 t 0 r /Helvetica-Bold findfont 7.60979 sf 0 0 m (\2550.00) show NC gr  black 1 1 1 c
 gsave  2268 1415 0 0 C 1179.52 213.074 t 0 r /Helvetica-Bold findfont 7.60979 sf 0 0 m (0.00) show NC gr  black 1 1 1 c
 gsave  2268 1415 0 0 C 1244.2 213.074 t 0 r /Helvetica-Bold findfont 7.60979 sf 0 0 m (\2550.00) show NC gr  black 1 1 1 c
 gsave  2268 1415 0 0 C 1312.69 213.074 t 0 r /Helvetica-Bold findfont 7.60979 sf 0 0 m (\2550.03) show NC gr  black 1 1 1 c
 gsave  2268 1415 0 0 C 1384.98 213.074 t 0 r /Helvetica-Bold findfont 7.60979 sf 0 0 m (0.01) show NC gr  black 1 1 1 c
 gsave  2268 1415 0 0 C 1453.47 213.074 t 0 r /Helvetica-Bold findfont 7.60979 sf 0 0 m (0.00) show NC gr  black 1 1 1 c
 gsave  2268 1415 0 0 C 1521.96 213.074 t 0 r /Helvetica-Bold findfont 7.60979 sf 0 0 m (0.00) show NC gr  black 1 1 1 c
 gsave  2268 1415 0 0 C 1590.45 213.074 t 0 r /Helvetica-Bold findfont 7.60979 sf 0 0 m (0.01) show NC gr  black 1 1 1 c
 gsave  2268 1415 0 0 C 1658.93 213.074 t 0 r /Helvetica-Bold findfont 7.60979 sf 0 0 m (0.01) show NC gr  black 1 1 1 c
 gsave  2268 1415 0 0 C 1723.62 213.074 t 0 r /Helvetica-Bold findfont 7.60979 sf 0 0 m (0.00) show NC gr  black 1 1 1 c
 gsave  2268 1415 0 0 C 1788.3 213.074 t 0 r /Helvetica-Bold findfont 7.60979 sf 0 0 m (\2550.00) show NC gr  black 1 1 1 c
 gsave  2268 1415 0 0 C 1860.59 213.074 t 0 r /Helvetica-Bold findfont 7.60979 sf 0 0 m (1.00) show NC gr  black 1 1 1 c
 gsave  2268 1415 0 0 C 1925.28 213.074 t 0 r /Helvetica-Bold findfont 7.60979 sf 0 0 m (\2550.11) show NC gr  black 1 1 1 c
 gsave  2268 1415 0 0 C 433.758 262.538 t 0 r /Helvetica-Bold findfont 7.60979 sf 0 0 m (0.10) show NC gr  black 1 1 1 c
 gsave  2268 1415 0 0 C 502.246 262.538 t 0 r /Helvetica-Bold findfont 7.60979 sf 0 0 m (0.00) show NC gr  black 1 1 1 c
 gsave  2268 1415 0 0 C 566.929 262.538 t 0 r /Helvetica-Bold findfont 7.60979 sf 0 0 m (0.02) show NC gr  black 1 1 1 c
 gsave  2268 1415 0 0 C 635.417 262.538 t 0 r /Helvetica-Bold findfont 7.60979 sf 0 0 m (0.02) show NC gr  black 1 1 1 c
 gsave  2268 1415 0 0 C 700.1 262.538 t 0 r /Helvetica-Bold findfont 7.60979 sf 0 0 m (\2550.01) show NC gr  black 1 1 1 c
 gsave  2268 1415 0 0 C 768.589 262.538 t 0 r /Helvetica-Bold findfont 7.60979 sf 0 0 m (\2550.04) show NC gr  black 1 1 1 c
 gsave  2268 1415 0 0 C 837.077 262.538 t 0 r /Helvetica-Bold findfont 7.60979 sf 0 0 m (\2550.04) show NC gr  black 1 1 1 c
 gsave  2268 1415 0 0 C 905.565 262.538 t 0 r /Helvetica-Bold findfont 7.60979 sf 0 0 m (\2550.01) show NC gr  black 1 1 1 c
 gsave  2268 1415 0 0 C 974.053 262.538 t 0 r /Helvetica-Bold findfont 7.60979 sf 0 0 m (\2550.06) show NC gr  black 1 1 1 c
 gsave  2268 1415 0 0 C 1042.54 262.538 t 0 r /Helvetica-Bold findfont 7.60979 sf 0 0 m (\2550.01) show NC gr  black 1 1 1 c
 gsave  2268 1415 0 0 C 1111.03 262.538 t 0 r /Helvetica-Bold findfont 7.60979 sf 0 0 m (\2550.00) show NC gr  black 1 1 1 c
 gsave  2268 1415 0 0 C 1175.71 262.538 t 0 r /Helvetica-Bold findfont 7.60979 sf 0 0 m (\2550.00) show NC gr  black 1 1 1 c
 gsave  2268 1415 0 0 C 1244.2 262.538 t 0 r /Helvetica-Bold findfont 7.60979 sf 0 0 m (\2550.01) show NC gr  black 1 1 1 c
 gsave  2268 1415 0 0 C 1316.49 262.538 t 0 r /Helvetica-Bold findfont 7.60979 sf 0 0 m (0.01) show NC gr  black 1 1 1 c
 gsave  2268 1415 0 0 C 1381.18 262.538 t 0 r /Helvetica-Bold findfont 7.60979 sf 0 0 m (\2550.00) show NC gr  black 1 1 1 c
 gsave  2268 1415 0 0 C 1453.47 262.538 t 0 r /Helvetica-Bold findfont 7.60979 sf 0 0 m (0.02) show NC gr  black 1 1 1 c
 gsave  2268 1415 0 0 C 1521.96 262.538 t 0 r /Helvetica-Bold findfont 7.60979 sf 0 0 m (0.02) show NC gr  black 1 1 1 c
 gsave  2268 1415 0 0 C 1590.45 262.538 t 0 r /Helvetica-Bold findfont 7.60979 sf 0 0 m (0.00) show NC gr  black 1 1 1 c
 gsave  2268 1415 0 0 C 1658.93 262.538 t 0 r /Helvetica-Bold findfont 7.60979 sf 0 0 m (0.02) show NC gr  black 1 1 1 c
 gsave  2268 1415 0 0 C 1723.62 262.538 t 0 r /Helvetica-Bold findfont 7.60979 sf 0 0 m (0.01) show NC gr  black 1 1 1 c
 gsave  2268 1415 0 0 C 1792.1 262.538 t 0 r /Helvetica-Bold findfont 7.60979 sf 0 0 m (1.00) show NC gr  black 1 1 1 c
 gsave  2268 1415 0 0 C 1856.79 262.538 t 0 r /Helvetica-Bold findfont 7.60979 sf 0 0 m (\2550.00) show NC gr  black 1 1 1 c
 gsave  2268 1415 0 0 C 1929.08 262.538 t 0 r /Helvetica-Bold findfont 7.60979 sf 0 0 m (0.01) show NC gr  black 1 1 1 c
 gsave  2268 1415 0 0 C 429.953 312.001 t 0 r /Helvetica-Bold findfont 7.60979 sf 0 0 m (\2550.00) show NC gr  black 1 1 1 c
 gsave  2268 1415 0 0 C 502.246 312.001 t 0 r /Helvetica-Bold findfont 7.60979 sf 0 0 m (0.05) show NC gr  black 1 1 1 c
 gsave  2268 1415 0 0 C 566.929 312.001 t 0 r /Helvetica-Bold findfont 7.60979 sf 0 0 m (0.02) show NC gr  black 1 1 1 c
 gsave  2268 1415 0 0 C 635.417 312.001 t 0 r /Helvetica-Bold findfont 7.60979 sf 0 0 m (0.10) show NC gr  black 1 1 1 c
 gsave  2268 1415 0 0 C 703.905 312.001 t 0 r /Helvetica-Bold findfont 7.60979 sf 0 0 m (0.00) show NC gr  black 1 1 1 c
 gsave  2268 1415 0 0 C 772.393 312.001 t 0 r /Helvetica-Bold findfont 7.60979 sf 0 0 m (0.04) show NC gr  black 1 1 1 c
 gsave  2268 1415 0 0 C 837.077 312.001 t 0 r /Helvetica-Bold findfont 7.60979 sf 0 0 m (\2550.01) show NC gr  black 1 1 1 c
 gsave  2268 1415 0 0 C 905.565 312.001 t 0 r /Helvetica-Bold findfont 7.60979 sf 0 0 m (\2550.05) show NC gr  black 1 1 1 c
 gsave  2268 1415 0 0 C 974.053 312.001 t 0 r /Helvetica-Bold findfont 7.60979 sf 0 0 m (\2550.03) show NC gr  black 1 1 1 c
 gsave  2268 1415 0 0 C 1046.35 312.001 t 0 r /Helvetica-Bold findfont 7.60979 sf 0 0 m (0.02) show NC gr  black 1 1 1 c
 gsave  2268 1415 0 0 C 1114.83 312.001 t 0 r /Helvetica-Bold findfont 7.60979 sf 0 0 m (0.02) show NC gr  black 1 1 1 c
 gsave  2268 1415 0 0 C 1179.52 312.001 t 0 r /Helvetica-Bold findfont 7.60979 sf 0 0 m (0.00) show NC gr  black 1 1 1 c
 gsave  2268 1415 0 0 C 1244.2 312.001 t 0 r /Helvetica-Bold findfont 7.60979 sf 0 0 m (\2550.00) show NC gr  black 1 1 1 c
 gsave  2268 1415 0 0 C 1316.49 312.001 t 0 r /Helvetica-Bold findfont 7.60979 sf 0 0 m (0.02) show NC gr  black 1 1 1 c
 gsave  2268 1415 0 0 C 1384.98 312.001 t 0 r /Helvetica-Bold findfont 7.60979 sf 0 0 m (0.01) show NC gr  black 1 1 1 c
 gsave  2268 1415 0 0 C 1453.47 312.001 t 0 r /Helvetica-Bold findfont 7.60979 sf 0 0 m (0.03) show NC gr  black 1 1 1 c
 gsave  2268 1415 0 0 C 1521.96 312.001 t 0 r /Helvetica-Bold findfont 7.60979 sf 0 0 m (0.01) show NC gr  black 1 1 1 c
 gsave  2268 1415 0 0 C 1590.45 312.001 t 0 r /Helvetica-Bold findfont 7.60979 sf 0 0 m (0.01) show NC gr  black 1 1 1 c
 gsave  2268 1415 0 0 C 1658.93 312.001 t 0 r /Helvetica-Bold findfont 7.60979 sf 0 0 m (0.00) show NC gr  black 1 1 1 c
 gsave  2268 1415 0 0 C 1723.62 312.001 t 0 r /Helvetica-Bold findfont 7.60979 sf 0 0 m (1.00) show NC gr  black 1 1 1 c
 gsave  2268 1415 0 0 C 1792.1 312.001 t 0 r /Helvetica-Bold findfont 7.60979 sf 0 0 m (0.01) show NC gr  black 1 1 1 c
 gsave  2268 1415 0 0 C 1860.59 312.001 t 0 r /Helvetica-Bold findfont 7.60979 sf 0 0 m (0.00) show NC gr  black 1 1 1 c
 gsave  2268 1415 0 0 C 1925.28 312.001 t 0 r /Helvetica-Bold findfont 7.60979 sf 0 0 m (\2550.02) show NC gr  black 1 1 1 c
 gsave  2268 1415 0 0 C 433.758 361.465 t 0 r /Helvetica-Bold findfont 7.60979 sf 0 0 m (0.04) show NC gr  black 1 1 1 c
 gsave  2268 1415 0 0 C 502.246 361.465 t 0 r /Helvetica-Bold findfont 7.60979 sf 0 0 m (0.03) show NC gr  black 1 1 1 c
 gsave  2268 1415 0 0 C 566.929 361.465 t 0 r /Helvetica-Bold findfont 7.60979 sf 0 0 m (0.04) show NC gr  black 1 1 1 c
 gsave  2268 1415 0 0 C 631.612 361.465 t 0 r /Helvetica-Bold findfont 7.60979 sf 0 0 m (\2550.11) show NC gr  black 1 1 1 c
 gsave  2268 1415 0 0 C 703.905 361.465 t 0 r /Helvetica-Bold findfont 7.60979 sf 0 0 m (0.04) show NC gr  black 1 1 1 c
 gsave  2268 1415 0 0 C 768.589 361.465 t 0 r /Helvetica-Bold findfont 7.60979 sf 0 0 m (\2550.01) show NC gr  black 1 1 1 c
 gsave  2268 1415 0 0 C 837.077 361.465 t 0 r /Helvetica-Bold findfont 7.60979 sf 0 0 m (\2550.11) show NC gr  black 1 1 1 c
 gsave  2268 1415 0 0 C 905.565 361.465 t 0 r /Helvetica-Bold findfont 7.60979 sf 0 0 m (\2550.01) show NC gr  black 1 1 1 c
 gsave  2268 1415 0 0 C 974.053 361.465 t 0 r /Helvetica-Bold findfont 7.60979 sf 0 0 m (\2550.00) show NC gr  black 1 1 1 c
 gsave  2268 1415 0 0 C 1046.35 361.465 t 0 r /Helvetica-Bold findfont 7.60979 sf 0 0 m (0.00) show NC gr  black 1 1 1 c
 gsave  2268 1415 0 0 C 1111.03 361.465 t 0 r /Helvetica-Bold findfont 7.60979 sf 0 0 m (\2550.01) show NC gr  black 1 1 1 c
 gsave  2268 1415 0 0 C 1175.71 361.465 t 0 r /Helvetica-Bold findfont 7.60979 sf 0 0 m (\2550.04) show NC gr  black 1 1 1 c
 gsave  2268 1415 0 0 C 1244.2 361.465 t 0 r /Helvetica-Bold findfont 7.60979 sf 0 0 m (\2550.01) show NC gr  black 1 1 1 c
 gsave  2268 1415 0 0 C 1316.49 361.465 t 0 r /Helvetica-Bold findfont 7.60979 sf 0 0 m (0.04) show NC gr  black 1 1 1 c
 gsave  2268 1415 0 0 C 1384.98 361.465 t 0 r /Helvetica-Bold findfont 7.60979 sf 0 0 m (0.02) show NC gr  black 1 1 1 c
 gsave  2268 1415 0 0 C 1453.47 361.465 t 0 r /Helvetica-Bold findfont 7.60979 sf 0 0 m (0.04) show NC gr  black 1 1 1 c
 gsave  2268 1415 0 0 C 1521.96 361.465 t 0 r /Helvetica-Bold findfont 7.60979 sf 0 0 m (0.02) show NC gr  black 1 1 1 c
 gsave  2268 1415 0 0 C 1590.45 361.465 t 0 r /Helvetica-Bold findfont 7.60979 sf 0 0 m (0.01) show NC gr  black 1 1 1 c
 gsave  2268 1415 0 0 C 1658.93 361.465 t 0 r /Helvetica-Bold findfont 7.60979 sf 0 0 m (1.00) show NC gr  black 1 1 1 c
 gsave  2268 1415 0 0 C 1723.62 361.465 t 0 r /Helvetica-Bold findfont 7.60979 sf 0 0 m (0.00) show NC gr  black 1 1 1 c
 gsave  2268 1415 0 0 C 1792.1 361.465 t 0 r /Helvetica-Bold findfont 7.60979 sf 0 0 m (0.02) show NC gr  black 1 1 1 c
 gsave  2268 1415 0 0 C 1860.59 361.465 t 0 r /Helvetica-Bold findfont 7.60979 sf 0 0 m (0.01) show NC gr  black 1 1 1 c
 gsave  2268 1415 0 0 C 1929.08 361.465 t 0 r /Helvetica-Bold findfont 7.60979 sf 0 0 m (0.02) show NC gr  black 1 1 1 c
 gsave  2268 1415 0 0 C 429.953 410.928 t 0 r /Helvetica-Bold findfont 7.60979 sf 0 0 m (\2550.01) show NC gr  black 1 1 1 c
 gsave  2268 1415 0 0 C 498.441 410.928 t 0 r /Helvetica-Bold findfont 7.60979 sf 0 0 m (\2550.04) show NC gr  black 1 1 1 c
 gsave  2268 1415 0 0 C 563.124 410.928 t 0 r /Helvetica-Bold findfont 7.60979 sf 0 0 m (\2550.05) show NC gr  black 1 1 1 c
 gsave  2268 1415 0 0 C 631.612 410.928 t 0 r /Helvetica-Bold findfont 7.60979 sf 0 0 m (\2550.02) show NC gr  black 1 1 1 c
 gsave  2268 1415 0 0 C 700.1 410.928 t 0 r /Helvetica-Bold findfont 7.60979 sf 0 0 m (\2550.04) show NC gr  black 1 1 1 c
 gsave  2268 1415 0 0 C 772.393 410.928 t 0 r /Helvetica-Bold findfont 7.60979 sf 0 0 m (0.12) show NC gr  black 1 1 1 c
 gsave  2268 1415 0 0 C 837.077 410.928 t 0 r /Helvetica-Bold findfont 7.60979 sf 0 0 m (\2550.07) show NC gr  black 1 1 1 c
 gsave  2268 1415 0 0 C 905.565 410.928 t 0 r /Helvetica-Bold findfont 7.60979 sf 0 0 m (\2550.02) show NC gr  black 1 1 1 c
 gsave  2268 1415 0 0 C 974.053 410.928 t 0 r /Helvetica-Bold findfont 7.60979 sf 0 0 m (\2550.02) show NC gr  black 1 1 1 c
 gsave  2268 1415 0 0 C 1046.35 410.928 t 0 r /Helvetica-Bold findfont 7.60979 sf 0 0 m (0.05) show NC gr  black 1 1 1 c
 gsave  2268 1415 0 0 C 1114.83 410.928 t 0 r /Helvetica-Bold findfont 7.60979 sf 0 0 m (0.04) show NC gr  black 1 1 1 c
 gsave  2268 1415 0 0 C 1179.52 410.928 t 0 r /Helvetica-Bold findfont 7.60979 sf 0 0 m (0.01) show NC gr  black 1 1 1 c
 gsave  2268 1415 0 0 C 1248.01 410.928 t 0 r /Helvetica-Bold findfont 7.60979 sf 0 0 m (0.01) show NC gr  black 1 1 1 c
 gsave  2268 1415 0 0 C 1316.49 410.928 t 0 r /Helvetica-Bold findfont 7.60979 sf 0 0 m (0.03) show NC gr  black 1 1 1 c
 gsave  2268 1415 0 0 C 1384.98 410.928 t 0 r /Helvetica-Bold findfont 7.60979 sf 0 0 m (0.04) show NC gr  black 1 1 1 c
 gsave  2268 1415 0 0 C 1453.47 410.928 t 0 r /Helvetica-Bold findfont 7.60979 sf 0 0 m (0.01) show NC gr  black 1 1 1 c
 gsave  2268 1415 0 0 C 1521.96 410.928 t 0 r /Helvetica-Bold findfont 7.60979 sf 0 0 m (0.01) show NC gr  black 1 1 1 c
 gsave  2268 1415 0 0 C 1590.45 410.928 t 0 r /Helvetica-Bold findfont 7.60979 sf 0 0 m (1.00) show NC gr  black 1 1 1 c
 gsave  2268 1415 0 0 C 1658.93 410.928 t 0 r /Helvetica-Bold findfont 7.60979 sf 0 0 m (0.01) show NC gr  black 1 1 1 c
 gsave  2268 1415 0 0 C 1723.62 410.928 t 0 r /Helvetica-Bold findfont 7.60979 sf 0 0 m (0.01) show NC gr  black 1 1 1 c
 gsave  2268 1415 0 0 C 1792.1 410.928 t 0 r /Helvetica-Bold findfont 7.60979 sf 0 0 m (0.00) show NC gr  black 1 1 1 c
 gsave  2268 1415 0 0 C 1860.59 410.928 t 0 r /Helvetica-Bold findfont 7.60979 sf 0 0 m (0.01) show NC gr  black 1 1 1 c
 gsave  2268 1415 0 0 C 1925.28 410.928 t 0 r /Helvetica-Bold findfont 7.60979 sf 0 0 m (\2550.07) show NC gr  black 1 1 1 c
 gsave  2268 1415 0 0 C 433.758 460.392 t 0 r /Helvetica-Bold findfont 7.60979 sf 0 0 m (0.00) show NC gr  black 1 1 1 c
 gsave  2268 1415 0 0 C 498.441 460.392 t 0 r /Helvetica-Bold findfont 7.60979 sf 0 0 m (\2550.00) show NC gr  black 1 1 1 c
 gsave  2268 1415 0 0 C 566.929 460.392 t 0 r /Helvetica-Bold findfont 7.60979 sf 0 0 m (0.04) show NC gr  black 1 1 1 c
 gsave  2268 1415 0 0 C 635.417 460.392 t 0 r /Helvetica-Bold findfont 7.60979 sf 0 0 m (0.01) show NC gr  black 1 1 1 c
 gsave  2268 1415 0 0 C 703.905 460.392 t 0 r /Helvetica-Bold findfont 7.60979 sf 0 0 m (0.05) show NC gr  black 1 1 1 c
 gsave  2268 1415 0 0 C 768.589 460.392 t 0 r /Helvetica-Bold findfont 7.60979 sf 0 0 m (\2550.00) show NC gr  black 1 1 1 c
 gsave  2268 1415 0 0 C 840.881 460.392 t 0 r /Helvetica-Bold findfont 7.60979 sf 0 0 m (0.06) show NC gr  black 1 1 1 c
 gsave  2268 1415 0 0 C 905.565 460.392 t 0 r /Helvetica-Bold findfont 7.60979 sf 0 0 m (\2550.10) show NC gr  black 1 1 1 c
 gsave  2268 1415 0 0 C 974.053 460.392 t 0 r /Helvetica-Bold findfont 7.60979 sf 0 0 m (\2550.02) show NC gr  black 1 1 1 c
 gsave  2268 1415 0 0 C 1042.54 460.392 t 0 r /Helvetica-Bold findfont 7.60979 sf 0 0 m (\2550.01) show NC gr  black 1 1 1 c
 gsave  2268 1415 0 0 C 1114.83 460.392 t 0 r /Helvetica-Bold findfont 7.60979 sf 0 0 m (0.02) show NC gr  black 1 1 1 c
 gsave  2268 1415 0 0 C 1179.52 460.392 t 0 r /Helvetica-Bold findfont 7.60979 sf 0 0 m (0.02) show NC gr  black 1 1 1 c
 gsave  2268 1415 0 0 C 1248.01 460.392 t 0 r /Helvetica-Bold findfont 7.60979 sf 0 0 m (0.02) show NC gr  black 1 1 1 c
 gsave  2268 1415 0 0 C 1316.49 460.392 t 0 r /Helvetica-Bold findfont 7.60979 sf 0 0 m (0.01) show NC gr  black 1 1 1 c
 gsave  2268 1415 0 0 C 1381.18 460.392 t 0 r /Helvetica-Bold findfont 7.60979 sf 0 0 m (\2550.00) show NC gr  black 1 1 1 c
 gsave  2268 1415 0 0 C 1453.47 460.392 t 0 r /Helvetica-Bold findfont 7.60979 sf 0 0 m (0.01) show NC gr  black 1 1 1 c
 gsave  2268 1415 0 0 C 1521.96 460.392 t 0 r /Helvetica-Bold findfont 7.60979 sf 0 0 m (1.00) show NC gr  black 1 1 1 c
 gsave  2268 1415 0 0 C 1590.45 460.392 t 0 r /Helvetica-Bold findfont 7.60979 sf 0 0 m (0.01) show NC gr  black 1 1 1 c
 gsave  2268 1415 0 0 C 1658.93 460.392 t 0 r /Helvetica-Bold findfont 7.60979 sf 0 0 m (0.02) show NC gr  black 1 1 1 c
 gsave  2268 1415 0 0 C 1723.62 460.392 t 0 r /Helvetica-Bold findfont 7.60979 sf 0 0 m (0.01) show NC gr  black 1 1 1 c
 gsave  2268 1415 0 0 C 1792.1 460.392 t 0 r /Helvetica-Bold findfont 7.60979 sf 0 0 m (0.02) show NC gr  black 1 1 1 c
 gsave  2268 1415 0 0 C 1860.59 460.392 t 0 r /Helvetica-Bold findfont 7.60979 sf 0 0 m (0.00) show NC gr  black 1 1 1 c
 gsave  2268 1415 0 0 C 1925.28 460.392 t 0 r /Helvetica-Bold findfont 7.60979 sf 0 0 m (\2550.03) show NC gr  black 1 1 1 c
 gsave  2268 1415 0 0 C 429.953 509.856 t 0 r /Helvetica-Bold findfont 7.60979 sf 0 0 m (\2550.01) show NC gr  black 1 1 1 c
 gsave  2268 1415 0 0 C 502.246 509.856 t 0 r /Helvetica-Bold findfont 7.60979 sf 0 0 m (0.00) show NC gr  black 1 1 1 c
 gsave  2268 1415 0 0 C 566.929 509.856 t 0 r /Helvetica-Bold findfont 7.60979 sf 0 0 m (0.01) show NC gr  black 1 1 1 c
 gsave  2268 1415 0 0 C 635.417 509.856 t 0 r /Helvetica-Bold findfont 7.60979 sf 0 0 m (0.02) show NC gr  black 1 1 1 c
 gsave  2268 1415 0 0 C 703.905 509.856 t 0 r /Helvetica-Bold findfont 7.60979 sf 0 0 m (0.01) show NC gr  black 1 1 1 c
 gsave  2268 1415 0 0 C 768.589 509.856 t 0 r /Helvetica-Bold findfont 7.60979 sf 0 0 m (\2550.07) show NC gr  black 1 1 1 c
 gsave  2268 1415 0 0 C 837.077 509.856 t 0 r /Helvetica-Bold findfont 7.60979 sf 0 0 m (\2550.18) show NC gr  black 1 1 1 c
 gsave  2268 1415 0 0 C 909.37 509.856 t 0 r /Helvetica-Bold findfont 7.60979 sf 0 0 m (0.01) show NC gr  black 1 1 1 c
 gsave  2268 1415 0 0 C 977.858 509.856 t 0 r /Helvetica-Bold findfont 7.60979 sf 0 0 m (0.05) show NC gr  black 1 1 1 c
 gsave  2268 1415 0 0 C 1042.54 509.856 t 0 r /Helvetica-Bold findfont 7.60979 sf 0 0 m (\2550.01) show NC gr  black 1 1 1 c
 gsave  2268 1415 0 0 C 1111.03 509.856 t 0 r /Helvetica-Bold findfont 7.60979 sf 0 0 m (\2550.01) show NC gr  black 1 1 1 c
 gsave  2268 1415 0 0 C 1179.52 509.856 t 0 r /Helvetica-Bold findfont 7.60979 sf 0 0 m (0.02) show NC gr  black 1 1 1 c
 gsave  2268 1415 0 0 C 1248.01 509.856 t 0 r /Helvetica-Bold findfont 7.60979 sf 0 0 m (0.01) show NC gr  black 1 1 1 c
 gsave  2268 1415 0 0 C 1316.49 509.856 t 0 r /Helvetica-Bold findfont 7.60979 sf 0 0 m (0.04) show NC gr  black 1 1 1 c
 gsave  2268 1415 0 0 C 1384.98 509.856 t 0 r /Helvetica-Bold findfont 7.60979 sf 0 0 m (0.03) show NC gr  black 1 1 1 c
 gsave  2268 1415 0 0 C 1453.47 509.856 t 0 r /Helvetica-Bold findfont 7.60979 sf 0 0 m (1.00) show NC gr  black 1 1 1 c
 gsave  2268 1415 0 0 C 1521.96 509.856 t 0 r /Helvetica-Bold findfont 7.60979 sf 0 0 m (0.01) show NC gr  black 1 1 1 c
 gsave  2268 1415 0 0 C 1590.45 509.856 t 0 r /Helvetica-Bold findfont 7.60979 sf 0 0 m (0.01) show NC gr  black 1 1 1 c
 gsave  2268 1415 0 0 C 1658.93 509.856 t 0 r /Helvetica-Bold findfont 7.60979 sf 0 0 m (0.04) show NC gr  black 1 1 1 c
 gsave  2268 1415 0 0 C 1723.62 509.856 t 0 r /Helvetica-Bold findfont 7.60979 sf 0 0 m (0.03) show NC gr  black 1 1 1 c
 gsave  2268 1415 0 0 C 1792.1 509.856 t 0 r /Helvetica-Bold findfont 7.60979 sf 0 0 m (0.02) show NC gr  black 1 1 1 c
 gsave  2268 1415 0 0 C 1860.59 509.856 t 0 r /Helvetica-Bold findfont 7.60979 sf 0 0 m (0.00) show NC gr  black 1 1 1 c
 gsave  2268 1415 0 0 C 1925.28 509.856 t 0 r /Helvetica-Bold findfont 7.60979 sf 0 0 m (\2550.00) show NC gr  black 1 1 1 c
 gsave  2268 1415 0 0 C 429.953 559.319 t 0 r /Helvetica-Bold findfont 7.60979 sf 0 0 m (\2550.06) show NC gr  black 1 1 1 c
 gsave  2268 1415 0 0 C 498.441 559.319 t 0 r /Helvetica-Bold findfont 7.60979 sf 0 0 m (\2550.01) show NC gr  black 1 1 1 c
 gsave  2268 1415 0 0 C 563.124 559.319 t 0 r /Helvetica-Bold findfont 7.60979 sf 0 0 m (\2550.03) show NC gr  black 1 1 1 c
 gsave  2268 1415 0 0 C 635.417 559.319 t 0 r /Helvetica-Bold findfont 7.60979 sf 0 0 m (0.03) show NC gr  black 1 1 1 c
 gsave  2268 1415 0 0 C 700.1 559.319 t 0 r /Helvetica-Bold findfont 7.60979 sf 0 0 m (\2550.05) show NC gr  black 1 1 1 c
 gsave  2268 1415 0 0 C 772.393 559.319 t 0 r /Helvetica-Bold findfont 7.60979 sf 0 0 m (0.05) show NC gr  black 1 1 1 c
 gsave  2268 1415 0 0 C 837.077 559.319 t 0 r /Helvetica-Bold findfont 7.60979 sf 0 0 m (\2550.11) show NC gr  black 1 1 1 c
 gsave  2268 1415 0 0 C 909.37 559.319 t 0 r /Helvetica-Bold findfont 7.60979 sf 0 0 m (0.07) show NC gr  black 1 1 1 c
 gsave  2268 1415 0 0 C 974.053 559.319 t 0 r /Helvetica-Bold findfont 7.60979 sf 0 0 m (\2550.02) show NC gr  black 1 1 1 c
 gsave  2268 1415 0 0 C 1046.35 559.319 t 0 r /Helvetica-Bold findfont 7.60979 sf 0 0 m (0.01) show NC gr  black 1 1 1 c
 gsave  2268 1415 0 0 C 1114.83 559.319 t 0 r /Helvetica-Bold findfont 7.60979 sf 0 0 m (0.05) show NC gr  black 1 1 1 c
 gsave  2268 1415 0 0 C 1175.71 559.319 t 0 r /Helvetica-Bold findfont 7.60979 sf 0 0 m (\2550.00) show NC gr  black 1 1 1 c
 gsave  2268 1415 0 0 C 1248.01 559.319 t 0 r /Helvetica-Bold findfont 7.60979 sf 0 0 m (0.04) show NC gr  black 1 1 1 c
 gsave  2268 1415 0 0 C 1316.49 559.319 t 0 r /Helvetica-Bold findfont 7.60979 sf 0 0 m (0.02) show NC gr  black 1 1 1 c
 gsave  2268 1415 0 0 C 1384.98 559.319 t 0 r /Helvetica-Bold findfont 7.60979 sf 0 0 m (1.00) show NC gr  black 1 1 1 c
 gsave  2268 1415 0 0 C 1453.47 559.319 t 0 r /Helvetica-Bold findfont 7.60979 sf 0 0 m (0.03) show NC gr  black 1 1 1 c
 gsave  2268 1415 0 0 C 1518.15 559.319 t 0 r /Helvetica-Bold findfont 7.60979 sf 0 0 m (\2550.00) show NC gr  black 1 1 1 c
 gsave  2268 1415 0 0 C 1590.45 559.319 t 0 r /Helvetica-Bold findfont 7.60979 sf 0 0 m (0.04) show NC gr  black 1 1 1 c
 gsave  2268 1415 0 0 C 1658.93 559.319 t 0 r /Helvetica-Bold findfont 7.60979 sf 0 0 m (0.02) show NC gr  black 1 1 1 c
 gsave  2268 1415 0 0 C 1723.62 559.319 t 0 r /Helvetica-Bold findfont 7.60979 sf 0 0 m (0.01) show NC gr  black 1 1 1 c
 gsave  2268 1415 0 0 C 1788.3 559.319 t 0 r /Helvetica-Bold findfont 7.60979 sf 0 0 m (\2550.00) show NC gr  black 1 1 1 c
 gsave  2268 1415 0 0 C 1860.59 559.319 t 0 r /Helvetica-Bold findfont 7.60979 sf 0 0 m (0.01) show NC gr  black 1 1 1 c
 gsave  2268 1415 0 0 C 1925.28 559.319 t 0 r /Helvetica-Bold findfont 7.60979 sf 0 0 m (\2550.08) show NC gr  black 1 1 1 c
 gsave  2268 1415 0 0 C 429.953 608.783 t 0 r /Helvetica-Bold findfont 7.60979 sf 0 0 m (\2550.02) show NC gr  black 1 1 1 c
 gsave  2268 1415 0 0 C 502.246 608.783 t 0 r /Helvetica-Bold findfont 7.60979 sf 0 0 m (0.01) show NC gr  black 1 1 1 c
 gsave  2268 1415 0 0 C 566.929 608.783 t 0 r /Helvetica-Bold findfont 7.60979 sf 0 0 m (0.02) show NC gr  black 1 1 1 c
 gsave  2268 1415 0 0 C 631.612 608.783 t 0 r /Helvetica-Bold findfont 7.60979 sf 0 0 m (\2550.05) show NC gr  black 1 1 1 c
 gsave  2268 1415 0 0 C 700.1 608.783 t 0 r /Helvetica-Bold findfont 7.60979 sf 0 0 m (\2550.01) show NC gr  black 1 1 1 c
 gsave  2268 1415 0 0 C 772.393 608.783 t 0 r /Helvetica-Bold findfont 7.60979 sf 0 0 m (0.03) show NC gr  black 1 1 1 c
 gsave  2268 1415 0 0 C 837.077 608.783 t 0 r /Helvetica-Bold findfont 7.60979 sf 0 0 m (\2550.13) show NC gr  black 1 1 1 c
 gsave  2268 1415 0 0 C 905.565 608.783 t 0 r /Helvetica-Bold findfont 7.60979 sf 0 0 m (\2550.05) show NC gr  black 1 1 1 c
 gsave  2268 1415 0 0 C 974.053 608.783 t 0 r /Helvetica-Bold findfont 7.60979 sf 0 0 m (\2550.01) show NC gr  black 1 1 1 c
 gsave  2268 1415 0 0 C 1042.54 608.783 t 0 r /Helvetica-Bold findfont 7.60979 sf 0 0 m (\2550.03) show NC gr  black 1 1 1 c
 gsave  2268 1415 0 0 C 1111.03 608.783 t 0 r /Helvetica-Bold findfont 7.60979 sf 0 0 m (\2550.03) show NC gr  black 1 1 1 c
 gsave  2268 1415 0 0 C 1179.52 608.783 t 0 r /Helvetica-Bold findfont 7.60979 sf 0 0 m (0.01) show NC gr  black 1 1 1 c
 gsave  2268 1415 0 0 C 1244.2 608.783 t 0 r /Helvetica-Bold findfont 7.60979 sf 0 0 m (\2550.02) show NC gr  black 1 1 1 c
 gsave  2268 1415 0 0 C 1316.49 608.783 t 0 r /Helvetica-Bold findfont 7.60979 sf 0 0 m (1.00) show NC gr  black 1 1 1 c
 gsave  2268 1415 0 0 C 1384.98 608.783 t 0 r /Helvetica-Bold findfont 7.60979 sf 0 0 m (0.02) show NC gr  black 1 1 1 c
 gsave  2268 1415 0 0 C 1453.47 608.783 t 0 r /Helvetica-Bold findfont 7.60979 sf 0 0 m (0.04) show NC gr  black 1 1 1 c
 gsave  2268 1415 0 0 C 1521.96 608.783 t 0 r /Helvetica-Bold findfont 7.60979 sf 0 0 m (0.01) show NC gr  black 1 1 1 c
 gsave  2268 1415 0 0 C 1590.45 608.783 t 0 r /Helvetica-Bold findfont 7.60979 sf 0 0 m (0.03) show NC gr  black 1 1 1 c
 gsave  2268 1415 0 0 C 1658.93 608.783 t 0 r /Helvetica-Bold findfont 7.60979 sf 0 0 m (0.04) show NC gr  black 1 1 1 c
 gsave  2268 1415 0 0 C 1723.62 608.783 t 0 r /Helvetica-Bold findfont 7.60979 sf 0 0 m (0.02) show NC gr  black 1 1 1 c
 gsave  2268 1415 0 0 C 1792.1 608.783 t 0 r /Helvetica-Bold findfont 7.60979 sf 0 0 m (0.01) show NC gr  black 1 1 1 c
 gsave  2268 1415 0 0 C 1856.79 608.783 t 0 r /Helvetica-Bold findfont 7.60979 sf 0 0 m (\2550.03) show NC gr  black 1 1 1 c
 gsave  2268 1415 0 0 C 1929.08 608.783 t 0 r /Helvetica-Bold findfont 7.60979 sf 0 0 m (0.06) show NC gr  black 1 1 1 c
 gsave  2268 1415 0 0 C 429.953 658.247 t 0 r /Helvetica-Bold findfont 7.60979 sf 0 0 m (\2550.01) show NC gr  black 1 1 1 c
 gsave  2268 1415 0 0 C 498.441 658.247 t 0 r /Helvetica-Bold findfont 7.60979 sf 0 0 m (\2550.01) show NC gr  black 1 1 1 c
 gsave  2268 1415 0 0 C 563.124 658.247 t 0 r /Helvetica-Bold findfont 7.60979 sf 0 0 m (\2550.02) show NC gr  black 1 1 1 c
 gsave  2268 1415 0 0 C 631.612 658.247 t 0 r /Helvetica-Bold findfont 7.60979 sf 0 0 m (\2550.02) show NC gr  black 1 1 1 c
 gsave  2268 1415 0 0 C 700.1 658.247 t 0 r /Helvetica-Bold findfont 7.60979 sf 0 0 m (\2550.02) show NC gr  black 1 1 1 c
 gsave  2268 1415 0 0 C 772.393 658.247 t 0 r /Helvetica-Bold findfont 7.60979 sf 0 0 m (0.00) show NC gr  black 1 1 1 c
 gsave  2268 1415 0 0 C 840.881 658.247 t 0 r /Helvetica-Bold findfont 7.60979 sf 0 0 m (0.14) show NC gr  black 1 1 1 c
 gsave  2268 1415 0 0 C 909.37 658.247 t 0 r /Helvetica-Bold findfont 7.60979 sf 0 0 m (0.02) show NC gr  black 1 1 1 c
 gsave  2268 1415 0 0 C 977.858 658.247 t 0 r /Helvetica-Bold findfont 7.60979 sf 0 0 m (0.02) show NC gr  black 1 1 1 c
 gsave  2268 1415 0 0 C 1042.54 658.247 t 0 r /Helvetica-Bold findfont 7.60979 sf 0 0 m (\2550.02) show NC gr  black 1 1 1 c
 gsave  2268 1415 0 0 C 1111.03 658.247 t 0 r /Helvetica-Bold findfont 7.60979 sf 0 0 m (\2550.03) show NC gr  black 1 1 1 c
 gsave  2268 1415 0 0 C 1175.71 658.247 t 0 r /Helvetica-Bold findfont 7.60979 sf 0 0 m (\2550.00) show NC gr  black 1 1 1 c
 gsave  2268 1415 0 0 C 1248.01 658.247 t 0 r /Helvetica-Bold findfont 7.60979 sf 0 0 m (1.00) show NC gr  black 1 1 1 c
 gsave  2268 1415 0 0 C 1312.69 658.247 t 0 r /Helvetica-Bold findfont 7.60979 sf 0 0 m (\2550.02) show NC gr  black 1 1 1 c
 gsave  2268 1415 0 0 C 1384.98 658.247 t 0 r /Helvetica-Bold findfont 7.60979 sf 0 0 m (0.04) show NC gr  black 1 1 1 c
 gsave  2268 1415 0 0 C 1453.47 658.247 t 0 r /Helvetica-Bold findfont 7.60979 sf 0 0 m (0.01) show NC gr  black 1 1 1 c
 gsave  2268 1415 0 0 C 1521.96 658.247 t 0 r /Helvetica-Bold findfont 7.60979 sf 0 0 m (0.02) show NC gr  black 1 1 1 c
 gsave  2268 1415 0 0 C 1590.45 658.247 t 0 r /Helvetica-Bold findfont 7.60979 sf 0 0 m (0.01) show NC gr  black 1 1 1 c
 gsave  2268 1415 0 0 C 1655.13 658.247 t 0 r /Helvetica-Bold findfont 7.60979 sf 0 0 m (\2550.01) show NC gr  black 1 1 1 c
 gsave  2268 1415 0 0 C 1719.81 658.247 t 0 r /Helvetica-Bold findfont 7.60979 sf 0 0 m (\2550.00) show NC gr  black 1 1 1 c
 gsave  2268 1415 0 0 C 1788.3 658.247 t 0 r /Helvetica-Bold findfont 7.60979 sf 0 0 m (\2550.01) show NC gr  black 1 1 1 c
 gsave  2268 1415 0 0 C 1856.79 658.247 t 0 r /Helvetica-Bold findfont 7.60979 sf 0 0 m (\2550.00) show NC gr  black 1 1 1 c
 gsave  2268 1415 0 0 C 1925.28 658.247 t 0 r /Helvetica-Bold findfont 7.60979 sf 0 0 m (\2550.12) show NC gr  black 1 1 1 c
 gsave  2268 1415 0 0 C 429.953 703.905 t 0 r /Helvetica-Bold findfont 7.60979 sf 0 0 m (\2550.01) show NC gr  black 1 1 1 c
 gsave  2268 1415 0 0 C 498.441 703.905 t 0 r /Helvetica-Bold findfont 7.60979 sf 0 0 m (\2550.00) show NC gr  black 1 1 1 c
 gsave  2268 1415 0 0 C 563.124 703.905 t 0 r /Helvetica-Bold findfont 7.60979 sf 0 0 m (\2550.01) show NC gr  black 1 1 1 c
 gsave  2268 1415 0 0 C 631.612 703.905 t 0 r /Helvetica-Bold findfont 7.60979 sf 0 0 m (\2550.02) show NC gr  black 1 1 1 c
 gsave  2268 1415 0 0 C 700.1 703.905 t 0 r /Helvetica-Bold findfont 7.60979 sf 0 0 m (\2550.01) show NC gr  black 1 1 1 c
 gsave  2268 1415 0 0 C 772.393 703.905 t 0 r /Helvetica-Bold findfont 7.60979 sf 0 0 m (0.01) show NC gr  black 1 1 1 c
 gsave  2268 1415 0 0 C 840.881 703.905 t 0 r /Helvetica-Bold findfont 7.60979 sf 0 0 m (0.03) show NC gr  black 1 1 1 c
 gsave  2268 1415 0 0 C 909.37 703.905 t 0 r /Helvetica-Bold findfont 7.60979 sf 0 0 m (0.03) show NC gr  black 1 1 1 c
 gsave  2268 1415 0 0 C 977.858 703.905 t 0 r /Helvetica-Bold findfont 7.60979 sf 0 0 m (0.01) show NC gr  black 1 1 1 c
 gsave  2268 1415 0 0 C 1046.35 703.905 t 0 r /Helvetica-Bold findfont 7.60979 sf 0 0 m (0.00) show NC gr  black 1 1 1 c
 gsave  2268 1415 0 0 C 1111.03 703.905 t 0 r /Helvetica-Bold findfont 7.60979 sf 0 0 m (\2550.00) show NC gr  black 1 1 1 c
 gsave  2268 1415 0 0 C 1179.52 703.905 t 0 r /Helvetica-Bold findfont 7.60979 sf 0 0 m (1.00) show NC gr  black 1 1 1 c
 gsave  2268 1415 0 0 C 1244.2 703.905 t 0 r /Helvetica-Bold findfont 7.60979 sf 0 0 m (\2550.00) show NC gr  black 1 1 1 c
 gsave  2268 1415 0 0 C 1316.49 703.905 t 0 r /Helvetica-Bold findfont 7.60979 sf 0 0 m (0.01) show NC gr  black 1 1 1 c
 gsave  2268 1415 0 0 C 1381.18 703.905 t 0 r /Helvetica-Bold findfont 7.60979 sf 0 0 m (\2550.00) show NC gr  black 1 1 1 c
 gsave  2268 1415 0 0 C 1453.47 703.905 t 0 r /Helvetica-Bold findfont 7.60979 sf 0 0 m (0.02) show NC gr  black 1 1 1 c
 gsave  2268 1415 0 0 C 1521.96 703.905 t 0 r /Helvetica-Bold findfont 7.60979 sf 0 0 m (0.02) show NC gr  black 1 1 1 c
 gsave  2268 1415 0 0 C 1590.45 703.905 t 0 r /Helvetica-Bold findfont 7.60979 sf 0 0 m (0.01) show NC gr  black 1 1 1 c
 gsave  2268 1415 0 0 C 1655.13 703.905 t 0 r /Helvetica-Bold findfont 7.60979 sf 0 0 m (\2550.04) show NC gr  black 1 1 1 c
 gsave  2268 1415 0 0 C 1723.62 703.905 t 0 r /Helvetica-Bold findfont 7.60979 sf 0 0 m (0.00) show NC gr  black 1 1 1 c
 gsave  2268 1415 0 0 C 1788.3 703.905 t 0 r /Helvetica-Bold findfont 7.60979 sf 0 0 m (\2550.00) show NC gr  black 1 1 1 c
 gsave  2268 1415 0 0 C 1860.59 703.905 t 0 r /Helvetica-Bold findfont 7.60979 sf 0 0 m (0.00) show NC gr  black 1 1 1 c
 gsave  2268 1415 0 0 C 1925.28 703.905 t 0 r /Helvetica-Bold findfont 7.60979 sf 0 0 m (\2550.34) show NC gr  black 1 1 1 c
 gsave  2268 1415 0 0 C 429.953 753.369 t 0 r /Helvetica-Bold findfont 7.60979 sf 0 0 m (\2550.02) show NC gr  black 1 1 1 c
 gsave  2268 1415 0 0 C 498.441 753.369 t 0 r /Helvetica-Bold findfont 7.60979 sf 0 0 m (\2550.01) show NC gr  black 1 1 1 c
 gsave  2268 1415 0 0 C 563.124 753.369 t 0 r /Helvetica-Bold findfont 7.60979 sf 0 0 m (\2550.02) show NC gr  black 1 1 1 c
 gsave  2268 1415 0 0 C 631.612 753.369 t 0 r /Helvetica-Bold findfont 7.60979 sf 0 0 m (\2550.02) show NC gr  black 1 1 1 c
 gsave  2268 1415 0 0 C 700.1 753.369 t 0 r /Helvetica-Bold findfont 7.60979 sf 0 0 m (\2550.03) show NC gr  black 1 1 1 c
 gsave  2268 1415 0 0 C 768.589 753.369 t 0 r /Helvetica-Bold findfont 7.60979 sf 0 0 m (\2550.02) show NC gr  black 1 1 1 c
 gsave  2268 1415 0 0 C 840.881 753.369 t 0 r /Helvetica-Bold findfont 7.60979 sf 0 0 m (0.15) show NC gr  black 1 1 1 c
 gsave  2268 1415 0 0 C 909.37 753.369 t 0 r /Helvetica-Bold findfont 7.60979 sf 0 0 m (0.04) show NC gr  black 1 1 1 c
 gsave  2268 1415 0 0 C 977.858 753.369 t 0 r /Helvetica-Bold findfont 7.60979 sf 0 0 m (0.05) show NC gr  black 1 1 1 c
 gsave  2268 1415 0 0 C 1042.54 753.369 t 0 r /Helvetica-Bold findfont 7.60979 sf 0 0 m (\2550.02) show NC gr  black 1 1 1 c
 gsave  2268 1415 0 0 C 1114.83 753.369 t 0 r /Helvetica-Bold findfont 7.60979 sf 0 0 m (1.00) show NC gr  black 1 1 1 c
 gsave  2268 1415 0 0 C 1175.71 753.369 t 0 r /Helvetica-Bold findfont 7.60979 sf 0 0 m (\2550.00) show NC gr  black 1 1 1 c
 gsave  2268 1415 0 0 C 1244.2 753.369 t 0 r /Helvetica-Bold findfont 7.60979 sf 0 0 m (\2550.03) show NC gr  black 1 1 1 c
 gsave  2268 1415 0 0 C 1312.69 753.369 t 0 r /Helvetica-Bold findfont 7.60979 sf 0 0 m (\2550.03) show NC gr  black 1 1 1 c
 gsave  2268 1415 0 0 C 1384.98 753.369 t 0 r /Helvetica-Bold findfont 7.60979 sf 0 0 m (0.05) show NC gr  black 1 1 1 c
 gsave  2268 1415 0 0 C 1449.66 753.369 t 0 r /Helvetica-Bold findfont 7.60979 sf 0 0 m (\2550.01) show NC gr  black 1 1 1 c
 gsave  2268 1415 0 0 C 1521.96 753.369 t 0 r /Helvetica-Bold findfont 7.60979 sf 0 0 m (0.02) show NC gr  black 1 1 1 c
 gsave  2268 1415 0 0 C 1590.45 753.369 t 0 r /Helvetica-Bold findfont 7.60979 sf 0 0 m (0.04) show NC gr  black 1 1 1 c
 gsave  2268 1415 0 0 C 1655.13 753.369 t 0 r /Helvetica-Bold findfont 7.60979 sf 0 0 m (\2550.01) show NC gr  black 1 1 1 c
 gsave  2268 1415 0 0 C 1723.62 753.369 t 0 r /Helvetica-Bold findfont 7.60979 sf 0 0 m (0.02) show NC gr  black 1 1 1 c
 gsave  2268 1415 0 0 C 1788.3 753.369 t 0 r /Helvetica-Bold findfont 7.60979 sf 0 0 m (\2550.00) show NC gr  black 1 1 1 c
 gsave  2268 1415 0 0 C 1856.79 753.369 t 0 r /Helvetica-Bold findfont 7.60979 sf 0 0 m (\2550.00) show NC gr  black 1 1 1 c
 gsave  2268 1415 0 0 C 1925.28 753.369 t 0 r /Helvetica-Bold findfont 7.60979 sf 0 0 m (\2550.59) show NC gr  black 1 1 1 c
 gsave  2268 1415 0 0 C 429.953 802.833 t 0 r /Helvetica-Bold findfont 7.60979 sf 0 0 m (\2550.03) show NC gr  black 1 1 1 c
 gsave  2268 1415 0 0 C 498.441 802.833 t 0 r /Helvetica-Bold findfont 7.60979 sf 0 0 m (\2550.01) show NC gr  black 1 1 1 c
 gsave  2268 1415 0 0 C 563.124 802.833 t 0 r /Helvetica-Bold findfont 7.60979 sf 0 0 m (\2550.02) show NC gr  black 1 1 1 c
 gsave  2268 1415 0 0 C 631.612 802.833 t 0 r /Helvetica-Bold findfont 7.60979 sf 0 0 m (\2550.01) show NC gr  black 1 1 1 c
 gsave  2268 1415 0 0 C 700.1 802.833 t 0 r /Helvetica-Bold findfont 7.60979 sf 0 0 m (\2550.03) show NC gr  black 1 1 1 c
 gsave  2268 1415 0 0 C 772.393 802.833 t 0 r /Helvetica-Bold findfont 7.60979 sf 0 0 m (0.01) show NC gr  black 1 1 1 c
 gsave  2268 1415 0 0 C 840.881 802.833 t 0 r /Helvetica-Bold findfont 7.60979 sf 0 0 m (0.05) show NC gr  black 1 1 1 c
 gsave  2268 1415 0 0 C 909.37 802.833 t 0 r /Helvetica-Bold findfont 7.60979 sf 0 0 m (0.02) show NC gr  black 1 1 1 c
 gsave  2268 1415 0 0 C 977.858 802.833 t 0 r /Helvetica-Bold findfont 7.60979 sf 0 0 m (0.03) show NC gr  black 1 1 1 c
 gsave  2268 1415 0 0 C 1046.35 802.833 t 0 r /Helvetica-Bold findfont 7.60979 sf 0 0 m (1.00) show NC gr  black 1 1 1 c
 gsave  2268 1415 0 0 C 1111.03 802.833 t 0 r /Helvetica-Bold findfont 7.60979 sf 0 0 m (\2550.02) show NC gr  black 1 1 1 c
 gsave  2268 1415 0 0 C 1179.52 802.833 t 0 r /Helvetica-Bold findfont 7.60979 sf 0 0 m (0.00) show NC gr  black 1 1 1 c
 gsave  2268 1415 0 0 C 1244.2 802.833 t 0 r /Helvetica-Bold findfont 7.60979 sf 0 0 m (\2550.02) show NC gr  black 1 1 1 c
 gsave  2268 1415 0 0 C 1312.69 802.833 t 0 r /Helvetica-Bold findfont 7.60979 sf 0 0 m (\2550.03) show NC gr  black 1 1 1 c
 gsave  2268 1415 0 0 C 1384.98 802.833 t 0 r /Helvetica-Bold findfont 7.60979 sf 0 0 m (0.01) show NC gr  black 1 1 1 c
 gsave  2268 1415 0 0 C 1449.66 802.833 t 0 r /Helvetica-Bold findfont 7.60979 sf 0 0 m (\2550.01) show NC gr  black 1 1 1 c
 gsave  2268 1415 0 0 C 1518.15 802.833 t 0 r /Helvetica-Bold findfont 7.60979 sf 0 0 m (\2550.01) show NC gr  black 1 1 1 c
 gsave  2268 1415 0 0 C 1590.45 802.833 t 0 r /Helvetica-Bold findfont 7.60979 sf 0 0 m (0.05) show NC gr  black 1 1 1 c
 gsave  2268 1415 0 0 C 1658.93 802.833 t 0 r /Helvetica-Bold findfont 7.60979 sf 0 0 m (0.00) show NC gr  black 1 1 1 c
 gsave  2268 1415 0 0 C 1723.62 802.833 t 0 r /Helvetica-Bold findfont 7.60979 sf 0 0 m (0.02) show NC gr  black 1 1 1 c
 gsave  2268 1415 0 0 C 1788.3 802.833 t 0 r /Helvetica-Bold findfont 7.60979 sf 0 0 m (\2550.01) show NC gr  black 1 1 1 c
 gsave  2268 1415 0 0 C 1856.79 802.833 t 0 r /Helvetica-Bold findfont 7.60979 sf 0 0 m (\2550.00) show NC gr  black 1 1 1 c
 gsave  2268 1415 0 0 C 1925.28 802.833 t 0 r /Helvetica-Bold findfont 7.60979 sf 0 0 m (\2550.60) show NC gr  black 1 1 1 c
 gsave  2268 1415 0 0 C 433.758 852.296 t 0 r /Helvetica-Bold findfont 7.60979 sf 0 0 m (0.03) show NC gr  black 1 1 1 c
 gsave  2268 1415 0 0 C 502.246 852.296 t 0 r /Helvetica-Bold findfont 7.60979 sf 0 0 m (0.02) show NC gr  black 1 1 1 c
 gsave  2268 1415 0 0 C 566.929 852.296 t 0 r /Helvetica-Bold findfont 7.60979 sf 0 0 m (0.02) show NC gr  black 1 1 1 c
 gsave  2268 1415 0 0 C 635.417 852.296 t 0 r /Helvetica-Bold findfont 7.60979 sf 0 0 m (0.02) show NC gr  black 1 1 1 c
 gsave  2268 1415 0 0 C 703.905 852.296 t 0 r /Helvetica-Bold findfont 7.60979 sf 0 0 m (0.02) show NC gr  black 1 1 1 c
 gsave  2268 1415 0 0 C 772.393 852.296 t 0 r /Helvetica-Bold findfont 7.60979 sf 0 0 m (0.02) show NC gr  black 1 1 1 c
 gsave  2268 1415 0 0 C 837.077 852.296 t 0 r /Helvetica-Bold findfont 7.60979 sf 0 0 m (\2550.13) show NC gr  black 1 1 1 c
 gsave  2268 1415 0 0 C 905.565 852.296 t 0 r /Helvetica-Bold findfont 7.60979 sf 0 0 m (\2550.05) show NC gr  black 1 1 1 c
 gsave  2268 1415 0 0 C 977.858 852.296 t 0 r /Helvetica-Bold findfont 7.60979 sf 0 0 m (1.00) show NC gr  black 1 1 1 c
 gsave  2268 1415 0 0 C 1046.35 852.296 t 0 r /Helvetica-Bold findfont 7.60979 sf 0 0 m (0.03) show NC gr  black 1 1 1 c
 gsave  2268 1415 0 0 C 1114.83 852.296 t 0 r /Helvetica-Bold findfont 7.60979 sf 0 0 m (0.05) show NC gr  black 1 1 1 c
 gsave  2268 1415 0 0 C 1179.52 852.296 t 0 r /Helvetica-Bold findfont 7.60979 sf 0 0 m (0.01) show NC gr  black 1 1 1 c
 gsave  2268 1415 0 0 C 1248.01 852.296 t 0 r /Helvetica-Bold findfont 7.60979 sf 0 0 m (0.02) show NC gr  black 1 1 1 c
 gsave  2268 1415 0 0 C 1312.69 852.296 t 0 r /Helvetica-Bold findfont 7.60979 sf 0 0 m (\2550.01) show NC gr  black 1 1 1 c
 gsave  2268 1415 0 0 C 1381.18 852.296 t 0 r /Helvetica-Bold findfont 7.60979 sf 0 0 m (\2550.02) show NC gr  black 1 1 1 c
 gsave  2268 1415 0 0 C 1453.47 852.296 t 0 r /Helvetica-Bold findfont 7.60979 sf 0 0 m (0.05) show NC gr  black 1 1 1 c
 gsave  2268 1415 0 0 C 1518.15 852.296 t 0 r /Helvetica-Bold findfont 7.60979 sf 0 0 m (\2550.02) show NC gr  black 1 1 1 c
 gsave  2268 1415 0 0 C 1586.64 852.296 t 0 r /Helvetica-Bold findfont 7.60979 sf 0 0 m (\2550.02) show NC gr  black 1 1 1 c
 gsave  2268 1415 0 0 C 1655.13 852.296 t 0 r /Helvetica-Bold findfont 7.60979 sf 0 0 m (\2550.00) show NC gr  black 1 1 1 c
 gsave  2268 1415 0 0 C 1719.81 852.296 t 0 r /Helvetica-Bold findfont 7.60979 sf 0 0 m (\2550.03) show NC gr  black 1 1 1 c
 gsave  2268 1415 0 0 C 1788.3 852.296 t 0 r /Helvetica-Bold findfont 7.60979 sf 0 0 m (\2550.06) show NC gr  black 1 1 1 c
 gsave  2268 1415 0 0 C 1856.79 852.296 t 0 r /Helvetica-Bold findfont 7.60979 sf 0 0 m (\2550.00) show NC gr  black 1 1 1 c
 gsave  2268 1415 0 0 C 1925.28 852.296 t 0 r /Helvetica-Bold findfont 7.60979 sf 0 0 m (\2550.08) show NC gr  black 1 1 1 c
 gsave  2268 1415 0 0 C 433.758 901.76 t 0 r /Helvetica-Bold findfont 7.60979 sf 0 0 m (0.05) show NC gr  black 1 1 1 c
 gsave  2268 1415 0 0 C 502.246 901.76 t 0 r /Helvetica-Bold findfont 7.60979 sf 0 0 m (0.05) show NC gr  black 1 1 1 c
 gsave  2268 1415 0 0 C 566.929 901.76 t 0 r /Helvetica-Bold findfont 7.60979 sf 0 0 m (0.07) show NC gr  black 1 1 1 c
 gsave  2268 1415 0 0 C 635.417 901.76 t 0 r /Helvetica-Bold findfont 7.60979 sf 0 0 m (0.02) show NC gr  black 1 1 1 c
 gsave  2268 1415 0 0 C 703.905 901.76 t 0 r /Helvetica-Bold findfont 7.60979 sf 0 0 m (0.10) show NC gr  black 1 1 1 c
 gsave  2268 1415 0 0 C 772.393 901.76 t 0 r /Helvetica-Bold findfont 7.60979 sf 0 0 m (0.02) show NC gr  black 1 1 1 c
 gsave  2268 1415 0 0 C 837.077 901.76 t 0 r /Helvetica-Bold findfont 7.60979 sf 0 0 m (\2550.34) show NC gr  black 1 1 1 c
 gsave  2268 1415 0 0 C 909.37 901.76 t 0 r /Helvetica-Bold findfont 7.60979 sf 0 0 m (1.00) show NC gr  black 1 1 1 c
 gsave  2268 1415 0 0 C 974.053 901.76 t 0 r /Helvetica-Bold findfont 7.60979 sf 0 0 m (\2550.05) show NC gr  black 1 1 1 c
 gsave  2268 1415 0 0 C 1046.35 901.76 t 0 r /Helvetica-Bold findfont 7.60979 sf 0 0 m (0.02) show NC gr  black 1 1 1 c
 gsave  2268 1415 0 0 C 1114.83 901.76 t 0 r /Helvetica-Bold findfont 7.60979 sf 0 0 m (0.04) show NC gr  black 1 1 1 c
 gsave  2268 1415 0 0 C 1179.52 901.76 t 0 r /Helvetica-Bold findfont 7.60979 sf 0 0 m (0.03) show NC gr  black 1 1 1 c
 gsave  2268 1415 0 0 C 1248.01 901.76 t 0 r /Helvetica-Bold findfont 7.60979 sf 0 0 m (0.02) show NC gr  black 1 1 1 c
 gsave  2268 1415 0 0 C 1312.69 901.76 t 0 r /Helvetica-Bold findfont 7.60979 sf 0 0 m (\2550.05) show NC gr  black 1 1 1 c
 gsave  2268 1415 0 0 C 1384.98 901.76 t 0 r /Helvetica-Bold findfont 7.60979 sf 0 0 m (0.07) show NC gr  black 1 1 1 c
 gsave  2268 1415 0 0 C 1453.47 901.76 t 0 r /Helvetica-Bold findfont 7.60979 sf 0 0 m (0.01) show NC gr  black 1 1 1 c
 gsave  2268 1415 0 0 C 1518.15 901.76 t 0 r /Helvetica-Bold findfont 7.60979 sf 0 0 m (\2550.10) show NC gr  black 1 1 1 c
 gsave  2268 1415 0 0 C 1586.64 901.76 t 0 r /Helvetica-Bold findfont 7.60979 sf 0 0 m (\2550.02) show NC gr  black 1 1 1 c
 gsave  2268 1415 0 0 C 1655.13 901.76 t 0 r /Helvetica-Bold findfont 7.60979 sf 0 0 m (\2550.01) show NC gr  black 1 1 1 c
 gsave  2268 1415 0 0 C 1719.81 901.76 t 0 r /Helvetica-Bold findfont 7.60979 sf 0 0 m (\2550.05) show NC gr  black 1 1 1 c
 gsave  2268 1415 0 0 C 1788.3 901.76 t 0 r /Helvetica-Bold findfont 7.60979 sf 0 0 m (\2550.01) show NC gr  black 1 1 1 c
 gsave  2268 1415 0 0 C 1856.79 901.76 t 0 r /Helvetica-Bold findfont 7.60979 sf 0 0 m (\2550.03) show NC gr  black 1 1 1 c
 gsave  2268 1415 0 0 C 1925.28 901.76 t 0 r /Helvetica-Bold findfont 7.60979 sf 0 0 m (\2550.06) show NC gr  black 1 1 1 c
 gsave  2268 1415 0 0 C 433.758 951.223 t 0 r /Helvetica-Bold findfont 7.60979 sf 0 0 m (0.01) show NC gr  black 1 1 1 c
 gsave  2268 1415 0 0 C 502.246 951.223 t 0 r /Helvetica-Bold findfont 7.60979 sf 0 0 m (0.14) show NC gr  black 1 1 1 c
 gsave  2268 1415 0 0 C 566.929 951.223 t 0 r /Helvetica-Bold findfont 7.60979 sf 0 0 m (0.15) show NC gr  black 1 1 1 c
 gsave  2268 1415 0 0 C 631.612 951.223 t 0 r /Helvetica-Bold findfont 7.60979 sf 0 0 m (\2550.02) show NC gr  black 1 1 1 c
 gsave  2268 1415 0 0 C 703.905 951.223 t 0 r /Helvetica-Bold findfont 7.60979 sf 0 0 m (0.16) show NC gr  black 1 1 1 c
 gsave  2268 1415 0 0 C 772.393 951.223 t 0 r /Helvetica-Bold findfont 7.60979 sf 0 0 m (0.16) show NC gr  black 1 1 1 c
 gsave  2268 1415 0 0 C 840.881 951.223 t 0 r /Helvetica-Bold findfont 7.60979 sf 0 0 m (1.00) show NC gr  black 1 1 1 c
 gsave  2268 1415 0 0 C 905.565 951.223 t 0 r /Helvetica-Bold findfont 7.60979 sf 0 0 m (\2550.34) show NC gr  black 1 1 1 c
 gsave  2268 1415 0 0 C 974.053 951.223 t 0 r /Helvetica-Bold findfont 7.60979 sf 0 0 m (\2550.13) show NC gr  black 1 1 1 c
 gsave  2268 1415 0 0 C 1046.35 951.223 t 0 r /Helvetica-Bold findfont 7.60979 sf 0 0 m (0.05) show NC gr  black 1 1 1 c
 gsave  2268 1415 0 0 C 1114.83 951.223 t 0 r /Helvetica-Bold findfont 7.60979 sf 0 0 m (0.15) show NC gr  black 1 1 1 c
 gsave  2268 1415 0 0 C 1179.52 951.223 t 0 r /Helvetica-Bold findfont 7.60979 sf 0 0 m (0.03) show NC gr  black 1 1 1 c
 gsave  2268 1415 0 0 C 1248.01 951.223 t 0 r /Helvetica-Bold findfont 7.60979 sf 0 0 m (0.14) show NC gr  black 1 1 1 c
 gsave  2268 1415 0 0 C 1312.69 951.223 t 0 r /Helvetica-Bold findfont 7.60979 sf 0 0 m (\2550.13) show NC gr  black 1 1 1 c
 gsave  2268 1415 0 0 C 1381.18 951.223 t 0 r /Helvetica-Bold findfont 7.60979 sf 0 0 m (\2550.11) show NC gr  black 1 1 1 c
 gsave  2268 1415 0 0 C 1449.66 951.223 t 0 r /Helvetica-Bold findfont 7.60979 sf 0 0 m (\2550.18) show NC gr  black 1 1 1 c
 gsave  2268 1415 0 0 C 1521.96 951.223 t 0 r /Helvetica-Bold findfont 7.60979 sf 0 0 m (0.06) show NC gr  black 1 1 1 c
 gsave  2268 1415 0 0 C 1586.64 951.223 t 0 r /Helvetica-Bold findfont 7.60979 sf 0 0 m (\2550.07) show NC gr  black 1 1 1 c
 gsave  2268 1415 0 0 C 1655.13 951.223 t 0 r /Helvetica-Bold findfont 7.60979 sf 0 0 m (\2550.11) show NC gr  black 1 1 1 c
 gsave  2268 1415 0 0 C 1719.81 951.223 t 0 r /Helvetica-Bold findfont 7.60979 sf 0 0 m (\2550.01) show NC gr  black 1 1 1 c
 gsave  2268 1415 0 0 C 1788.3 951.223 t 0 r /Helvetica-Bold findfont 7.60979 sf 0 0 m (\2550.04) show NC gr  black 1 1 1 c
 gsave  2268 1415 0 0 C 1856.79 951.223 t 0 r /Helvetica-Bold findfont 7.60979 sf 0 0 m (\2550.08) show NC gr  black 1 1 1 c
 gsave  2268 1415 0 0 C 1925.28 951.223 t 0 r /Helvetica-Bold findfont 7.60979 sf 0 0 m (\2550.26) show NC gr  black 1 1 1 c
 gsave  2268 1415 0 0 C 433.758 1000.69 t 0 r /Helvetica-Bold findfont 7.60979 sf 0 0 m (0.09) show NC gr  black 1 1 1 c
 gsave  2268 1415 0 0 C 502.246 1000.69 t 0 r /Helvetica-Bold findfont 7.60979 sf 0 0 m (0.05) show NC gr  black 1 1 1 c
 gsave  2268 1415 0 0 C 566.929 1000.69 t 0 r /Helvetica-Bold findfont 7.60979 sf 0 0 m (0.08) show NC gr  black 1 1 1 c
 gsave  2268 1415 0 0 C 635.417 1000.69 t 0 r /Helvetica-Bold findfont 7.60979 sf 0 0 m (0.02) show NC gr  black 1 1 1 c
 gsave  2268 1415 0 0 C 703.905 1000.69 t 0 r /Helvetica-Bold findfont 7.60979 sf 0 0 m (0.09) show NC gr  black 1 1 1 c
 gsave  2268 1415 0 0 C 772.393 1000.69 t 0 r /Helvetica-Bold findfont 7.60979 sf 0 0 m (1.00) show NC gr  black 1 1 1 c
 gsave  2268 1415 0 0 C 840.881 1000.69 t 0 r /Helvetica-Bold findfont 7.60979 sf 0 0 m (0.16) show NC gr  black 1 1 1 c
 gsave  2268 1415 0 0 C 909.37 1000.69 t 0 r /Helvetica-Bold findfont 7.60979 sf 0 0 m (0.02) show NC gr  black 1 1 1 c
 gsave  2268 1415 0 0 C 977.858 1000.69 t 0 r /Helvetica-Bold findfont 7.60979 sf 0 0 m (0.02) show NC gr  black 1 1 1 c
 gsave  2268 1415 0 0 C 1046.35 1000.69 t 0 r /Helvetica-Bold findfont 7.60979 sf 0 0 m (0.01) show NC gr  black 1 1 1 c
 gsave  2268 1415 0 0 C 1111.03 1000.69 t 0 r /Helvetica-Bold findfont 7.60979 sf 0 0 m (\2550.02) show NC gr  black 1 1 1 c
 gsave  2268 1415 0 0 C 1179.52 1000.69 t 0 r /Helvetica-Bold findfont 7.60979 sf 0 0 m (0.01) show NC gr  black 1 1 1 c
 gsave  2268 1415 0 0 C 1248.01 1000.69 t 0 r /Helvetica-Bold findfont 7.60979 sf 0 0 m (0.00) show NC gr  black 1 1 1 c
 gsave  2268 1415 0 0 C 1316.49 1000.69 t 0 r /Helvetica-Bold findfont 7.60979 sf 0 0 m (0.03) show NC gr  black 1 1 1 c
 gsave  2268 1415 0 0 C 1384.98 1000.69 t 0 r /Helvetica-Bold findfont 7.60979 sf 0 0 m (0.05) show NC gr  black 1 1 1 c
 gsave  2268 1415 0 0 C 1449.66 1000.69 t 0 r /Helvetica-Bold findfont 7.60979 sf 0 0 m (\2550.07) show NC gr  black 1 1 1 c
 gsave  2268 1415 0 0 C 1518.15 1000.69 t 0 r /Helvetica-Bold findfont 7.60979 sf 0 0 m (\2550.00) show NC gr  black 1 1 1 c
 gsave  2268 1415 0 0 C 1590.45 1000.69 t 0 r /Helvetica-Bold findfont 7.60979 sf 0 0 m (0.12) show NC gr  black 1 1 1 c
 gsave  2268 1415 0 0 C 1655.13 1000.69 t 0 r /Helvetica-Bold findfont 7.60979 sf 0 0 m (\2550.01) show NC gr  black 1 1 1 c
 gsave  2268 1415 0 0 C 1723.62 1000.69 t 0 r /Helvetica-Bold findfont 7.60979 sf 0 0 m (0.04) show NC gr  black 1 1 1 c
 gsave  2268 1415 0 0 C 1788.3 1000.69 t 0 r /Helvetica-Bold findfont 7.60979 sf 0 0 m (\2550.04) show NC gr  black 1 1 1 c
 gsave  2268 1415 0 0 C 1860.59 1000.69 t 0 r /Helvetica-Bold findfont 7.60979 sf 0 0 m (0.01) show NC gr  black 1 1 1 c
 gsave  2268 1415 0 0 C 1925.28 1000.69 t 0 r /Helvetica-Bold findfont 7.60979 sf 0 0 m (\2550.00) show NC gr  black 1 1 1 c
 gsave  2268 1415 0 0 C 429.953 1050.15 t 0 r /Helvetica-Bold findfont 7.60979 sf 0 0 m (\2550.07) show NC gr  black 1 1 1 c
 gsave  2268 1415 0 0 C 498.441 1050.15 t 0 r /Helvetica-Bold findfont 7.60979 sf 0 0 m (\2550.06) show NC gr  black 1 1 1 c
 gsave  2268 1415 0 0 C 563.124 1050.15 t 0 r /Helvetica-Bold findfont 7.60979 sf 0 0 m (\2550.08) show NC gr  black 1 1 1 c
 gsave  2268 1415 0 0 C 635.417 1050.15 t 0 r /Helvetica-Bold findfont 7.60979 sf 0 0 m (0.00) show NC gr  black 1 1 1 c
 gsave  2268 1415 0 0 C 703.905 1050.15 t 0 r /Helvetica-Bold findfont 7.60979 sf 0 0 m (1.00) show NC gr  black 1 1 1 c
 gsave  2268 1415 0 0 C 772.393 1050.15 t 0 r /Helvetica-Bold findfont 7.60979 sf 0 0 m (0.09) show NC gr  black 1 1 1 c
 gsave  2268 1415 0 0 C 840.881 1050.15 t 0 r /Helvetica-Bold findfont 7.60979 sf 0 0 m (0.16) show NC gr  black 1 1 1 c
 gsave  2268 1415 0 0 C 909.37 1050.15 t 0 r /Helvetica-Bold findfont 7.60979 sf 0 0 m (0.10) show NC gr  black 1 1 1 c
 gsave  2268 1415 0 0 C 977.858 1050.15 t 0 r /Helvetica-Bold findfont 7.60979 sf 0 0 m (0.02) show NC gr  black 1 1 1 c
 gsave  2268 1415 0 0 C 1042.54 1050.15 t 0 r /Helvetica-Bold findfont 7.60979 sf 0 0 m (\2550.03) show NC gr  black 1 1 1 c
 gsave  2268 1415 0 0 C 1111.03 1050.15 t 0 r /Helvetica-Bold findfont 7.60979 sf 0 0 m (\2550.03) show NC gr  black 1 1 1 c
 gsave  2268 1415 0 0 C 1175.71 1050.15 t 0 r /Helvetica-Bold findfont 7.60979 sf 0 0 m (\2550.01) show NC gr  black 1 1 1 c
 gsave  2268 1415 0 0 C 1244.2 1050.15 t 0 r /Helvetica-Bold findfont 7.60979 sf 0 0 m (\2550.02) show NC gr  black 1 1 1 c
 gsave  2268 1415 0 0 C 1312.69 1050.15 t 0 r /Helvetica-Bold findfont 7.60979 sf 0 0 m (\2550.01) show NC gr  black 1 1 1 c
 gsave  2268 1415 0 0 C 1381.18 1050.15 t 0 r /Helvetica-Bold findfont 7.60979 sf 0 0 m (\2550.05) show NC gr  black 1 1 1 c
 gsave  2268 1415 0 0 C 1453.47 1050.15 t 0 r /Helvetica-Bold findfont 7.60979 sf 0 0 m (0.01) show NC gr  black 1 1 1 c
 gsave  2268 1415 0 0 C 1521.96 1050.15 t 0 r /Helvetica-Bold findfont 7.60979 sf 0 0 m (0.05) show NC gr  black 1 1 1 c
 gsave  2268 1415 0 0 C 1586.64 1050.15 t 0 r /Helvetica-Bold findfont 7.60979 sf 0 0 m (\2550.04) show NC gr  black 1 1 1 c
 gsave  2268 1415 0 0 C 1658.93 1050.15 t 0 r /Helvetica-Bold findfont 7.60979 sf 0 0 m (0.04) show NC gr  black 1 1 1 c
 gsave  2268 1415 0 0 C 1723.62 1050.15 t 0 r /Helvetica-Bold findfont 7.60979 sf 0 0 m (0.00) show NC gr  black 1 1 1 c
 gsave  2268 1415 0 0 C 1788.3 1050.15 t 0 r /Helvetica-Bold findfont 7.60979 sf 0 0 m (\2550.01) show NC gr  black 1 1 1 c
 gsave  2268 1415 0 0 C 1860.59 1050.15 t 0 r /Helvetica-Bold findfont 7.60979 sf 0 0 m (0.01) show NC gr  black 1 1 1 c
 gsave  2268 1415 0 0 C 1929.08 1050.15 t 0 r /Helvetica-Bold findfont 7.60979 sf 0 0 m (0.06) show NC gr  black 1 1 1 c
 gsave  2268 1415 0 0 C 433.758 1099.61 t 0 r /Helvetica-Bold findfont 7.60979 sf 0 0 m (0.01) show NC gr  black 1 1 1 c
 gsave  2268 1415 0 0 C 498.441 1099.61 t 0 r /Helvetica-Bold findfont 7.60979 sf 0 0 m (\2550.02) show NC gr  black 1 1 1 c
 gsave  2268 1415 0 0 C 566.929 1099.61 t 0 r /Helvetica-Bold findfont 7.60979 sf 0 0 m (0.00) show NC gr  black 1 1 1 c
 gsave  2268 1415 0 0 C 635.417 1099.61 t 0 r /Helvetica-Bold findfont 7.60979 sf 0 0 m (1.00) show NC gr  black 1 1 1 c
 gsave  2268 1415 0 0 C 703.905 1099.61 t 0 r /Helvetica-Bold findfont 7.60979 sf 0 0 m (0.00) show NC gr  black 1 1 1 c
 gsave  2268 1415 0 0 C 772.393 1099.61 t 0 r /Helvetica-Bold findfont 7.60979 sf 0 0 m (0.02) show NC gr  black 1 1 1 c
 gsave  2268 1415 0 0 C 837.077 1099.61 t 0 r /Helvetica-Bold findfont 7.60979 sf 0 0 m (\2550.02) show NC gr  black 1 1 1 c
 gsave  2268 1415 0 0 C 909.37 1099.61 t 0 r /Helvetica-Bold findfont 7.60979 sf 0 0 m (0.02) show NC gr  black 1 1 1 c
 gsave  2268 1415 0 0 C 977.858 1099.61 t 0 r /Helvetica-Bold findfont 7.60979 sf 0 0 m (0.02) show NC gr  black 1 1 1 c
 gsave  2268 1415 0 0 C 1042.54 1099.61 t 0 r /Helvetica-Bold findfont 7.60979 sf 0 0 m (\2550.01) show NC gr  black 1 1 1 c
 gsave  2268 1415 0 0 C 1111.03 1099.61 t 0 r /Helvetica-Bold findfont 7.60979 sf 0 0 m (\2550.02) show NC gr  black 1 1 1 c
 gsave  2268 1415 0 0 C 1175.71 1099.61 t 0 r /Helvetica-Bold findfont 7.60979 sf 0 0 m (\2550.02) show NC gr  black 1 1 1 c
 gsave  2268 1415 0 0 C 1244.2 1099.61 t 0 r /Helvetica-Bold findfont 7.60979 sf 0 0 m (\2550.02) show NC gr  black 1 1 1 c
 gsave  2268 1415 0 0 C 1312.69 1099.61 t 0 r /Helvetica-Bold findfont 7.60979 sf 0 0 m (\2550.05) show NC gr  black 1 1 1 c
 gsave  2268 1415 0 0 C 1384.98 1099.61 t 0 r /Helvetica-Bold findfont 7.60979 sf 0 0 m (0.03) show NC gr  black 1 1 1 c
 gsave  2268 1415 0 0 C 1453.47 1099.61 t 0 r /Helvetica-Bold findfont 7.60979 sf 0 0 m (0.02) show NC gr  black 1 1 1 c
 gsave  2268 1415 0 0 C 1521.96 1099.61 t 0 r /Helvetica-Bold findfont 7.60979 sf 0 0 m (0.01) show NC gr  black 1 1 1 c
 gsave  2268 1415 0 0 C 1586.64 1099.61 t 0 r /Helvetica-Bold findfont 7.60979 sf 0 0 m (\2550.02) show NC gr  black 1 1 1 c
 gsave  2268 1415 0 0 C 1655.13 1099.61 t 0 r /Helvetica-Bold findfont 7.60979 sf 0 0 m (\2550.11) show NC gr  black 1 1 1 c
 gsave  2268 1415 0 0 C 1723.62 1099.61 t 0 r /Helvetica-Bold findfont 7.60979 sf 0 0 m (0.10) show NC gr  black 1 1 1 c
 gsave  2268 1415 0 0 C 1792.1 1099.61 t 0 r /Helvetica-Bold findfont 7.60979 sf 0 0 m (0.02) show NC gr  black 1 1 1 c
 gsave  2268 1415 0 0 C 1860.59 1099.61 t 0 r /Helvetica-Bold findfont 7.60979 sf 0 0 m (0.00) show NC gr  black 1 1 1 c
 gsave  2268 1415 0 0 C 1929.08 1099.61 t 0 r /Helvetica-Bold findfont 7.60979 sf 0 0 m (0.04) show NC gr  black 1 1 1 c
 gsave  2268 1415 0 0 C 429.953 1149.08 t 0 r /Helvetica-Bold findfont 7.60979 sf 0 0 m (\2550.05) show NC gr  black 1 1 1 c
 gsave  2268 1415 0 0 C 498.441 1149.08 t 0 r /Helvetica-Bold findfont 7.60979 sf 0 0 m (\2550.05) show NC gr  black 1 1 1 c
 gsave  2268 1415 0 0 C 566.929 1149.08 t 0 r /Helvetica-Bold findfont 7.60979 sf 0 0 m (1.00) show NC gr  black 1 1 1 c
 gsave  2268 1415 0 0 C 635.417 1149.08 t 0 r /Helvetica-Bold findfont 7.60979 sf 0 0 m (0.00) show NC gr  black 1 1 1 c
 gsave  2268 1415 0 0 C 700.1 1149.08 t 0 r /Helvetica-Bold findfont 7.60979 sf 0 0 m (\2550.08) show NC gr  black 1 1 1 c
 gsave  2268 1415 0 0 C 772.393 1149.08 t 0 r /Helvetica-Bold findfont 7.60979 sf 0 0 m (0.08) show NC gr  black 1 1 1 c
 gsave  2268 1415 0 0 C 840.881 1149.08 t 0 r /Helvetica-Bold findfont 7.60979 sf 0 0 m (0.15) show NC gr  black 1 1 1 c
 gsave  2268 1415 0 0 C 909.37 1149.08 t 0 r /Helvetica-Bold findfont 7.60979 sf 0 0 m (0.07) show NC gr  black 1 1 1 c
 gsave  2268 1415 0 0 C 977.858 1149.08 t 0 r /Helvetica-Bold findfont 7.60979 sf 0 0 m (0.02) show NC gr  black 1 1 1 c
 gsave  2268 1415 0 0 C 1042.54 1149.08 t 0 r /Helvetica-Bold findfont 7.60979 sf 0 0 m (\2550.02) show NC gr  black 1 1 1 c
 gsave  2268 1415 0 0 C 1111.03 1149.08 t 0 r /Helvetica-Bold findfont 7.60979 sf 0 0 m (\2550.02) show NC gr  black 1 1 1 c
 gsave  2268 1415 0 0 C 1175.71 1149.08 t 0 r /Helvetica-Bold findfont 7.60979 sf 0 0 m (\2550.01) show NC gr  black 1 1 1 c
 gsave  2268 1415 0 0 C 1244.2 1149.08 t 0 r /Helvetica-Bold findfont 7.60979 sf 0 0 m (\2550.02) show NC gr  black 1 1 1 c
 gsave  2268 1415 0 0 C 1316.49 1149.08 t 0 r /Helvetica-Bold findfont 7.60979 sf 0 0 m (0.02) show NC gr  black 1 1 1 c
 gsave  2268 1415 0 0 C 1381.18 1149.08 t 0 r /Helvetica-Bold findfont 7.60979 sf 0 0 m (\2550.03) show NC gr  black 1 1 1 c
 gsave  2268 1415 0 0 C 1453.47 1149.08 t 0 r /Helvetica-Bold findfont 7.60979 sf 0 0 m (0.01) show NC gr  black 1 1 1 c
 gsave  2268 1415 0 0 C 1521.96 1149.08 t 0 r /Helvetica-Bold findfont 7.60979 sf 0 0 m (0.04) show NC gr  black 1 1 1 c
 gsave  2268 1415 0 0 C 1586.64 1149.08 t 0 r /Helvetica-Bold findfont 7.60979 sf 0 0 m (\2550.05) show NC gr  black 1 1 1 c
 gsave  2268 1415 0 0 C 1658.93 1149.08 t 0 r /Helvetica-Bold findfont 7.60979 sf 0 0 m (0.04) show NC gr  black 1 1 1 c
 gsave  2268 1415 0 0 C 1723.62 1149.08 t 0 r /Helvetica-Bold findfont 7.60979 sf 0 0 m (0.02) show NC gr  black 1 1 1 c
 gsave  2268 1415 0 0 C 1792.1 1149.08 t 0 r /Helvetica-Bold findfont 7.60979 sf 0 0 m (0.02) show NC gr  black 1 1 1 c
 gsave  2268 1415 0 0 C 1860.59 1149.08 t 0 r /Helvetica-Bold findfont 7.60979 sf 0 0 m (0.01) show NC gr  black 1 1 1 c
 gsave  2268 1415 0 0 C 1929.08 1149.08 t 0 r /Helvetica-Bold findfont 7.60979 sf 0 0 m (0.04) show NC gr  black 1 1 1 c
 gsave  2268 1415 0 0 C 429.953 1198.54 t 0 r /Helvetica-Bold findfont 7.60979 sf 0 0 m (\2550.03) show NC gr  black 1 1 1 c
 gsave  2268 1415 0 0 C 502.246 1198.54 t 0 r /Helvetica-Bold findfont 7.60979 sf 0 0 m (1.00) show NC gr  black 1 1 1 c
 gsave  2268 1415 0 0 C 563.124 1198.54 t 0 r /Helvetica-Bold findfont 7.60979 sf 0 0 m (\2550.05) show NC gr  black 1 1 1 c
 gsave  2268 1415 0 0 C 631.612 1198.54 t 0 r /Helvetica-Bold findfont 7.60979 sf 0 0 m (\2550.02) show NC gr  black 1 1 1 c
 gsave  2268 1415 0 0 C 700.1 1198.54 t 0 r /Helvetica-Bold findfont 7.60979 sf 0 0 m (\2550.06) show NC gr  black 1 1 1 c
 gsave  2268 1415 0 0 C 772.393 1198.54 t 0 r /Helvetica-Bold findfont 7.60979 sf 0 0 m (0.05) show NC gr  black 1 1 1 c
 gsave  2268 1415 0 0 C 840.881 1198.54 t 0 r /Helvetica-Bold findfont 7.60979 sf 0 0 m (0.14) show NC gr  black 1 1 1 c
 gsave  2268 1415 0 0 C 909.37 1198.54 t 0 r /Helvetica-Bold findfont 7.60979 sf 0 0 m (0.05) show NC gr  black 1 1 1 c
 gsave  2268 1415 0 0 C 977.858 1198.54 t 0 r /Helvetica-Bold findfont 7.60979 sf 0 0 m (0.02) show NC gr  black 1 1 1 c
 gsave  2268 1415 0 0 C 1042.54 1198.54 t 0 r /Helvetica-Bold findfont 7.60979 sf 0 0 m (\2550.01) show NC gr  black 1 1 1 c
 gsave  2268 1415 0 0 C 1111.03 1198.54 t 0 r /Helvetica-Bold findfont 7.60979 sf 0 0 m (\2550.01) show NC gr  black 1 1 1 c
 gsave  2268 1415 0 0 C 1175.71 1198.54 t 0 r /Helvetica-Bold findfont 7.60979 sf 0 0 m (\2550.00) show NC gr  black 1 1 1 c
 gsave  2268 1415 0 0 C 1244.2 1198.54 t 0 r /Helvetica-Bold findfont 7.60979 sf 0 0 m (\2550.01) show NC gr  black 1 1 1 c
 gsave  2268 1415 0 0 C 1316.49 1198.54 t 0 r /Helvetica-Bold findfont 7.60979 sf 0 0 m (0.01) show NC gr  black 1 1 1 c
 gsave  2268 1415 0 0 C 1381.18 1198.54 t 0 r /Helvetica-Bold findfont 7.60979 sf 0 0 m (\2550.01) show NC gr  black 1 1 1 c
 gsave  2268 1415 0 0 C 1453.47 1198.54 t 0 r /Helvetica-Bold findfont 7.60979 sf 0 0 m (0.00) show NC gr  black 1 1 1 c
 gsave  2268 1415 0 0 C 1518.15 1198.54 t 0 r /Helvetica-Bold findfont 7.60979 sf 0 0 m (\2550.00) show NC gr  black 1 1 1 c
 gsave  2268 1415 0 0 C 1586.64 1198.54 t 0 r /Helvetica-Bold findfont 7.60979 sf 0 0 m (\2550.04) show NC gr  black 1 1 1 c
 gsave  2268 1415 0 0 C 1658.93 1198.54 t 0 r /Helvetica-Bold findfont 7.60979 sf 0 0 m (0.03) show NC gr  black 1 1 1 c
 gsave  2268 1415 0 0 C 1723.62 1198.54 t 0 r /Helvetica-Bold findfont 7.60979 sf 0 0 m (0.05) show NC gr  black 1 1 1 c
 gsave  2268 1415 0 0 C 1792.1 1198.54 t 0 r /Helvetica-Bold findfont 7.60979 sf 0 0 m (0.00) show NC gr  black 1 1 1 c
 gsave  2268 1415 0 0 C 1860.59 1198.54 t 0 r /Helvetica-Bold findfont 7.60979 sf 0 0 m (0.01) show NC gr  black 1 1 1 c
 gsave  2268 1415 0 0 C 1929.08 1198.54 t 0 r /Helvetica-Bold findfont 7.60979 sf 0 0 m (0.02) show NC gr  black 1 1 1 c
 gsave  2268 1415 0 0 C 433.758 1248.01 t 0 r /Helvetica-Bold findfont 7.60979 sf 0 0 m (1.00) show NC gr  black 1 1 1 c
 gsave  2268 1415 0 0 C 498.441 1248.01 t 0 r /Helvetica-Bold findfont 7.60979 sf 0 0 m (\2550.03) show NC gr  black 1 1 1 c
 gsave  2268 1415 0 0 C 563.124 1248.01 t 0 r /Helvetica-Bold findfont 7.60979 sf 0 0 m (\2550.05) show NC gr  black 1 1 1 c
 gsave  2268 1415 0 0 C 635.417 1248.01 t 0 r /Helvetica-Bold findfont 7.60979 sf 0 0 m (0.01) show NC gr  black 1 1 1 c
 gsave  2268 1415 0 0 C 700.1 1248.01 t 0 r /Helvetica-Bold findfont 7.60979 sf 0 0 m (\2550.07) show NC gr  black 1 1 1 c
 gsave  2268 1415 0 0 C 772.393 1248.01 t 0 r /Helvetica-Bold findfont 7.60979 sf 0 0 m (0.09) show NC gr  black 1 1 1 c
 gsave  2268 1415 0 0 C 840.881 1248.01 t 0 r /Helvetica-Bold findfont 7.60979 sf 0 0 m (0.01) show NC gr  black 1 1 1 c
 gsave  2268 1415 0 0 C 909.37 1248.01 t 0 r /Helvetica-Bold findfont 7.60979 sf 0 0 m (0.05) show NC gr  black 1 1 1 c
 gsave  2268 1415 0 0 C 977.858 1248.01 t 0 r /Helvetica-Bold findfont 7.60979 sf 0 0 m (0.03) show NC gr  black 1 1 1 c
 gsave  2268 1415 0 0 C 1042.54 1248.01 t 0 r /Helvetica-Bold findfont 7.60979 sf 0 0 m (\2550.03) show NC gr  black 1 1 1 c
 gsave  2268 1415 0 0 C 1111.03 1248.01 t 0 r /Helvetica-Bold findfont 7.60979 sf 0 0 m (\2550.02) show NC gr  black 1 1 1 c
 gsave  2268 1415 0 0 C 1175.71 1248.01 t 0 r /Helvetica-Bold findfont 7.60979 sf 0 0 m (\2550.01) show NC gr  black 1 1 1 c
 gsave  2268 1415 0 0 C 1244.2 1248.01 t 0 r /Helvetica-Bold findfont 7.60979 sf 0 0 m (\2550.01) show NC gr  black 1 1 1 c
 gsave  2268 1415 0 0 C 1312.69 1248.01 t 0 r /Helvetica-Bold findfont 7.60979 sf 0 0 m (\2550.02) show NC gr  black 1 1 1 c
 gsave  2268 1415 0 0 C 1381.18 1248.01 t 0 r /Helvetica-Bold findfont 7.60979 sf 0 0 m (\2550.06) show NC gr  black 1 1 1 c
 gsave  2268 1415 0 0 C 1449.66 1248.01 t 0 r /Helvetica-Bold findfont 7.60979 sf 0 0 m (\2550.01) show NC gr  black 1 1 1 c
 gsave  2268 1415 0 0 C 1521.96 1248.01 t 0 r /Helvetica-Bold findfont 7.60979 sf 0 0 m (0.00) show NC gr  black 1 1 1 c
 gsave  2268 1415 0 0 C 1586.64 1248.01 t 0 r /Helvetica-Bold findfont 7.60979 sf 0 0 m (\2550.01) show NC gr  black 1 1 1 c
 gsave  2268 1415 0 0 C 1658.93 1248.01 t 0 r /Helvetica-Bold findfont 7.60979 sf 0 0 m (0.04) show NC gr  black 1 1 1 c
 gsave  2268 1415 0 0 C 1719.81 1248.01 t 0 r /Helvetica-Bold findfont 7.60979 sf 0 0 m (\2550.00) show NC gr  black 1 1 1 c
 gsave  2268 1415 0 0 C 1792.1 1248.01 t 0 r /Helvetica-Bold findfont 7.60979 sf 0 0 m (0.10) show NC gr  black 1 1 1 c
 gsave  2268 1415 0 0 C 1856.79 1248.01 t 0 r /Helvetica-Bold findfont 7.60979 sf 0 0 m (\2550.00) show NC gr  black 1 1 1 c
 gsave  2268 1415 0 0 C 1929.08 1248.01 t 0 r /Helvetica-Bold findfont 7.60979 sf 0 0 m (0.04) show NC gr  black
 gsave  2268 1415 0 0 C 905.565 1346.93 t 0 r /Helvetica findfont 64.6832 sf 0 0 m (h_corr_reduced) show NC gr 
 gr  gr showpage
end
%%EOF
