%!PS-Adobe-2.0 EPSF-2.0
%%BoundingBox:  0 0 567 354
%%Title: : c_corrMatrix_RooExpandedFitResult_afterFit
%%Creator: ROOT Version 6.10/06
%%CreationDate: Wed Apr 29 10:43:40 2020
%%DocumentNeededResources: ProcSet (FontSetInit)
%%EndComments
%%BeginProlog
80 dict begin
/s {stroke} def /l {lineto} def /m {moveto} def /t {translate} def
/r {rotate} def /rl {roll}  def /R {repeat} def
/d {rlineto} def /rm {rmoveto} def /gr {grestore} def /f {eofill} def
/c {setrgbcolor} def /black {0 setgray} def /sd {setdash} def
/cl {closepath} def /sf {scalefont setfont} def /lw {setlinewidth} def
/box {m dup 0 exch d exch 0 d 0 exch neg d cl} def
/NC{systemdict begin initclip end}def/C{NC box clip newpath}def
/bl {box s} def /bf {gsave box gsave f grestore 1 lw [] 0 sd s grestore} def /Y { 0 exch d} def /X { 0 d} def 
/K {{pop pop 0 moveto} exch kshow} bind def
/ita {/ang 15 def gsave [1 0 ang dup sin exch cos div 1 0 0] concat} def 
/mp {newpath /y exch def /x exch def} def
/side {[w .77 mul w .23 mul] .385 w mul sd w 0 l currentpoint t -144 r} def
/mr {mp x y w2 0 360 arc} def /m24 {mr s} def /m20 {mr f} def
/mb {mp x y w2 add m w2 neg 0 d 0 w neg d w 0 d 0 w d cl} def
/mt {mp x y w2 add m w2 neg w neg d w 0 d cl} def
/w4 {w 4 div} def
/w6 {w 6 div} def
/w8 {w 8 div} def
/m21 {mb f} def /m25 {mb s} def /m22 {mt f} def /m26{mt s} def
/m23 {mp x y w2 sub m w2 w d w neg 0 d cl f} def
/m27 {mp x y w2 add m w3 neg w2 neg d w3 w2 neg d w3 w2 d cl s} def
/m28 {mp x w2 sub y w2 sub w3 add m w3 0 d  0 w3 neg d w3 0 d 0 w3 d w3 0 d  0 w3 d w3 neg 0 d 0 w3 d w3 neg 0 d 0 w3 neg d w3 neg 0 d cl s } def
/m29 {mp gsave x w2 sub y w2 add w3 sub m currentpoint t 4 {side} repeat cl fill gr} def
/m30 {mp gsave x w2 sub y w2 add w3 sub m currentpoint t 4 {side} repeat cl s gr} def
/m31 {mp x y w2 sub m 0 w d x w2 sub y m w 0 d x w2 sub y w2 add m w w neg d x w2 sub y w2 sub m w w d s} def
/m32 {mp x y w2 sub m w2 w d w neg 0 d cl s} def
/m33 {mp x y w2 add m w3 neg w2 neg d w3 w2 neg d w3 w2 d cl f} def
/m34 {mp x w2 sub y w2 sub w3 add m w3 0 d  0 w3 neg d w3 0 d 0 w3 d w3 0 d  0 w3 d w3 neg 0 d 0 w3 d w3 neg 0 d 0 w3 neg d w3 neg 0 d cl f } def
/m35 {mp x y w2 add m w2 neg w2 neg d w2 w2 neg d w2 w2 d w2 neg w2 d x y w2 sub m 0 w d x w2 sub y m w 0 d s} def
/m36 {mb x w2 sub y w2 add m w w neg d x w2 sub y w2 sub m w w d s} def
/m37 {mp x y m w4 neg w2 d w4 neg w2 neg d w2 0 d  w4 neg w2 neg d w2 0 d w4 neg w2 d w2 0 d w4 neg w2 d w4 neg w2 neg d cl s} def
/m38 {mp x w4 sub y w2 add m w4 neg w4 neg d 0 w2 neg d w4 w4 neg d w2 0 d w4 w4 d 0 w2 d w4 neg w4 d w2 neg 0 d x y w2 sub m 0 w d x w2 sub y m w 0 d cl s} def
/m39 {mp x y m w4 neg w2 d w4 neg w2 neg d w2 0 d  w4 neg w2 neg d w2 0 d w4 neg w2 d w2 0 d w4 neg w2 d w4 neg w2 neg d cl f} def
/m40 {mp x y m w4 w2 d w4 w4 neg d w2 neg w4 neg d w2 w4 neg d w4 neg w4 neg d w4 neg w2 d w4 neg w2 neg d w4 neg w4 d w2 w4 d w2 neg w4 d w4 w4 d w4 w2 neg d cl s} def
/m41 {mp x y m w4 w2 d w4 w4 neg d w2 neg w4 neg d w2 w4 neg d w4 neg w4 neg d w4 neg w2 d w4 neg w2 neg d w4 neg w4 d w2 w4 d w2 neg w4 d w4 w4 d w4 w2 neg d cl f} def
/m42 {mp x y w2 add m w8 neg w2 -3 4 div mul d w2 -3 4 div mul w8 neg d w2 3 4 div mul w8 neg d w8 w2 -3 4 div mul d w8 w2 3 4 div mul d w2 3 4 div mul w8 d w2 -3 4 div mul w8 d w8 neg w2 3 4 div mul d cl s} def
/m43 {mp x y w2 add m w8 neg w2 -3 4 div mul d w2 -3 4 div mul w8 neg d w2 3 4 div mul w8 neg d w8 w2 -3 4 div mul d w8 w2 3 4 div mul d w2 3 4 div mul w8 d w2 -3 4 div mul w8 d w8 neg w2 3 4 div mul d cl f} def
/m44 {mp x y m w6 neg w2 d w2 2 3 div mul 0 d w6 neg w2 neg d w2 w6 d 0 w2 -2 3 div mul d w2 neg w6 d w6 w2 neg d w2 -2 3 div mul 0 d w6 w2 d w2 neg w6 neg d 0 w2 2 3 div mul d w2 w6 neg d cl s} def
/m45 {mp x y m w6 neg w2 d w2 2 3 div mul 0 d w6 neg w2 neg d w2 w6 d 0 w2 -2 3 div mul d w2 neg w6 d w6 w2 neg d w2 -2 3 div mul 0 d w6 w2 d w2 neg w6 neg d 0 w2 2 3 div mul d w2 w6 neg d cl f} def
/m46 {mp x y w4 add m w4 neg w4 d w4 neg w4 neg d  w4 w4 neg d w4 neg w4 neg d w4 w4 neg d w4 w4 d w4 w4 neg d w4 w4 d w4 neg w4 d w4 w4 d w4 neg w4 d w4 neg w4 neg d cl s} def
/m47 {mp x y w4 add m w4 neg w4 d w4 neg w4 neg d w4 w4 neg d w4 neg w4 neg d  w4 w4 neg d w4 w4 d w4 w4 neg d w4 w4 d w4 neg w4 d w4 w4 d w4 neg w4 d w4 neg w4 neg d cl f} def
/m48 {mp x y w4 add m w4 neg w4 d w4 neg w4 neg d w4 w4 neg d  w4 neg w4 neg d w4 w4 neg d w4 w4 d w4 w4 neg d w4 w4 d w4 neg w4 d w4 w4 d w4 neg w4 d w4 neg w4 neg d  w4 w4 neg d w4 neg w4 neg d w4 neg w4 d w4 w4 d cl f} def
/m49 {mp x w2 sub w3 add y w2 sub w3 add m  0 w3 neg d w3 0 d 0 w3 d w3 0 d 0 w3 d w3 neg 0 d 0 w3 d w3 neg 0 d 0 w3 neg d w3 neg 0 d 0 w3 neg d w3 0 d 0 w3 d w3 0 d 0 w3 neg d w3 neg 0 d cl f } def
/m2 {mp x y w2 sub m 0 w d x w2 sub y m w 0 d s} def
/m5 {mp x w2 sub y w2 sub m w w d x w2 sub y w2 add m w w neg d s} def
%%IncludeResource: ProcSet (FontSetInit)
%%IncludeResource: font Times-Roman
%%IncludeResource: font Times-Italic
%%IncludeResource: font Times-Bold
%%IncludeResource: font Times-BoldItalic
%%IncludeResource: font Helvetica
%%IncludeResource: font Helvetica-Oblique
%%IncludeResource: font Helvetica-Bold
%%IncludeResource: font Helvetica-BoldOblique
%%IncludeResource: font Courier
%%IncludeResource: font Courier-Oblique
%%IncludeResource: font Courier-Bold
%%IncludeResource: font Courier-BoldOblique
%%IncludeResource: font Symbol
%%IncludeResource: font ZapfDingbats
/reEncode {exch findfont dup length dict begin {1 index /FID eq  {pop pop} {def} ifelse } forall /Encoding exch def currentdict end dup /FontName get exch definefont pop } def [/Times-Bold /Times-Italic /Times-BoldItalic /Helvetica /Helvetica-Oblique
 /Helvetica-Bold /Helvetica-BoldOblique /Courier /Courier-Oblique /Courier-Bold /Courier-BoldOblique /Times-Roman /AvantGarde-Book /AvantGarde-BookOblique /AvantGarde-Demi /AvantGarde-DemiOblique /Bookman-Demi /Bookman-DemiItalic /Bookman-Light
 /Bookman-LightItalic /Helvetica-Narrow /Helvetica-Narrow-Bold /Helvetica-Narrow-BoldOblique /Helvetica-Narrow-Oblique /NewCenturySchlbk-Roman /NewCenturySchlbk-Bold /NewCenturySchlbk-BoldItalic /NewCenturySchlbk-Italic /Palatino-Bold
 /Palatino-BoldItalic /Palatino-Italic /Palatino-Roman ] {ISOLatin1Encoding reEncode } forall
%%EndProlog
%%BeginSetup
%%EndSetup
newpath  gsave  .25 .25 scale  gsave  0 0 t black[  ] 0 sd 3 lw 1 1 1 c 2268 1415 0 0 bf black 1 1 1 c 1565 1132 408 142 bf black 1565 1132 408 142 bl 1 1 1 c 1565 1132 408 142 bf black 1565 1132 408 142 bl 1 1 1 c 0.0718137 0.0335784 0.320588 c 131
 94 408 142 bf 0.0829657 0.0893382 0.352451 c 130 94 539 142 bf 130 94 669 142 bf 0.0718137 0.0335784 0.320588 c 131 94 799 142 bf 0.0509804 0 0.231373 c 130 94 930 142 bf 0.0637255 0.00637255 0.291912 c 131 94 1060 142 bf 130 94 1191 142 bf
 0.0136622 0 0.131056 c 130 94 1321 142 bf 131 94 1451 142 bf 0.0446078 0 0.204289 c 130 94 1582 142 bf 0.0718137 0.0335784 0.320588 c 131 94 1712 142 bf 0.113235 0.859191 0.862132 c 130 94 1843 142 bf 0.0718137 0.0335784 0.320588 c 131 94 408 236 bf
 130 94 539 236 bf 130 94 669 236 bf 131 94 799 236 bf 0.0637255 0.00637255 0.291912 c 130 94 930 236 bf 0.0718137 0.0335784 0.320588 c 131 94 1060 236 bf 0.0829657 0.0893382 0.352451 c 130 94 1191 236 bf 0.0718137 0.0335784 0.320588 c 130 94 1321
 236 bf 131 94 1451 236 bf 130 94 1582 236 bf 0.113235 0.859191 0.862132 c 131 94 1712 236 bf 0.0718137 0.0335784 0.320588 c 130 94 1843 236 bf 131 95 408 330 bf 130 95 539 330 bf 130 95 669 330 bf 131 95 799 330 bf 0.0829657 0.0893382 0.352451 c 130
 95 930 330 bf 0.0718137 0.0335784 0.320588 c 131 95 1060 330 bf 130 95 1191 330 bf 130 95 1321 330 bf 131 95 1451 330 bf 0.113235 0.859191 0.862132 c 130 95 1582 330 bf 0.0718137 0.0335784 0.320588 c 131 95 1712 330 bf 0.0446078 0 0.204289 c 130 95
 1843 330 bf 0.0718137 0.0335784 0.320588 c 131 94 408 425 bf 130 94 539 425 bf 130 94 669 425 bf 131 94 799 425 bf 0.0941176 0.145098 0.384314 c 130 94 930 425 bf 0.0829657 0.0893382 0.352451 c 131 94 1060 425 bf 130 94 1191 425 bf 0.0718137
 0.0335784 0.320588 c 130 94 1321 425 bf 0.113235 0.859191 0.862132 c 131 94 1451 425 bf 0.0718137 0.0335784 0.320588 c 130 94 1582 425 bf 131 94 1712 425 bf 0.0136622 0 0.131056 c 130 94 1843 425 bf 0.0718137 0.0335784 0.320588 c 131 94 408 519 bf
 130 94 539 519 bf 130 94 669 519 bf 131 94 799 519 bf 0.0829657 0.0893382 0.352451 c 130 94 930 519 bf 0.0718137 0.0335784 0.320588 c 131 94 1060 519 bf 0.0829657 0.0893382 0.352451 c 130 94 1191 519 bf 0.113235 0.859191 0.862132 c 130 94 1321 519
 bf 0.0718137 0.0335784 0.320588 c 131 94 1451 519 bf 130 94 1582 519 bf 131 94 1712 519 bf 0.0136622 0 0.131056 c 130 94 1843 519 bf 0.0718137 0.0335784 0.320588 c 131 95 408 613 bf 130 95 539 613 bf 130 95 669 613 bf 131 95 799 613 bf 0.0573529
 0.00318627 0.261642 c 130 95 930 613 bf 0.0637255 0.00637255 0.291912 c 131 95 1060 613 bf 0.113235 0.859191 0.862132 c 130 95 1191 613 bf 0.0829657 0.0893382 0.352451 c 130 95 1321 613 bf 131 95 1451 613 bf 0.0718137 0.0335784 0.320588 c 130 95
 1582 613 bf 0.0829657 0.0893382 0.352451 c 131 95 1712 613 bf 0.0637255 0.00637255 0.291912 c 130 95 1843 613 bf 0.0829657 0.0893382 0.352451 c 131 94 408 708 bf 130 94 539 708 bf 130 94 669 708 bf 0.0718137 0.0335784 0.320588 c 131 94 799 708 bf
 0.0446078 0 0.204289 c 130 94 930 708 bf 0.113235 0.859191 0.862132 c 131 94 1060 708 bf 0.0637255 0.00637255 0.291912 c 130 94 1191 708 bf 0.0718137 0.0335784 0.320588 c 130 94 1321 708 bf 0.0829657 0.0893382 0.352451 c 131 94 1451 708 bf 0.0718137
 0.0335784 0.320588 c 130 94 1582 708 bf 131 94 1712 708 bf 0.0637255 0.00637255 0.291912 c 130 94 1843 708 bf 0.0941176 0.145098 0.384314 c 131 94 408 802 bf 130 94 539 802 bf 130 94 669 802 bf 131 94 799 802 bf 0.113235 0.859191 0.862132 c 130 94
 930 802 bf 0.0446078 0 0.204289 c 131 94 1060 802 bf 0.0573529 0.00318627 0.261642 c 130 94 1191 802 bf 0.0829657 0.0893382 0.352451 c 130 94 1321 802 bf 0.0941176 0.145098 0.384314 c 131 94 1451 802 bf 0.0829657 0.0893382 0.352451 c 130 94 1582 802
 bf 0.0637255 0.00637255 0.291912 c 131 94 1712 802 bf 0.0509804 0 0.231373 c 130 94 1843 802 bf 0.0829657 0.0893382 0.352451 c 131 95 408 896 bf 130 95 539 896 bf 130 95 669 896 bf 0.113235 0.859191 0.862132 c 131 95 799 896 bf 0.0941176 0.145098
 0.384314 c 130 95 930 896 bf 0.0718137 0.0335784 0.320588 c 131 95 1060 896 bf 130 95 1191 896 bf 130 95 1321 896 bf 131 95 1451 896 bf 130 95 1582 896 bf 131 95 1712 896 bf 130 95 1843 896 bf 0.0637255 0.00637255 0.291912 c 131 94 408 991 bf 130 94
 539 991 bf 0.113235 0.859191 0.862132 c 130 94 669 991 bf 0.0829657 0.0893382 0.352451 c 131 94 799 991 bf 0.0941176 0.145098 0.384314 c 130 94 930 991 bf 0.0829657 0.0893382 0.352451 c 131 94 1060 991 bf 0.0718137 0.0335784 0.320588 c 130 94 1191
 991 bf 130 94 1321 991 bf 131 94 1451 991 bf 130 94 1582 991 bf 131 94 1712 991 bf 0.0829657 0.0893382 0.352451 c 130 94 1843 991 bf 0.0637255 0.00637255 0.291912 c 131 95 408 1085 bf 0.113235 0.859191 0.862132 c 130 95 539 1085 bf 0.0637255
 0.00637255 0.291912 c 130 95 669 1085 bf 0.0829657 0.0893382 0.352451 c 131 95 799 1085 bf 0.0941176 0.145098 0.384314 c 130 95 930 1085 bf 0.0829657 0.0893382 0.352451 c 131 95 1060 1085 bf 0.0718137 0.0335784 0.320588 c 130 95 1191 1085 bf 130 95
 1321 1085 bf 131 95 1451 1085 bf 130 95 1582 1085 bf 131 95 1712 1085 bf 0.0829657 0.0893382 0.352451 c 130 95 1843 1085 bf 0.113235 0.859191 0.862132 c 131 94 408 1180 bf 0.0637255 0.00637255 0.291912 c 130 94 539 1180 bf 130 94 669 1180 bf
 0.0829657 0.0893382 0.352451 c 131 94 799 1180 bf 0.0941176 0.145098 0.384314 c 130 94 930 1180 bf 0.0829657 0.0893382 0.352451 c 131 94 1060 1180 bf 0.0718137 0.0335784 0.320588 c 130 94 1191 1180 bf 130 94 1321 1180 bf 131 94 1451 1180 bf 130 94
 1582 1180 bf 131 94 1712 1180 bf 130 94 1843 1180 bf 0.0136622 0 0.131056 c 102 56 1984 142 bf 0.028463 0 0.15408 c 102 57 1984 198 bf 0.0387255 0 0.179289 c 102 56 1984 255 bf 0.0446078 0 0.204289 c 102 57 1984 311 bf 0.0509804 0 0.231373 c 102 57
 1984 368 bf 0.0573529 0.00318627 0.261642 c 102 56 1984 425 bf 0.0637255 0.00637255 0.291912 c 102 57 1984 481 bf 0.0718137 0.0335784 0.320588 c 102 56 1984 538 bf 0.0829657 0.0893382 0.352451 c 102 57 1984 594 bf 0.0941176 0.145098 0.384314 c 102
 57 1984 651 bf 0.106863 0.204044 0.433701 c 102 56 1984 708 bf 0.118627 0.258456 0.479289 c 102 57 1984 764 bf 0.121814 0.318873 0.524265 c 102 57 1984 821 bf 0.113848 0.381005 0.564093 c 102 56 1984 878 bf 0.105882 0.443137 0.603922 c 102 57 1984
 934 bf 0.102941 0.512255 0.648039 c 102 56 1984 991 bf 0.0997549 0.587132 0.695833 c 102 57 1984 1047 bf 0.10098 0.672304 0.748775 c 102 57 1984 1104 bf 0.107353 0.769485 0.807721 c 102 56 1984 1161 bf 0.113235 0.859191 0.862132 c 102 57 1984 1217
 bf black 2086 142 m 1132 Y s 2032 150 m 54 X s 2032 291 m 54 X s 2032 431 m 54 X s 2032 572 m 54 X s 2032 712 m 54 X s 2032 853 m 54 X s 2032 993 m 54 X s 2032 1133 m 54 X s 2032 1274 m 54 X s 2032 150 m 54 X s
 gsave  2268 1415 0 0 C 2119.33 133.171 t 0 r /Helvetica findfont 45.6587 sf 0 0 m (0.6) show NC gr 
 gsave  2268 1415 0 0 C 2096.5 133.171 t 0 r /Symbol findfont 45.6587 sf 0 0 m (-) show NC gr 
 gsave  2268 1415 0 0 C 2119.33 273.952 t 0 r /Helvetica findfont 45.6587 sf 0 0 m (0.4) show NC gr 
 gsave  2268 1415 0 0 C 2096.5 273.952 t 0 r /Symbol findfont 45.6587 sf 0 0 m (-) show NC gr 
 gsave  2268 1415 0 0 C 2119.33 414.733 t 0 r /Helvetica findfont 45.6587 sf 0 0 m (0.2) show NC gr 
 gsave  2268 1415 0 0 C 2096.5 414.733 t 0 r /Symbol findfont 45.6587 sf 0 0 m (-) show NC gr 
 gsave  2268 1415 0 0 C 2096.5 555.514 t 0 r /Helvetica findfont 45.6587 sf 0 0 m (0) show NC gr 
 gsave  2268 1415 0 0 C 2096.5 696.295 t 0 r /Helvetica findfont 45.6587 sf 0 0 m (0.2) show NC gr 
 gsave  2268 1415 0 0 C 2096.5 837.077 t 0 r /Helvetica findfont 45.6587 sf 0 0 m (0.4) show NC gr 
 gsave  2268 1415 0 0 C 2096.5 974.053 t 0 r /Helvetica findfont 45.6587 sf 0 0 m (0.6) show NC gr 
 gsave  2268 1415 0 0 C 2096.5 1114.83 t 0 r /Helvetica findfont 45.6587 sf 0 0 m (0.8) show NC gr 
 gsave  2268 1415 0 0 C 2096.5 1255.61 t 0 r /Helvetica findfont 45.6587 sf 0 0 m (1) show NC gr  1 1 1 c black 408 142 m 1565 X s
 gsave  2268 1415 0 0 C 479.417 -133.171 t 90 r /Helvetica findfont 22.8294 sf 0 0 m (alpha_JER_EffectiveNP2) show NC gr 
 gsave  2268 1415 0 0 C 608.783 -133.171 t 90 r /Helvetica findfont 22.8294 sf 0 0 m (alpha_JER_EffectiveNP3) show NC gr 
 gsave  2268 1415 0 0 C 738.149 -129.366 t 90 r /Helvetica findfont 22.8294 sf 0 0 m (alpha_JES_GroupedNP1) show NC gr 
 gsave  2268 1415 0 0 C 871.321 -133.171 t 90 r /Helvetica findfont 22.8294 sf 0 0 m (alpha_JES_GroupedNP2) show NC gr 
 gsave  2268 1415 0 0 C 1000.69 -148.391 t 90 r /Helvetica findfont 22.8294 sf 0 0 m (alpha_ttbar_Fragmentation) show NC gr 
 gsave  2268 1415 0 0 C 1130.05 -125.561 t 90 r /Helvetica findfont 22.8294 sf 0 0 m (alpha_ttbar_HardScatter) show NC gr 
 gsave  2268 1415 0 0 C 1263.22 -98.9272 t 90 r /Helvetica findfont 22.8294 sf 0 0 m (alpha_ttbar_Radiation) show NC gr 
 gsave  2268 1415 0 0 C 1392.59 -95.1223 t 90 r /Helvetica findfont 22.8294 sf 0 0 m (alpha_xsec_singletop) show NC gr 
 gsave  2268 1415 0 0 C 1521.96 -30.4391 t 90 r /Helvetica findfont 22.8294 sf 0 0 m (alpha_xsec_ttV) show NC gr 
 gsave  2268 1415 0 0 C 1651.32 -57.0734 t 90 r /Helvetica findfont 22.8294 sf 0 0 m (alpha_xsec_wjets) show NC gr 
 gsave  2268 1415 0 0 C 1784.5 -201.659 t 90 r /Helvetica findfont 22.8294 sf 0 0 m (gamma_stat_bWN3_cuts_bin_0) show NC gr 
 gsave  2268 1415 0 0 C 1913.86 34.244 t 90 r /Helvetica findfont 22.8294 sf 0 0 m (mu_ttbar) show NC gr  408 171 m -29 Y s 539 171 m -29 Y s 669 171 m -29 Y s 799 171 m -29 Y s 930 171 m -29 Y s 1060 171 m -29 Y s 1191 171 m -29 Y s 1321 171 m -29 Y
 s 1451 171 m -29 Y s 1582 171 m -29 Y s 1712 171 m -29 Y s 1843 171 m -29 Y s 1973 171 m -29 Y s 408 142 m 1132 Y s
 gsave  2268 1415 0 0 C 292.977 182.635 t 0 r /Helvetica findfont 22.8294 sf 0 0 m (mu_ttbar) show NC gr 
 gsave  2268 1415 0 0 C 57.0734 277.757 t 0 r /Helvetica findfont 22.8294 sf 0 0 m (gamma_stat_bWN3_cuts_bin_0) show NC gr 
 gsave  2268 1415 0 0 C 201.659 372.88 t 0 r /Helvetica findfont 22.8294 sf 0 0 m (alpha_xsec_wjets) show NC gr 
 gsave  2268 1415 0 0 C 228.294 464.197 t 0 r /Helvetica findfont 22.8294 sf 0 0 m (alpha_xsec_ttV) show NC gr 
 gsave  2268 1415 0 0 C 163.61 559.319 t 0 r /Helvetica findfont 22.8294 sf 0 0 m (alpha_xsec_singletop) show NC gr 
 gsave  2268 1415 0 0 C 159.806 654.442 t 0 r /Helvetica findfont 22.8294 sf 0 0 m (alpha_ttbar_Radiation) show NC gr 
 gsave  2268 1415 0 0 C 133.171 749.564 t 0 r /Helvetica findfont 22.8294 sf 0 0 m (alpha_ttbar_HardScatter) show NC gr 
 gsave  2268 1415 0 0 C 110.342 844.686 t 0 r /Helvetica findfont 22.8294 sf 0 0 m (alpha_ttbar_Fragmentation) show NC gr 
 gsave  2268 1415 0 0 C 125.561 936.004 t 0 r /Helvetica findfont 22.8294 sf 0 0 m (alpha_JES_GroupedNP2) show NC gr 
 gsave  2268 1415 0 0 C 129.366 1031.13 t 0 r /Helvetica findfont 22.8294 sf 0 0 m (alpha_JES_GroupedNP1) show NC gr 
 gsave  2268 1415 0 0 C 125.561 1126.25 t 0 r /Helvetica findfont 22.8294 sf 0 0 m (alpha_JER_EffectiveNP3) show NC gr 
 gsave  2268 1415 0 0 C 125.561 1221.37 t 0 r /Helvetica findfont 22.8294 sf 0 0 m (alpha_JER_EffectiveNP2) show NC gr  463 142 m -55 X s 463 236 m -55 X s 463 330 m -55 X s 463 425 m -55 X s 463 519 m -55 X s 463 613 m -55 X s 463 708 m -55 X s 463
 802 m -55 X s 463 896 m -55 X s 463 991 m -55 X s 463 1085 m -55 X s 463 1180 m -55 X s 463 1274 m -55 X s 1 1 1 c black 1 1 1 c
 gsave  2268 1415 0 0 C 464.197 186.44 t 0 r /Helvetica-Bold findfont 7.60979 sf 0 0 m (0.02) show NC gr  black 1 1 1 c
 gsave  2268 1415 0 0 C 593.563 186.44 t 0 r /Helvetica-Bold findfont 7.60979 sf 0 0 m (0.04) show NC gr  black 1 1 1 c
 gsave  2268 1415 0 0 C 722.93 186.44 t 0 r /Helvetica-Bold findfont 7.60979 sf 0 0 m (0.06) show NC gr  black 1 1 1 c
 gsave  2268 1415 0 0 C 856.101 186.44 t 0 r /Helvetica-Bold findfont 7.60979 sf 0 0 m (0.00) show NC gr  black 1 1 1 c
 gsave  2268 1415 0 0 C 981.663 186.44 t 0 r /Helvetica-Bold findfont 7.60979 sf 0 0 m (\2550.26) show NC gr  black 1 1 1 c
 gsave  2268 1415 0 0 C 1111.03 186.44 t 0 r /Helvetica-Bold findfont 7.60979 sf 0 0 m (\2550.06) show NC gr  black 1 1 1 c
 gsave  2268 1415 0 0 C 1244.2 186.44 t 0 r /Helvetica-Bold findfont 7.60979 sf 0 0 m (\2550.08) show NC gr  black 1 1 1 c
 gsave  2268 1415 0 0 C 1373.57 186.44 t 0 r /Helvetica-Bold findfont 7.60979 sf 0 0 m (\2550.61) show NC gr  black 1 1 1 c
 gsave  2268 1415 0 0 C 1502.93 186.44 t 0 r /Helvetica-Bold findfont 7.60979 sf 0 0 m (\2550.60) show NC gr  black 1 1 1 c
 gsave  2268 1415 0 0 C 1632.3 186.44 t 0 r /Helvetica-Bold findfont 7.60979 sf 0 0 m (\2550.35) show NC gr  black 1 1 1 c
 gsave  2268 1415 0 0 C 1765.47 186.44 t 0 r /Helvetica-Bold findfont 7.60979 sf 0 0 m (\2550.00) show NC gr  black 1 1 1 c
 gsave  2268 1415 0 0 C 1898.64 186.44 t 0 r /Helvetica-Bold findfont 7.60979 sf 0 0 m (1.00) show NC gr  black 1 1 1 c
 gsave  2268 1415 0 0 C 460.392 281.562 t 0 r /Helvetica-Bold findfont 7.60979 sf 0 0 m (\2550.00) show NC gr  black 1 1 1 c
 gsave  2268 1415 0 0 C 593.563 281.562 t 0 r /Helvetica-Bold findfont 7.60979 sf 0 0 m (0.00) show NC gr  black 1 1 1 c
 gsave  2268 1415 0 0 C 722.93 281.562 t 0 r /Helvetica-Bold findfont 7.60979 sf 0 0 m (0.01) show NC gr  black 1 1 1 c
 gsave  2268 1415 0 0 C 852.296 281.562 t 0 r /Helvetica-Bold findfont 7.60979 sf 0 0 m (\2550.05) show NC gr  black 1 1 1 c
 gsave  2268 1415 0 0 C 981.663 281.562 t 0 r /Helvetica-Bold findfont 7.60979 sf 0 0 m (\2550.13) show NC gr  black 1 1 1 c
 gsave  2268 1415 0 0 C 1114.83 281.562 t 0 r /Helvetica-Bold findfont 7.60979 sf 0 0 m (0.01) show NC gr  black 1 1 1 c
 gsave  2268 1415 0 0 C 1248.01 281.562 t 0 r /Helvetica-Bold findfont 7.60979 sf 0 0 m (0.03) show NC gr  black 1 1 1 c
 gsave  2268 1415 0 0 C 1373.57 281.562 t 0 r /Helvetica-Bold findfont 7.60979 sf 0 0 m (\2550.01) show NC gr  black 1 1 1 c
 gsave  2268 1415 0 0 C 1502.93 281.562 t 0 r /Helvetica-Bold findfont 7.60979 sf 0 0 m (\2550.01) show NC gr  black 1 1 1 c
 gsave  2268 1415 0 0 C 1636.1 281.562 t 0 r /Helvetica-Bold findfont 7.60979 sf 0 0 m (0.02) show NC gr  black 1 1 1 c
 gsave  2268 1415 0 0 C 1769.28 281.562 t 0 r /Helvetica-Bold findfont 7.60979 sf 0 0 m (1.00) show NC gr  black 1 1 1 c
 gsave  2268 1415 0 0 C 1894.84 281.562 t 0 r /Helvetica-Bold findfont 7.60979 sf 0 0 m (\2550.00) show NC gr  black 1 1 1 c
 gsave  2268 1415 0 0 C 460.392 376.684 t 0 r /Helvetica-Bold findfont 7.60979 sf 0 0 m (\2550.00) show NC gr  black 1 1 1 c
 gsave  2268 1415 0 0 C 589.758 376.684 t 0 r /Helvetica-Bold findfont 7.60979 sf 0 0 m (\2550.01) show NC gr  black 1 1 1 c
 gsave  2268 1415 0 0 C 719.125 376.684 t 0 r /Helvetica-Bold findfont 7.60979 sf 0 0 m (\2550.01) show NC gr  black 1 1 1 c
 gsave  2268 1415 0 0 C 856.101 376.684 t 0 r /Helvetica-Bold findfont 7.60979 sf 0 0 m (0.01) show NC gr  black 1 1 1 c
 gsave  2268 1415 0 0 C 985.467 376.684 t 0 r /Helvetica-Bold findfont 7.60979 sf 0 0 m (0.03) show NC gr  black 1 1 1 c
 gsave  2268 1415 0 0 C 1114.83 376.684 t 0 r /Helvetica-Bold findfont 7.60979 sf 0 0 m (0.03) show NC gr  black 1 1 1 c
 gsave  2268 1415 0 0 C 1248.01 376.684 t 0 r /Helvetica-Bold findfont 7.60979 sf 0 0 m (0.01) show NC gr  black 1 1 1 c
 gsave  2268 1415 0 0 C 1377.37 376.684 t 0 r /Helvetica-Bold findfont 7.60979 sf 0 0 m (0.00) show NC gr  black 1 1 1 c
 gsave  2268 1415 0 0 C 1502.93 376.684 t 0 r /Helvetica-Bold findfont 7.60979 sf 0 0 m (\2550.00) show NC gr  black 1 1 1 c
 gsave  2268 1415 0 0 C 1636.1 376.684 t 0 r /Helvetica-Bold findfont 7.60979 sf 0 0 m (1.00) show NC gr  black 1 1 1 c
 gsave  2268 1415 0 0 C 1769.28 376.684 t 0 r /Helvetica-Bold findfont 7.60979 sf 0 0 m (0.02) show NC gr  black 1 1 1 c
 gsave  2268 1415 0 0 C 1894.84 376.684 t 0 r /Helvetica-Bold findfont 7.60979 sf 0 0 m (\2550.35) show NC gr  black 1 1 1 c
 gsave  2268 1415 0 0 C 460.392 468.002 t 0 r /Helvetica-Bold findfont 7.60979 sf 0 0 m (\2550.01) show NC gr  black 1 1 1 c
 gsave  2268 1415 0 0 C 589.758 468.002 t 0 r /Helvetica-Bold findfont 7.60979 sf 0 0 m (\2550.02) show NC gr  black 1 1 1 c
 gsave  2268 1415 0 0 C 719.125 468.002 t 0 r /Helvetica-Bold findfont 7.60979 sf 0 0 m (\2550.03) show NC gr  black 1 1 1 c
 gsave  2268 1415 0 0 C 852.296 468.002 t 0 r /Helvetica-Bold findfont 7.60979 sf 0 0 m (\2550.02) show NC gr  black 1 1 1 c
 gsave  2268 1415 0 0 C 985.467 468.002 t 0 r /Helvetica-Bold findfont 7.60979 sf 0 0 m (0.16) show NC gr  black 1 1 1 c
 gsave  2268 1415 0 0 C 1114.83 468.002 t 0 r /Helvetica-Bold findfont 7.60979 sf 0 0 m (0.04) show NC gr  black 1 1 1 c
 gsave  2268 1415 0 0 C 1248.01 468.002 t 0 r /Helvetica-Bold findfont 7.60979 sf 0 0 m (0.05) show NC gr  black 1 1 1 c
 gsave  2268 1415 0 0 C 1373.57 468.002 t 0 r /Helvetica-Bold findfont 7.60979 sf 0 0 m (\2550.02) show NC gr  black 1 1 1 c
 gsave  2268 1415 0 0 C 1506.74 468.002 t 0 r /Helvetica-Bold findfont 7.60979 sf 0 0 m (1.00) show NC gr  black 1 1 1 c
 gsave  2268 1415 0 0 C 1632.3 468.002 t 0 r /Helvetica-Bold findfont 7.60979 sf 0 0 m (\2550.00) show NC gr  black 1 1 1 c
 gsave  2268 1415 0 0 C 1765.47 468.002 t 0 r /Helvetica-Bold findfont 7.60979 sf 0 0 m (\2550.01) show NC gr  black 1 1 1 c
 gsave  2268 1415 0 0 C 1894.84 468.002 t 0 r /Helvetica-Bold findfont 7.60979 sf 0 0 m (\2550.60) show NC gr  black 1 1 1 c
 gsave  2268 1415 0 0 C 460.392 563.124 t 0 r /Helvetica-Bold findfont 7.60979 sf 0 0 m (\2550.01) show NC gr  black 1 1 1 c
 gsave  2268 1415 0 0 C 589.758 563.124 t 0 r /Helvetica-Bold findfont 7.60979 sf 0 0 m (\2550.02) show NC gr  black 1 1 1 c
 gsave  2268 1415 0 0 C 719.125 563.124 t 0 r /Helvetica-Bold findfont 7.60979 sf 0 0 m (\2550.03) show NC gr  black 1 1 1 c
 gsave  2268 1415 0 0 C 856.101 563.124 t 0 r /Helvetica-Bold findfont 7.60979 sf 0 0 m (0.01) show NC gr  black 1 1 1 c
 gsave  2268 1415 0 0 C 985.467 563.124 t 0 r /Helvetica-Bold findfont 7.60979 sf 0 0 m (0.05) show NC gr  black 1 1 1 c
 gsave  2268 1415 0 0 C 1114.83 563.124 t 0 r /Helvetica-Bold findfont 7.60979 sf 0 0 m (0.02) show NC gr  black 1 1 1 c
 gsave  2268 1415 0 0 C 1248.01 563.124 t 0 r /Helvetica-Bold findfont 7.60979 sf 0 0 m (0.04) show NC gr  black 1 1 1 c
 gsave  2268 1415 0 0 C 1377.37 563.124 t 0 r /Helvetica-Bold findfont 7.60979 sf 0 0 m (1.00) show NC gr  black 1 1 1 c
 gsave  2268 1415 0 0 C 1502.93 563.124 t 0 r /Helvetica-Bold findfont 7.60979 sf 0 0 m (\2550.02) show NC gr  black 1 1 1 c
 gsave  2268 1415 0 0 C 1636.1 563.124 t 0 r /Helvetica-Bold findfont 7.60979 sf 0 0 m (0.00) show NC gr  black 1 1 1 c
 gsave  2268 1415 0 0 C 1765.47 563.124 t 0 r /Helvetica-Bold findfont 7.60979 sf 0 0 m (\2550.01) show NC gr  black 1 1 1 c
 gsave  2268 1415 0 0 C 1894.84 563.124 t 0 r /Helvetica-Bold findfont 7.60979 sf 0 0 m (\2550.61) show NC gr  black 1 1 1 c
 gsave  2268 1415 0 0 C 464.197 658.247 t 0 r /Helvetica-Bold findfont 7.60979 sf 0 0 m (0.02) show NC gr  black 1 1 1 c
 gsave  2268 1415 0 0 C 593.563 658.247 t 0 r /Helvetica-Bold findfont 7.60979 sf 0 0 m (0.02) show NC gr  black 1 1 1 c
 gsave  2268 1415 0 0 C 722.93 658.247 t 0 r /Helvetica-Bold findfont 7.60979 sf 0 0 m (0.02) show NC gr  black 1 1 1 c
 gsave  2268 1415 0 0 C 856.101 658.247 t 0 r /Helvetica-Bold findfont 7.60979 sf 0 0 m (0.02) show NC gr  black 1 1 1 c
 gsave  2268 1415 0 0 C 981.663 658.247 t 0 r /Helvetica-Bold findfont 7.60979 sf 0 0 m (\2550.14) show NC gr  black 1 1 1 c
 gsave  2268 1415 0 0 C 1111.03 658.247 t 0 r /Helvetica-Bold findfont 7.60979 sf 0 0 m (\2550.05) show NC gr  black 1 1 1 c
 gsave  2268 1415 0 0 C 1248.01 658.247 t 0 r /Helvetica-Bold findfont 7.60979 sf 0 0 m (1.00) show NC gr  black 1 1 1 c
 gsave  2268 1415 0 0 C 1377.37 658.247 t 0 r /Helvetica-Bold findfont 7.60979 sf 0 0 m (0.04) show NC gr  black 1 1 1 c
 gsave  2268 1415 0 0 C 1506.74 658.247 t 0 r /Helvetica-Bold findfont 7.60979 sf 0 0 m (0.05) show NC gr  black 1 1 1 c
 gsave  2268 1415 0 0 C 1636.1 658.247 t 0 r /Helvetica-Bold findfont 7.60979 sf 0 0 m (0.01) show NC gr  black 1 1 1 c
 gsave  2268 1415 0 0 C 1769.28 658.247 t 0 r /Helvetica-Bold findfont 7.60979 sf 0 0 m (0.03) show NC gr  black 1 1 1 c
 gsave  2268 1415 0 0 C 1894.84 658.247 t 0 r /Helvetica-Bold findfont 7.60979 sf 0 0 m (\2550.08) show NC gr  black 1 1 1 c
 gsave  2268 1415 0 0 C 464.197 753.369 t 0 r /Helvetica-Bold findfont 7.60979 sf 0 0 m (0.05) show NC gr  black 1 1 1 c
 gsave  2268 1415 0 0 C 593.563 753.369 t 0 r /Helvetica-Bold findfont 7.60979 sf 0 0 m (0.08) show NC gr  black 1 1 1 c
 gsave  2268 1415 0 0 C 722.93 753.369 t 0 r /Helvetica-Bold findfont 7.60979 sf 0 0 m (0.10) show NC gr  black 1 1 1 c
 gsave  2268 1415 0 0 C 856.101 753.369 t 0 r /Helvetica-Bold findfont 7.60979 sf 0 0 m (0.02) show NC gr  black 1 1 1 c
 gsave  2268 1415 0 0 C 981.663 753.369 t 0 r /Helvetica-Bold findfont 7.60979 sf 0 0 m (\2550.36) show NC gr  black 1 1 1 c
 gsave  2268 1415 0 0 C 1114.83 753.369 t 0 r /Helvetica-Bold findfont 7.60979 sf 0 0 m (1.00) show NC gr  black 1 1 1 c
 gsave  2268 1415 0 0 C 1244.2 753.369 t 0 r /Helvetica-Bold findfont 7.60979 sf 0 0 m (\2550.05) show NC gr  black 1 1 1 c
 gsave  2268 1415 0 0 C 1377.37 753.369 t 0 r /Helvetica-Bold findfont 7.60979 sf 0 0 m (0.02) show NC gr  black 1 1 1 c
 gsave  2268 1415 0 0 C 1506.74 753.369 t 0 r /Helvetica-Bold findfont 7.60979 sf 0 0 m (0.04) show NC gr  black 1 1 1 c
 gsave  2268 1415 0 0 C 1636.1 753.369 t 0 r /Helvetica-Bold findfont 7.60979 sf 0 0 m (0.03) show NC gr  black 1 1 1 c
 gsave  2268 1415 0 0 C 1769.28 753.369 t 0 r /Helvetica-Bold findfont 7.60979 sf 0 0 m (0.01) show NC gr  black 1 1 1 c
 gsave  2268 1415 0 0 C 1894.84 753.369 t 0 r /Helvetica-Bold findfont 7.60979 sf 0 0 m (\2550.06) show NC gr  black 1 1 1 c
 gsave  2268 1415 0 0 C 464.197 848.491 t 0 r /Helvetica-Bold findfont 7.60979 sf 0 0 m (0.15) show NC gr  black 1 1 1 c
 gsave  2268 1415 0 0 C 593.563 848.491 t 0 r /Helvetica-Bold findfont 7.60979 sf 0 0 m (0.16) show NC gr  black 1 1 1 c
 gsave  2268 1415 0 0 C 722.93 848.491 t 0 r /Helvetica-Bold findfont 7.60979 sf 0 0 m (0.15) show NC gr  black 1 1 1 c
 gsave  2268 1415 0 0 C 856.101 848.491 t 0 r /Helvetica-Bold findfont 7.60979 sf 0 0 m (0.16) show NC gr  black 1 1 1 c
 gsave  2268 1415 0 0 C 985.467 848.491 t 0 r /Helvetica-Bold findfont 7.60979 sf 0 0 m (1.00) show NC gr  black 1 1 1 c
 gsave  2268 1415 0 0 C 1111.03 848.491 t 0 r /Helvetica-Bold findfont 7.60979 sf 0 0 m (\2550.36) show NC gr  black 1 1 1 c
 gsave  2268 1415 0 0 C 1244.2 848.491 t 0 r /Helvetica-Bold findfont 7.60979 sf 0 0 m (\2550.14) show NC gr  black 1 1 1 c
 gsave  2268 1415 0 0 C 1377.37 848.491 t 0 r /Helvetica-Bold findfont 7.60979 sf 0 0 m (0.05) show NC gr  black 1 1 1 c
 gsave  2268 1415 0 0 C 1506.74 848.491 t 0 r /Helvetica-Bold findfont 7.60979 sf 0 0 m (0.16) show NC gr  black 1 1 1 c
 gsave  2268 1415 0 0 C 1636.1 848.491 t 0 r /Helvetica-Bold findfont 7.60979 sf 0 0 m (0.03) show NC gr  black 1 1 1 c
 gsave  2268 1415 0 0 C 1765.47 848.491 t 0 r /Helvetica-Bold findfont 7.60979 sf 0 0 m (\2550.13) show NC gr  black 1 1 1 c
 gsave  2268 1415 0 0 C 1894.84 848.491 t 0 r /Helvetica-Bold findfont 7.60979 sf 0 0 m (\2550.26) show NC gr  black 1 1 1 c
 gsave  2268 1415 0 0 C 464.197 939.809 t 0 r /Helvetica-Bold findfont 7.60979 sf 0 0 m (0.05) show NC gr  black 1 1 1 c
 gsave  2268 1415 0 0 C 593.563 939.809 t 0 r /Helvetica-Bold findfont 7.60979 sf 0 0 m (0.08) show NC gr  black 1 1 1 c
 gsave  2268 1415 0 0 C 722.93 939.809 t 0 r /Helvetica-Bold findfont 7.60979 sf 0 0 m (0.08) show NC gr  black 1 1 1 c
 gsave  2268 1415 0 0 C 856.101 939.809 t 0 r /Helvetica-Bold findfont 7.60979 sf 0 0 m (1.00) show NC gr  black 1 1 1 c
 gsave  2268 1415 0 0 C 985.467 939.809 t 0 r /Helvetica-Bold findfont 7.60979 sf 0 0 m (0.16) show NC gr  black 1 1 1 c
 gsave  2268 1415 0 0 C 1114.83 939.809 t 0 r /Helvetica-Bold findfont 7.60979 sf 0 0 m (0.02) show NC gr  black 1 1 1 c
 gsave  2268 1415 0 0 C 1248.01 939.809 t 0 r /Helvetica-Bold findfont 7.60979 sf 0 0 m (0.02) show NC gr  black 1 1 1 c
 gsave  2268 1415 0 0 C 1377.37 939.809 t 0 r /Helvetica-Bold findfont 7.60979 sf 0 0 m (0.01) show NC gr  black 1 1 1 c
 gsave  2268 1415 0 0 C 1502.93 939.809 t 0 r /Helvetica-Bold findfont 7.60979 sf 0 0 m (\2550.02) show NC gr  black 1 1 1 c
 gsave  2268 1415 0 0 C 1636.1 939.809 t 0 r /Helvetica-Bold findfont 7.60979 sf 0 0 m (0.01) show NC gr  black 1 1 1 c
 gsave  2268 1415 0 0 C 1765.47 939.809 t 0 r /Helvetica-Bold findfont 7.60979 sf 0 0 m (\2550.05) show NC gr  black 1 1 1 c
 gsave  2268 1415 0 0 C 1898.64 939.809 t 0 r /Helvetica-Bold findfont 7.60979 sf 0 0 m (0.00) show NC gr  black 1 1 1 c
 gsave  2268 1415 0 0 C 460.392 1034.93 t 0 r /Helvetica-Bold findfont 7.60979 sf 0 0 m (\2550.06) show NC gr  black 1 1 1 c
 gsave  2268 1415 0 0 C 589.758 1034.93 t 0 r /Helvetica-Bold findfont 7.60979 sf 0 0 m (\2550.08) show NC gr  black 1 1 1 c
 gsave  2268 1415 0 0 C 722.93 1034.93 t 0 r /Helvetica-Bold findfont 7.60979 sf 0 0 m (1.00) show NC gr  black 1 1 1 c
 gsave  2268 1415 0 0 C 856.101 1034.93 t 0 r /Helvetica-Bold findfont 7.60979 sf 0 0 m (0.08) show NC gr  black 1 1 1 c
 gsave  2268 1415 0 0 C 985.467 1034.93 t 0 r /Helvetica-Bold findfont 7.60979 sf 0 0 m (0.15) show NC gr  black 1 1 1 c
 gsave  2268 1415 0 0 C 1114.83 1034.93 t 0 r /Helvetica-Bold findfont 7.60979 sf 0 0 m (0.10) show NC gr  black 1 1 1 c
 gsave  2268 1415 0 0 C 1248.01 1034.93 t 0 r /Helvetica-Bold findfont 7.60979 sf 0 0 m (0.02) show NC gr  black 1 1 1 c
 gsave  2268 1415 0 0 C 1373.57 1034.93 t 0 r /Helvetica-Bold findfont 7.60979 sf 0 0 m (\2550.03) show NC gr  black 1 1 1 c
 gsave  2268 1415 0 0 C 1502.93 1034.93 t 0 r /Helvetica-Bold findfont 7.60979 sf 0 0 m (\2550.03) show NC gr  black 1 1 1 c
 gsave  2268 1415 0 0 C 1632.3 1034.93 t 0 r /Helvetica-Bold findfont 7.60979 sf 0 0 m (\2550.01) show NC gr  black 1 1 1 c
 gsave  2268 1415 0 0 C 1769.28 1034.93 t 0 r /Helvetica-Bold findfont 7.60979 sf 0 0 m (0.01) show NC gr  black 1 1 1 c
 gsave  2268 1415 0 0 C 1898.64 1034.93 t 0 r /Helvetica-Bold findfont 7.60979 sf 0 0 m (0.06) show NC gr  black 1 1 1 c
 gsave  2268 1415 0 0 C 460.392 1130.05 t 0 r /Helvetica-Bold findfont 7.60979 sf 0 0 m (\2550.05) show NC gr  black 1 1 1 c
 gsave  2268 1415 0 0 C 593.563 1130.05 t 0 r /Helvetica-Bold findfont 7.60979 sf 0 0 m (1.00) show NC gr  black 1 1 1 c
 gsave  2268 1415 0 0 C 719.125 1130.05 t 0 r /Helvetica-Bold findfont 7.60979 sf 0 0 m (\2550.08) show NC gr  black 1 1 1 c
 gsave  2268 1415 0 0 C 856.101 1130.05 t 0 r /Helvetica-Bold findfont 7.60979 sf 0 0 m (0.08) show NC gr  black 1 1 1 c
 gsave  2268 1415 0 0 C 985.467 1130.05 t 0 r /Helvetica-Bold findfont 7.60979 sf 0 0 m (0.16) show NC gr  black 1 1 1 c
 gsave  2268 1415 0 0 C 1114.83 1130.05 t 0 r /Helvetica-Bold findfont 7.60979 sf 0 0 m (0.08) show NC gr  black 1 1 1 c
 gsave  2268 1415 0 0 C 1248.01 1130.05 t 0 r /Helvetica-Bold findfont 7.60979 sf 0 0 m (0.02) show NC gr  black 1 1 1 c
 gsave  2268 1415 0 0 C 1373.57 1130.05 t 0 r /Helvetica-Bold findfont 7.60979 sf 0 0 m (\2550.02) show NC gr  black 1 1 1 c
 gsave  2268 1415 0 0 C 1502.93 1130.05 t 0 r /Helvetica-Bold findfont 7.60979 sf 0 0 m (\2550.02) show NC gr  black 1 1 1 c
 gsave  2268 1415 0 0 C 1632.3 1130.05 t 0 r /Helvetica-Bold findfont 7.60979 sf 0 0 m (\2550.01) show NC gr  black 1 1 1 c
 gsave  2268 1415 0 0 C 1769.28 1130.05 t 0 r /Helvetica-Bold findfont 7.60979 sf 0 0 m (0.00) show NC gr  black 1 1 1 c
 gsave  2268 1415 0 0 C 1898.64 1130.05 t 0 r /Helvetica-Bold findfont 7.60979 sf 0 0 m (0.04) show NC gr  black 1 1 1 c
 gsave  2268 1415 0 0 C 464.197 1225.18 t 0 r /Helvetica-Bold findfont 7.60979 sf 0 0 m (1.00) show NC gr  black 1 1 1 c
 gsave  2268 1415 0 0 C 589.758 1225.18 t 0 r /Helvetica-Bold findfont 7.60979 sf 0 0 m (\2550.05) show NC gr  black 1 1 1 c
 gsave  2268 1415 0 0 C 719.125 1225.18 t 0 r /Helvetica-Bold findfont 7.60979 sf 0 0 m (\2550.06) show NC gr  black 1 1 1 c
 gsave  2268 1415 0 0 C 856.101 1225.18 t 0 r /Helvetica-Bold findfont 7.60979 sf 0 0 m (0.05) show NC gr  black 1 1 1 c
 gsave  2268 1415 0 0 C 985.467 1225.18 t 0 r /Helvetica-Bold findfont 7.60979 sf 0 0 m (0.15) show NC gr  black 1 1 1 c
 gsave  2268 1415 0 0 C 1114.83 1225.18 t 0 r /Helvetica-Bold findfont 7.60979 sf 0 0 m (0.05) show NC gr  black 1 1 1 c
 gsave  2268 1415 0 0 C 1248.01 1225.18 t 0 r /Helvetica-Bold findfont 7.60979 sf 0 0 m (0.02) show NC gr  black 1 1 1 c
 gsave  2268 1415 0 0 C 1373.57 1225.18 t 0 r /Helvetica-Bold findfont 7.60979 sf 0 0 m (\2550.01) show NC gr  black 1 1 1 c
 gsave  2268 1415 0 0 C 1502.93 1225.18 t 0 r /Helvetica-Bold findfont 7.60979 sf 0 0 m (\2550.01) show NC gr  black 1 1 1 c
 gsave  2268 1415 0 0 C 1632.3 1225.18 t 0 r /Helvetica-Bold findfont 7.60979 sf 0 0 m (\2550.00) show NC gr  black 1 1 1 c
 gsave  2268 1415 0 0 C 1765.47 1225.18 t 0 r /Helvetica-Bold findfont 7.60979 sf 0 0 m (\2550.00) show NC gr  black 1 1 1 c
 gsave  2268 1415 0 0 C 1898.64 1225.18 t 0 r /Helvetica-Bold findfont 7.60979 sf 0 0 m (0.02) show NC gr  black
 gsave  2268 1415 0 0 C 905.565 1346.93 t 0 r /Helvetica findfont 64.6832 sf 0 0 m (h_corr_reduced) show NC gr 
 gr  gr showpage
end
%%EOF
