%!PS-Adobe-2.0 EPSF-2.0
%%BoundingBox:  0 0 567 354
%%Title: : c_corrMatrix_RooExpandedFitResult_afterFit
%%Creator: ROOT Version 6.10/06
%%CreationDate: Wed Apr 29 10:42:48 2020
%%DocumentNeededResources: ProcSet (FontSetInit)
%%EndComments
%%BeginProlog
80 dict begin
/s {stroke} def /l {lineto} def /m {moveto} def /t {translate} def
/r {rotate} def /rl {roll}  def /R {repeat} def
/d {rlineto} def /rm {rmoveto} def /gr {grestore} def /f {eofill} def
/c {setrgbcolor} def /black {0 setgray} def /sd {setdash} def
/cl {closepath} def /sf {scalefont setfont} def /lw {setlinewidth} def
/box {m dup 0 exch d exch 0 d 0 exch neg d cl} def
/NC{systemdict begin initclip end}def/C{NC box clip newpath}def
/bl {box s} def /bf {gsave box gsave f grestore 1 lw [] 0 sd s grestore} def /Y { 0 exch d} def /X { 0 d} def 
/K {{pop pop 0 moveto} exch kshow} bind def
/ita {/ang 15 def gsave [1 0 ang dup sin exch cos div 1 0 0] concat} def 
/mp {newpath /y exch def /x exch def} def
/side {[w .77 mul w .23 mul] .385 w mul sd w 0 l currentpoint t -144 r} def
/mr {mp x y w2 0 360 arc} def /m24 {mr s} def /m20 {mr f} def
/mb {mp x y w2 add m w2 neg 0 d 0 w neg d w 0 d 0 w d cl} def
/mt {mp x y w2 add m w2 neg w neg d w 0 d cl} def
/w4 {w 4 div} def
/w6 {w 6 div} def
/w8 {w 8 div} def
/m21 {mb f} def /m25 {mb s} def /m22 {mt f} def /m26{mt s} def
/m23 {mp x y w2 sub m w2 w d w neg 0 d cl f} def
/m27 {mp x y w2 add m w3 neg w2 neg d w3 w2 neg d w3 w2 d cl s} def
/m28 {mp x w2 sub y w2 sub w3 add m w3 0 d  0 w3 neg d w3 0 d 0 w3 d w3 0 d  0 w3 d w3 neg 0 d 0 w3 d w3 neg 0 d 0 w3 neg d w3 neg 0 d cl s } def
/m29 {mp gsave x w2 sub y w2 add w3 sub m currentpoint t 4 {side} repeat cl fill gr} def
/m30 {mp gsave x w2 sub y w2 add w3 sub m currentpoint t 4 {side} repeat cl s gr} def
/m31 {mp x y w2 sub m 0 w d x w2 sub y m w 0 d x w2 sub y w2 add m w w neg d x w2 sub y w2 sub m w w d s} def
/m32 {mp x y w2 sub m w2 w d w neg 0 d cl s} def
/m33 {mp x y w2 add m w3 neg w2 neg d w3 w2 neg d w3 w2 d cl f} def
/m34 {mp x w2 sub y w2 sub w3 add m w3 0 d  0 w3 neg d w3 0 d 0 w3 d w3 0 d  0 w3 d w3 neg 0 d 0 w3 d w3 neg 0 d 0 w3 neg d w3 neg 0 d cl f } def
/m35 {mp x y w2 add m w2 neg w2 neg d w2 w2 neg d w2 w2 d w2 neg w2 d x y w2 sub m 0 w d x w2 sub y m w 0 d s} def
/m36 {mb x w2 sub y w2 add m w w neg d x w2 sub y w2 sub m w w d s} def
/m37 {mp x y m w4 neg w2 d w4 neg w2 neg d w2 0 d  w4 neg w2 neg d w2 0 d w4 neg w2 d w2 0 d w4 neg w2 d w4 neg w2 neg d cl s} def
/m38 {mp x w4 sub y w2 add m w4 neg w4 neg d 0 w2 neg d w4 w4 neg d w2 0 d w4 w4 d 0 w2 d w4 neg w4 d w2 neg 0 d x y w2 sub m 0 w d x w2 sub y m w 0 d cl s} def
/m39 {mp x y m w4 neg w2 d w4 neg w2 neg d w2 0 d  w4 neg w2 neg d w2 0 d w4 neg w2 d w2 0 d w4 neg w2 d w4 neg w2 neg d cl f} def
/m40 {mp x y m w4 w2 d w4 w4 neg d w2 neg w4 neg d w2 w4 neg d w4 neg w4 neg d w4 neg w2 d w4 neg w2 neg d w4 neg w4 d w2 w4 d w2 neg w4 d w4 w4 d w4 w2 neg d cl s} def
/m41 {mp x y m w4 w2 d w4 w4 neg d w2 neg w4 neg d w2 w4 neg d w4 neg w4 neg d w4 neg w2 d w4 neg w2 neg d w4 neg w4 d w2 w4 d w2 neg w4 d w4 w4 d w4 w2 neg d cl f} def
/m42 {mp x y w2 add m w8 neg w2 -3 4 div mul d w2 -3 4 div mul w8 neg d w2 3 4 div mul w8 neg d w8 w2 -3 4 div mul d w8 w2 3 4 div mul d w2 3 4 div mul w8 d w2 -3 4 div mul w8 d w8 neg w2 3 4 div mul d cl s} def
/m43 {mp x y w2 add m w8 neg w2 -3 4 div mul d w2 -3 4 div mul w8 neg d w2 3 4 div mul w8 neg d w8 w2 -3 4 div mul d w8 w2 3 4 div mul d w2 3 4 div mul w8 d w2 -3 4 div mul w8 d w8 neg w2 3 4 div mul d cl f} def
/m44 {mp x y m w6 neg w2 d w2 2 3 div mul 0 d w6 neg w2 neg d w2 w6 d 0 w2 -2 3 div mul d w2 neg w6 d w6 w2 neg d w2 -2 3 div mul 0 d w6 w2 d w2 neg w6 neg d 0 w2 2 3 div mul d w2 w6 neg d cl s} def
/m45 {mp x y m w6 neg w2 d w2 2 3 div mul 0 d w6 neg w2 neg d w2 w6 d 0 w2 -2 3 div mul d w2 neg w6 d w6 w2 neg d w2 -2 3 div mul 0 d w6 w2 d w2 neg w6 neg d 0 w2 2 3 div mul d w2 w6 neg d cl f} def
/m46 {mp x y w4 add m w4 neg w4 d w4 neg w4 neg d  w4 w4 neg d w4 neg w4 neg d w4 w4 neg d w4 w4 d w4 w4 neg d w4 w4 d w4 neg w4 d w4 w4 d w4 neg w4 d w4 neg w4 neg d cl s} def
/m47 {mp x y w4 add m w4 neg w4 d w4 neg w4 neg d w4 w4 neg d w4 neg w4 neg d  w4 w4 neg d w4 w4 d w4 w4 neg d w4 w4 d w4 neg w4 d w4 w4 d w4 neg w4 d w4 neg w4 neg d cl f} def
/m48 {mp x y w4 add m w4 neg w4 d w4 neg w4 neg d w4 w4 neg d  w4 neg w4 neg d w4 w4 neg d w4 w4 d w4 w4 neg d w4 w4 d w4 neg w4 d w4 w4 d w4 neg w4 d w4 neg w4 neg d  w4 w4 neg d w4 neg w4 neg d w4 neg w4 d w4 w4 d cl f} def
/m49 {mp x w2 sub w3 add y w2 sub w3 add m  0 w3 neg d w3 0 d 0 w3 d w3 0 d 0 w3 d w3 neg 0 d 0 w3 d w3 neg 0 d 0 w3 neg d w3 neg 0 d 0 w3 neg d w3 0 d 0 w3 d w3 0 d 0 w3 neg d w3 neg 0 d cl f } def
/m2 {mp x y w2 sub m 0 w d x w2 sub y m w 0 d s} def
/m5 {mp x w2 sub y w2 sub m w w d x w2 sub y w2 add m w w neg d s} def
%%IncludeResource: ProcSet (FontSetInit)
%%IncludeResource: font Times-Roman
%%IncludeResource: font Times-Italic
%%IncludeResource: font Times-Bold
%%IncludeResource: font Times-BoldItalic
%%IncludeResource: font Helvetica
%%IncludeResource: font Helvetica-Oblique
%%IncludeResource: font Helvetica-Bold
%%IncludeResource: font Helvetica-BoldOblique
%%IncludeResource: font Courier
%%IncludeResource: font Courier-Oblique
%%IncludeResource: font Courier-Bold
%%IncludeResource: font Courier-BoldOblique
%%IncludeResource: font Symbol
%%IncludeResource: font ZapfDingbats
/reEncode {exch findfont dup length dict begin {1 index /FID eq  {pop pop} {def} ifelse } forall /Encoding exch def currentdict end dup /FontName get exch definefont pop } def [/Times-Bold /Times-Italic /Times-BoldItalic /Helvetica /Helvetica-Oblique
 /Helvetica-Bold /Helvetica-BoldOblique /Courier /Courier-Oblique /Courier-Bold /Courier-BoldOblique /Times-Roman /AvantGarde-Book /AvantGarde-BookOblique /AvantGarde-Demi /AvantGarde-DemiOblique /Bookman-Demi /Bookman-DemiItalic /Bookman-Light
 /Bookman-LightItalic /Helvetica-Narrow /Helvetica-Narrow-Bold /Helvetica-Narrow-BoldOblique /Helvetica-Narrow-Oblique /NewCenturySchlbk-Roman /NewCenturySchlbk-Bold /NewCenturySchlbk-BoldItalic /NewCenturySchlbk-Italic /Palatino-Bold
 /Palatino-BoldItalic /Palatino-Italic /Palatino-Roman ] {ISOLatin1Encoding reEncode } forall
%%EndProlog
%%BeginSetup
%%EndSetup
newpath  gsave  .25 .25 scale  gsave  0 0 t black[  ] 0 sd 3 lw 1 1 1 c 2268 1415 0 0 bf black 1 1 1 c 1565 1132 408 142 bf black 1565 1132 408 142 bl 1 1 1 c 1565 1132 408 142 bf black 1565 1132 408 142 bl 1 1 1 c 0.0829657 0.0893382 0.352451 c 112
 80 408 142 bf 0.0718137 0.0335784 0.320588 c 112 80 520 142 bf 0.0829657 0.0893382 0.352451 c 111 80 632 142 bf 112 80 743 142 bf 0.0718137 0.0335784 0.320588 c 112 80 855 142 bf 0.0509804 0 0.231373 c 112 80 967 142 bf 0.0637255 0.00637255 0.291912
 c 112 80 1079 142 bf 111 80 1191 142 bf 0.0136622 0 0.131056 c 112 80 1302 142 bf 112 80 1414 142 bf 0.0446078 0 0.204289 c 112 80 1526 142 bf 0.0718137 0.0335784 0.320588 c 111 80 1638 142 bf 0.0573529 0.00318627 0.261642 c 112 80 1749 142 bf
 0.113235 0.859191 0.862132 c 112 80 1861 142 bf 0.0573529 0.00318627 0.261642 c 112 81 408 222 bf 0.0718137 0.0335784 0.320588 c 112 81 520 222 bf 0.0637255 0.00637255 0.291912 c 111 81 632 222 bf 112 81 743 222 bf 0.0941176 0.145098 0.384314 c 112
 81 855 222 bf 0.0509804 0 0.231373 c 112 81 967 222 bf 0.0941176 0.145098 0.384314 c 112 81 1079 222 bf 0.0637255 0.00637255 0.291912 c 111 81 1191 222 bf 0.0718137 0.0335784 0.320588 c 112 81 1302 222 bf 0.0941176 0.145098 0.384314 c 112 81 1414
 222 bf 0.0718137 0.0335784 0.320588 c 112 81 1526 222 bf 0.0509804 0 0.231373 c 111 81 1638 222 bf 0.113235 0.859191 0.862132 c 112 81 1749 222 bf 0.0573529 0.00318627 0.261642 c 112 81 1861 222 bf 0.0718137 0.0335784 0.320588 c 112 81 408 303 bf
 112 81 520 303 bf 111 81 632 303 bf 112 81 743 303 bf 112 81 855 303 bf 112 81 967 303 bf 112 81 1079 303 bf 111 81 1191 303 bf 112 81 1302 303 bf 112 81 1414 303 bf 112 81 1526 303 bf 0.113235 0.859191 0.862132 c 111 81 1638 303 bf 0.0509804 0
 0.231373 c 112 81 1749 303 bf 0.0718137 0.0335784 0.320588 c 112 81 1861 303 bf 112 81 408 384 bf 112 81 520 384 bf 111 81 632 384 bf 112 81 743 384 bf 112 81 855 384 bf 0.0829657 0.0893382 0.352451 c 112 81 967 384 bf 0.0718137 0.0335784 0.320588 c
 112 81 1079 384 bf 111 81 1191 384 bf 112 81 1302 384 bf 112 81 1414 384 bf 0.113235 0.859191 0.862132 c 112 81 1526 384 bf 0.0718137 0.0335784 0.320588 c 111 81 1638 384 bf 112 81 1749 384 bf 0.0446078 0 0.204289 c 112 81 1861 384 bf 0.0718137
 0.0335784 0.320588 c 112 81 408 465 bf 112 81 520 465 bf 111 81 632 465 bf 0.0637255 0.00637255 0.291912 c 112 81 743 465 bf 0.0718137 0.0335784 0.320588 c 112 81 855 465 bf 0.0941176 0.145098 0.384314 c 112 81 967 465 bf 0.0829657 0.0893382
 0.352451 c 112 81 1079 465 bf 111 81 1191 465 bf 0.0718137 0.0335784 0.320588 c 112 81 1302 465 bf 0.113235 0.859191 0.862132 c 112 81 1414 465 bf 0.0718137 0.0335784 0.320588 c 112 81 1526 465 bf 111 81 1638 465 bf 0.0941176 0.145098 0.384314 c 112
 81 1749 465 bf 0.0136622 0 0.131056 c 112 81 1861 465 bf 0.0718137 0.0335784 0.320588 c 112 81 408 546 bf 112 81 520 546 bf 111 81 632 546 bf 112 81 743 546 bf 112 81 855 546 bf 0.0829657 0.0893382 0.352451 c 112 81 967 546 bf 0.0718137 0.0335784
 0.320588 c 112 81 1079 546 bf 0.0829657 0.0893382 0.352451 c 111 81 1191 546 bf 0.113235 0.859191 0.862132 c 112 81 1302 546 bf 0.0718137 0.0335784 0.320588 c 112 81 1414 546 bf 112 81 1526 546 bf 111 81 1638 546 bf 112 81 1749 546 bf 0.0136622 0
 0.131056 c 112 81 1861 546 bf 0.0829657 0.0893382 0.352451 c 112 81 408 627 bf 0.0718137 0.0335784 0.320588 c 112 81 520 627 bf 111 81 632 627 bf 112 81 743 627 bf 112 81 855 627 bf 0.0637255 0.00637255 0.291912 c 112 81 967 627 bf 112 81 1079 627
 bf 0.113235 0.859191 0.862132 c 111 81 1191 627 bf 0.0829657 0.0893382 0.352451 c 112 81 1302 627 bf 112 81 1414 627 bf 0.0718137 0.0335784 0.320588 c 112 81 1526 627 bf 111 81 1638 627 bf 0.0637255 0.00637255 0.291912 c 112 81 1749 627 bf 112 81
 1861 627 bf 0.0718137 0.0335784 0.320588 c 112 81 408 708 bf 0.0829657 0.0893382 0.352451 c 112 81 520 708 bf 111 81 632 708 bf 112 81 743 708 bf 112 81 855 708 bf 0.0387255 0 0.179289 c 112 81 967 708 bf 0.113235 0.859191 0.862132 c 112 81 1079 708
 bf 0.0637255 0.00637255 0.291912 c 111 81 1191 708 bf 0.0718137 0.0335784 0.320588 c 112 81 1302 708 bf 0.0829657 0.0893382 0.352451 c 112 81 1414 708 bf 0.0718137 0.0335784 0.320588 c 112 81 1526 708 bf 111 81 1638 708 bf 0.0941176 0.145098
 0.384314 c 112 81 1749 708 bf 0.0637255 0.00637255 0.291912 c 112 81 1861 708 bf 0.0829657 0.0893382 0.352451 c 112 80 408 789 bf 0.0941176 0.145098 0.384314 c 112 80 520 789 bf 111 80 632 789 bf 112 80 743 789 bf 112 80 855 789 bf 0.113235 0.859191
 0.862132 c 112 80 967 789 bf 0.0387255 0 0.179289 c 112 80 1079 789 bf 0.0637255 0.00637255 0.291912 c 111 80 1191 789 bf 0.0829657 0.0893382 0.352451 c 112 80 1302 789 bf 0.0941176 0.145098 0.384314 c 112 80 1414 789 bf 0.0829657 0.0893382 0.352451
 c 112 80 1526 789 bf 0.0718137 0.0335784 0.320588 c 111 80 1638 789 bf 0.0509804 0 0.231373 c 112 80 1749 789 bf 112 80 1861 789 bf 0.0829657 0.0893382 0.352451 c 112 81 408 869 bf 112 81 520 869 bf 111 81 632 869 bf 112 81 743 869 bf 0.113235
 0.859191 0.862132 c 112 81 855 869 bf 0.0941176 0.145098 0.384314 c 112 81 967 869 bf 0.0829657 0.0893382 0.352451 c 112 81 1079 869 bf 0.0718137 0.0335784 0.320588 c 111 81 1191 869 bf 112 81 1302 869 bf 112 81 1414 869 bf 112 81 1526 869 bf 111 81
 1638 869 bf 0.0941176 0.145098 0.384314 c 112 81 1749 869 bf 0.0718137 0.0335784 0.320588 c 112 81 1861 869 bf 0.0637255 0.00637255 0.291912 c 112 81 408 950 bf 112 81 520 950 bf 111 81 632 950 bf 0.113235 0.859191 0.862132 c 112 81 743 950 bf
 0.0829657 0.0893382 0.352451 c 112 81 855 950 bf 0.0941176 0.145098 0.384314 c 112 81 967 950 bf 0.0829657 0.0893382 0.352451 c 112 81 1079 950 bf 0.0718137 0.0335784 0.320588 c 111 81 1191 950 bf 112 81 1302 950 bf 0.0637255 0.00637255 0.291912 c
 112 81 1414 950 bf 0.0718137 0.0335784 0.320588 c 112 81 1526 950 bf 111 81 1638 950 bf 0.0637255 0.00637255 0.291912 c 112 81 1749 950 bf 0.0829657 0.0893382 0.352451 c 112 81 1861 950 bf 0.0718137 0.0335784 0.320588 c 112 81 408 1031 bf 0.0637255
 0.00637255 0.291912 c 112 81 520 1031 bf 0.113235 0.859191 0.862132 c 111 81 632 1031 bf 0.0637255 0.00637255 0.291912 c 112 81 743 1031 bf 0.0829657 0.0893382 0.352451 c 112 81 855 1031 bf 0.0941176 0.145098 0.384314 c 112 81 967 1031 bf 0.0829657
 0.0893382 0.352451 c 112 81 1079 1031 bf 0.0718137 0.0335784 0.320588 c 111 81 1191 1031 bf 112 81 1302 1031 bf 112 81 1414 1031 bf 112 81 1526 1031 bf 111 81 1638 1031 bf 0.0637255 0.00637255 0.291912 c 112 81 1749 1031 bf 0.0829657 0.0893382
 0.352451 c 112 81 1861 1031 bf 0.0718137 0.0335784 0.320588 c 112 81 408 1112 bf 0.113235 0.859191 0.862132 c 112 81 520 1112 bf 0.0637255 0.00637255 0.291912 c 111 81 632 1112 bf 112 81 743 1112 bf 0.0829657 0.0893382 0.352451 c 112 81 855 1112 bf
 0.0941176 0.145098 0.384314 c 112 81 967 1112 bf 0.0829657 0.0893382 0.352451 c 112 81 1079 1112 bf 0.0718137 0.0335784 0.320588 c 111 81 1191 1112 bf 112 81 1302 1112 bf 112 81 1414 1112 bf 112 81 1526 1112 bf 111 81 1638 1112 bf 112 81 1749 1112
 bf 112 81 1861 1112 bf 0.113235 0.859191 0.862132 c 112 81 408 1193 bf 0.0718137 0.0335784 0.320588 c 112 81 520 1193 bf 111 81 632 1193 bf 0.0637255 0.00637255 0.291912 c 112 81 743 1193 bf 0.0829657 0.0893382 0.352451 c 112 81 855 1193 bf 112 81
 967 1193 bf 0.0718137 0.0335784 0.320588 c 112 81 1079 1193 bf 0.0829657 0.0893382 0.352451 c 111 81 1191 1193 bf 0.0718137 0.0335784 0.320588 c 112 81 1302 1193 bf 112 81 1414 1193 bf 112 81 1526 1193 bf 111 81 1638 1193 bf 0.0573529 0.00318627
 0.261642 c 112 81 1749 1193 bf 0.0829657 0.0893382 0.352451 c 112 81 1861 1193 bf 0.0136622 0 0.131056 c 102 56 1984 142 bf 0.028463 0 0.15408 c 102 57 1984 198 bf 0.0387255 0 0.179289 c 102 56 1984 255 bf 0.0446078 0 0.204289 c 102 57 1984 311 bf
 0.0509804 0 0.231373 c 102 57 1984 368 bf 0.0573529 0.00318627 0.261642 c 102 56 1984 425 bf 0.0637255 0.00637255 0.291912 c 102 57 1984 481 bf 0.0718137 0.0335784 0.320588 c 102 56 1984 538 bf 0.0829657 0.0893382 0.352451 c 102 57 1984 594 bf
 0.0941176 0.145098 0.384314 c 102 57 1984 651 bf 0.106863 0.204044 0.433701 c 102 56 1984 708 bf 0.118627 0.258456 0.479289 c 102 57 1984 764 bf 0.121814 0.318873 0.524265 c 102 57 1984 821 bf 0.113848 0.381005 0.564093 c 102 56 1984 878 bf 0.105882
 0.443137 0.603922 c 102 57 1984 934 bf 0.102941 0.512255 0.648039 c 102 56 1984 991 bf 0.0997549 0.587132 0.695833 c 102 57 1984 1047 bf 0.10098 0.672304 0.748775 c 102 57 1984 1104 bf 0.107353 0.769485 0.807721 c 102 56 1984 1161 bf 0.113235
 0.859191 0.862132 c 102 57 1984 1217 bf black 2086 142 m 1132 Y s 2032 146 m 54 X s 2032 287 m 54 X s 2032 428 m 54 X s 2032 569 m 54 X s 2032 710 m 54 X s 2032 851 m 54 X s 2032 992 m 54 X s 2032 1133 m 54 X s 2032 1274 m 54 X s 2032 146 m 54 X s
 2032 1274 m 54 X s
 gsave  2268 1415 0 0 C 2119.33 129.366 t 0 r /Helvetica findfont 45.6587 sf 0 0 m (0.6) show NC gr 
 gsave  2268 1415 0 0 C 2096.5 129.366 t 0 r /Symbol findfont 45.6587 sf 0 0 m (-) show NC gr 
 gsave  2268 1415 0 0 C 2119.33 270.147 t 0 r /Helvetica findfont 45.6587 sf 0 0 m (0.4) show NC gr 
 gsave  2268 1415 0 0 C 2096.5 270.147 t 0 r /Symbol findfont 45.6587 sf 0 0 m (-) show NC gr 
 gsave  2268 1415 0 0 C 2119.33 410.928 t 0 r /Helvetica findfont 45.6587 sf 0 0 m (0.2) show NC gr 
 gsave  2268 1415 0 0 C 2096.5 410.928 t 0 r /Symbol findfont 45.6587 sf 0 0 m (-) show NC gr 
 gsave  2268 1415 0 0 C 2096.5 551.71 t 0 r /Helvetica findfont 45.6587 sf 0 0 m (0) show NC gr 
 gsave  2268 1415 0 0 C 2096.5 692.491 t 0 r /Helvetica findfont 45.6587 sf 0 0 m (0.2) show NC gr 
 gsave  2268 1415 0 0 C 2096.5 833.272 t 0 r /Helvetica findfont 45.6587 sf 0 0 m (0.4) show NC gr 
 gsave  2268 1415 0 0 C 2096.5 974.053 t 0 r /Helvetica findfont 45.6587 sf 0 0 m (0.6) show NC gr 
 gsave  2268 1415 0 0 C 2096.5 1114.83 t 0 r /Helvetica findfont 45.6587 sf 0 0 m (0.8) show NC gr 
 gsave  2268 1415 0 0 C 2096.5 1255.61 t 0 r /Helvetica findfont 45.6587 sf 0 0 m (1) show NC gr  1 1 1 c black 408 142 m 1565 X s
 gsave  2268 1415 0 0 C 468.002 -182.635 t 90 r /Helvetica findfont 22.8294 sf 0 0 m (alpha_JER_DataVsMC_MC16) show NC gr 
 gsave  2268 1415 0 0 C 582.149 -133.171 t 90 r /Helvetica findfont 22.8294 sf 0 0 m (alpha_JER_EffectiveNP2) show NC gr 
 gsave  2268 1415 0 0 C 692.491 -133.171 t 90 r /Helvetica findfont 22.8294 sf 0 0 m (alpha_JER_EffectiveNP3) show NC gr 
 gsave  2268 1415 0 0 C 806.637 -129.366 t 90 r /Helvetica findfont 22.8294 sf 0 0 m (alpha_JES_GroupedNP1) show NC gr 
 gsave  2268 1415 0 0 C 916.979 -133.171 t 90 r /Helvetica findfont 22.8294 sf 0 0 m (alpha_JES_GroupedNP2) show NC gr 
 gsave  2268 1415 0 0 C 1027.32 -148.391 t 90 r /Helvetica findfont 22.8294 sf 0 0 m (alpha_ttbar_Fragmentation) show NC gr 
 gsave  2268 1415 0 0 C 1141.47 -125.561 t 90 r /Helvetica findfont 22.8294 sf 0 0 m (alpha_ttbar_HardScatter) show NC gr 
 gsave  2268 1415 0 0 C 1251.81 -98.9272 t 90 r /Helvetica findfont 22.8294 sf 0 0 m (alpha_ttbar_Radiation) show NC gr 
 gsave  2268 1415 0 0 C 1362.15 -95.1223 t 90 r /Helvetica findfont 22.8294 sf 0 0 m (alpha_xsec_singletop) show NC gr 
 gsave  2268 1415 0 0 C 1476.3 -30.4391 t 90 r /Helvetica findfont 22.8294 sf 0 0 m (alpha_xsec_ttV) show NC gr 
 gsave  2268 1415 0 0 C 1586.64 -57.0734 t 90 r /Helvetica findfont 22.8294 sf 0 0 m (alpha_xsec_wjets) show NC gr 
 gsave  2268 1415 0 0 C 1700.79 -201.659 t 90 r /Helvetica findfont 22.8294 sf 0 0 m (gamma_stat_bWN2_cuts_bin_0) show NC gr 
 gsave  2268 1415 0 0 C 1811.13 41.8538 t 90 r /Helvetica findfont 22.8294 sf 0 0 m (mu_SIG) show NC gr 
 gsave  2268 1415 0 0 C 1921.47 34.244 t 90 r /Helvetica findfont 22.8294 sf 0 0 m (mu_ttbar) show NC gr  408 171 m -29 Y s 520 171 m -29 Y s 632 171 m -29 Y s 743 171 m -29 Y s 855 171 m -29 Y s 967 171 m -29 Y s 1079 171 m -29 Y s 1191 171 m -29 Y
 s 1302 171 m -29 Y s 1414 171 m -29 Y s 1526 171 m -29 Y s 1638 171 m -29 Y s 1749 171 m -29 Y s 1861 171 m -29 Y s 1973 171 m -29 Y s 408 142 m 1132 Y s
 gsave  2268 1415 0 0 C 292.977 175.025 t 0 r /Helvetica findfont 22.8294 sf 0 0 m (mu_ttbar) show NC gr 
 gsave  2268 1415 0 0 C 300.587 258.733 t 0 r /Helvetica findfont 22.8294 sf 0 0 m (mu_SIG) show NC gr 
 gsave  2268 1415 0 0 C 57.0734 338.635 t 0 r /Helvetica findfont 22.8294 sf 0 0 m (gamma_stat_bWN2_cuts_bin_0) show NC gr 
 gsave  2268 1415 0 0 C 201.659 418.538 t 0 r /Helvetica findfont 22.8294 sf 0 0 m (alpha_xsec_wjets) show NC gr 
 gsave  2268 1415 0 0 C 228.294 498.441 t 0 r /Helvetica findfont 22.8294 sf 0 0 m (alpha_xsec_ttV) show NC gr 
 gsave  2268 1415 0 0 C 163.61 582.149 t 0 r /Helvetica findfont 22.8294 sf 0 0 m (alpha_xsec_singletop) show NC gr 
 gsave  2268 1415 0 0 C 159.806 662.051 t 0 r /Helvetica findfont 22.8294 sf 0 0 m (alpha_ttbar_Radiation) show NC gr 
 gsave  2268 1415 0 0 C 133.171 741.954 t 0 r /Helvetica findfont 22.8294 sf 0 0 m (alpha_ttbar_HardScatter) show NC gr 
 gsave  2268 1415 0 0 C 110.342 821.857 t 0 r /Helvetica findfont 22.8294 sf 0 0 m (alpha_ttbar_Fragmentation) show NC gr 
 gsave  2268 1415 0 0 C 125.561 905.565 t 0 r /Helvetica findfont 22.8294 sf 0 0 m (alpha_JES_GroupedNP2) show NC gr 
 gsave  2268 1415 0 0 C 129.366 985.467 t 0 r /Helvetica findfont 22.8294 sf 0 0 m (alpha_JES_GroupedNP1) show NC gr 
 gsave  2268 1415 0 0 C 125.561 1065.37 t 0 r /Helvetica findfont 22.8294 sf 0 0 m (alpha_JER_EffectiveNP3) show NC gr 
 gsave  2268 1415 0 0 C 125.561 1145.27 t 0 r /Helvetica findfont 22.8294 sf 0 0 m (alpha_JER_EffectiveNP2) show NC gr 
 gsave  2268 1415 0 0 C 76.0979 1228.98 t 0 r /Helvetica findfont 22.8294 sf 0 0 m (alpha_JER_DataVsMC_MC16) show NC gr  463 142 m -55 X s 463 222 m -55 X s 463 303 m -55 X s 463 384 m -55 X s 463 465 m -55 X s 463 546 m -55 X s 463 627 m -55 X s 463
 708 m -55 X s 463 789 m -55 X s 463 869 m -55 X s 463 950 m -55 X s 463 1031 m -55 X s 463 1112 m -55 X s 463 1193 m -55 X s 463 1274 m -55 X s 1 1 1 c black 1 1 1 c
 gsave  2268 1415 0 0 C 452.782 178.83 t 0 r /Helvetica-Bold findfont 7.60979 sf 0 0 m (0.06) show NC gr  black 1 1 1 c
 gsave  2268 1415 0 0 C 566.929 178.83 t 0 r /Helvetica-Bold findfont 7.60979 sf 0 0 m (0.02) show NC gr  black 1 1 1 c
 gsave  2268 1415 0 0 C 677.271 178.83 t 0 r /Helvetica-Bold findfont 7.60979 sf 0 0 m (0.05) show NC gr  black 1 1 1 c
 gsave  2268 1415 0 0 C 791.418 178.83 t 0 r /Helvetica-Bold findfont 7.60979 sf 0 0 m (0.08) show NC gr  black 1 1 1 c
 gsave  2268 1415 0 0 C 897.955 178.83 t 0 r /Helvetica-Bold findfont 7.60979 sf 0 0 m (\2550.02) show NC gr  black 1 1 1 c
 gsave  2268 1415 0 0 C 1008.3 178.83 t 0 r /Helvetica-Bold findfont 7.60979 sf 0 0 m (\2550.21) show NC gr  black 1 1 1 c
 gsave  2268 1415 0 0 C 1122.44 178.83 t 0 r /Helvetica-Bold findfont 7.60979 sf 0 0 m (\2550.08) show NC gr  black 1 1 1 c
 gsave  2268 1415 0 0 C 1232.79 178.83 t 0 r /Helvetica-Bold findfont 7.60979 sf 0 0 m (\2550.07) show NC gr  black 1 1 1 c
 gsave  2268 1415 0 0 C 1343.13 178.83 t 0 r /Helvetica-Bold findfont 7.60979 sf 0 0 m (\2550.61) show NC gr  black 1 1 1 c
 gsave  2268 1415 0 0 C 1457.27 178.83 t 0 r /Helvetica-Bold findfont 7.60979 sf 0 0 m (\2550.60) show NC gr  black 1 1 1 c
 gsave  2268 1415 0 0 C 1567.62 178.83 t 0 r /Helvetica-Bold findfont 7.60979 sf 0 0 m (\2550.34) show NC gr  black 1 1 1 c
 gsave  2268 1415 0 0 C 1681.76 178.83 t 0 r /Helvetica-Bold findfont 7.60979 sf 0 0 m (\2550.00) show NC gr  black 1 1 1 c
 gsave  2268 1415 0 0 C 1792.1 178.83 t 0 r /Helvetica-Bold findfont 7.60979 sf 0 0 m (\2550.16) show NC gr  black 1 1 1 c
 gsave  2268 1415 0 0 C 1906.25 178.83 t 0 r /Helvetica-Bold findfont 7.60979 sf 0 0 m (1.00) show NC gr  black 1 1 1 c
 gsave  2268 1415 0 0 C 448.977 262.538 t 0 r /Helvetica-Bold findfont 7.60979 sf 0 0 m (\2550.15) show NC gr  black 1 1 1 c
 gsave  2268 1415 0 0 C 563.124 262.538 t 0 r /Helvetica-Bold findfont 7.60979 sf 0 0 m (\2550.03) show NC gr  black 1 1 1 c
 gsave  2268 1415 0 0 C 673.466 262.538 t 0 r /Helvetica-Bold findfont 7.60979 sf 0 0 m (\2550.07) show NC gr  black 1 1 1 c
 gsave  2268 1415 0 0 C 787.613 262.538 t 0 r /Helvetica-Bold findfont 7.60979 sf 0 0 m (\2550.12) show NC gr  black 1 1 1 c
 gsave  2268 1415 0 0 C 901.76 262.538 t 0 r /Helvetica-Bold findfont 7.60979 sf 0 0 m (0.12) show NC gr  black 1 1 1 c
 gsave  2268 1415 0 0 C 1008.3 262.538 t 0 r /Helvetica-Bold findfont 7.60979 sf 0 0 m (\2550.24) show NC gr  black 1 1 1 c
 gsave  2268 1415 0 0 C 1126.25 262.538 t 0 r /Helvetica-Bold findfont 7.60979 sf 0 0 m (0.17) show NC gr  black 1 1 1 c
 gsave  2268 1415 0 0 C 1232.79 262.538 t 0 r /Helvetica-Bold findfont 7.60979 sf 0 0 m (\2550.05) show NC gr  black 1 1 1 c
 gsave  2268 1415 0 0 C 1346.93 262.538 t 0 r /Helvetica-Bold findfont 7.60979 sf 0 0 m (0.01) show NC gr  black 1 1 1 c
 gsave  2268 1415 0 0 C 1461.08 262.538 t 0 r /Helvetica-Bold findfont 7.60979 sf 0 0 m (0.12) show NC gr  black 1 1 1 c
 gsave  2268 1415 0 0 C 1567.62 262.538 t 0 r /Helvetica-Bold findfont 7.60979 sf 0 0 m (\2550.00) show NC gr  black 1 1 1 c
 gsave  2268 1415 0 0 C 1681.76 262.538 t 0 r /Helvetica-Bold findfont 7.60979 sf 0 0 m (\2550.23) show NC gr  black 1 1 1 c
 gsave  2268 1415 0 0 C 1795.91 262.538 t 0 r /Helvetica-Bold findfont 7.60979 sf 0 0 m (1.00) show NC gr  black 1 1 1 c
 gsave  2268 1415 0 0 C 1902.45 262.538 t 0 r /Helvetica-Bold findfont 7.60979 sf 0 0 m (\2550.16) show NC gr  black 1 1 1 c
 gsave  2268 1415 0 0 C 448.977 342.44 t 0 r /Helvetica-Bold findfont 7.60979 sf 0 0 m (\2550.00) show NC gr  black 1 1 1 c
 gsave  2268 1415 0 0 C 563.124 342.44 t 0 r /Helvetica-Bold findfont 7.60979 sf 0 0 m (\2550.00) show NC gr  black 1 1 1 c
 gsave  2268 1415 0 0 C 673.466 342.44 t 0 r /Helvetica-Bold findfont 7.60979 sf 0 0 m (\2550.00) show NC gr  black 1 1 1 c
 gsave  2268 1415 0 0 C 787.613 342.44 t 0 r /Helvetica-Bold findfont 7.60979 sf 0 0 m (\2550.00) show NC gr  black 1 1 1 c
 gsave  2268 1415 0 0 C 901.76 342.44 t 0 r /Helvetica-Bold findfont 7.60979 sf 0 0 m (0.00) show NC gr  black 1 1 1 c
 gsave  2268 1415 0 0 C 1008.3 342.44 t 0 r /Helvetica-Bold findfont 7.60979 sf 0 0 m (\2550.00) show NC gr  black 1 1 1 c
 gsave  2268 1415 0 0 C 1126.25 342.44 t 0 r /Helvetica-Bold findfont 7.60979 sf 0 0 m (0.00) show NC gr  black 1 1 1 c
 gsave  2268 1415 0 0 C 1232.79 342.44 t 0 r /Helvetica-Bold findfont 7.60979 sf 0 0 m (\2550.00) show NC gr  black 1 1 1 c
 gsave  2268 1415 0 0 C 1346.93 342.44 t 0 r /Helvetica-Bold findfont 7.60979 sf 0 0 m (0.00) show NC gr  black 1 1 1 c
 gsave  2268 1415 0 0 C 1461.08 342.44 t 0 r /Helvetica-Bold findfont 7.60979 sf 0 0 m (0.00) show NC gr  black 1 1 1 c
 gsave  2268 1415 0 0 C 1571.42 342.44 t 0 r /Helvetica-Bold findfont 7.60979 sf 0 0 m (0.00) show NC gr  black 1 1 1 c
 gsave  2268 1415 0 0 C 1685.57 342.44 t 0 r /Helvetica-Bold findfont 7.60979 sf 0 0 m (1.00) show NC gr  black 1 1 1 c
 gsave  2268 1415 0 0 C 1792.1 342.44 t 0 r /Helvetica-Bold findfont 7.60979 sf 0 0 m (\2550.23) show NC gr  black 1 1 1 c
 gsave  2268 1415 0 0 C 1902.45 342.44 t 0 r /Helvetica-Bold findfont 7.60979 sf 0 0 m (\2550.00) show NC gr  black 1 1 1 c
 gsave  2268 1415 0 0 C 448.977 422.343 t 0 r /Helvetica-Bold findfont 7.60979 sf 0 0 m (\2550.00) show NC gr  black 1 1 1 c
 gsave  2268 1415 0 0 C 563.124 422.343 t 0 r /Helvetica-Bold findfont 7.60979 sf 0 0 m (\2550.00) show NC gr  black 1 1 1 c
 gsave  2268 1415 0 0 C 673.466 422.343 t 0 r /Helvetica-Bold findfont 7.60979 sf 0 0 m (\2550.01) show NC gr  black 1 1 1 c
 gsave  2268 1415 0 0 C 787.613 422.343 t 0 r /Helvetica-Bold findfont 7.60979 sf 0 0 m (\2550.01) show NC gr  black 1 1 1 c
 gsave  2268 1415 0 0 C 901.76 422.343 t 0 r /Helvetica-Bold findfont 7.60979 sf 0 0 m (0.01) show NC gr  black 1 1 1 c
 gsave  2268 1415 0 0 C 1012.1 422.343 t 0 r /Helvetica-Bold findfont 7.60979 sf 0 0 m (0.04) show NC gr  black 1 1 1 c
 gsave  2268 1415 0 0 C 1126.25 422.343 t 0 r /Helvetica-Bold findfont 7.60979 sf 0 0 m (0.02) show NC gr  black 1 1 1 c
 gsave  2268 1415 0 0 C 1236.59 422.343 t 0 r /Helvetica-Bold findfont 7.60979 sf 0 0 m (0.01) show NC gr  black 1 1 1 c
 gsave  2268 1415 0 0 C 1346.93 422.343 t 0 r /Helvetica-Bold findfont 7.60979 sf 0 0 m (0.00) show NC gr  black 1 1 1 c
 gsave  2268 1415 0 0 C 1457.27 422.343 t 0 r /Helvetica-Bold findfont 7.60979 sf 0 0 m (\2550.00) show NC gr  black 1 1 1 c
 gsave  2268 1415 0 0 C 1571.42 422.343 t 0 r /Helvetica-Bold findfont 7.60979 sf 0 0 m (1.00) show NC gr  black 1 1 1 c
 gsave  2268 1415 0 0 C 1685.57 422.343 t 0 r /Helvetica-Bold findfont 7.60979 sf 0 0 m (0.00) show NC gr  black 1 1 1 c
 gsave  2268 1415 0 0 C 1792.1 422.343 t 0 r /Helvetica-Bold findfont 7.60979 sf 0 0 m (\2550.00) show NC gr  black 1 1 1 c
 gsave  2268 1415 0 0 C 1902.45 422.343 t 0 r /Helvetica-Bold findfont 7.60979 sf 0 0 m (\2550.34) show NC gr  black 1 1 1 c
 gsave  2268 1415 0 0 C 448.977 502.246 t 0 r /Helvetica-Bold findfont 7.60979 sf 0 0 m (\2550.04) show NC gr  black 1 1 1 c
 gsave  2268 1415 0 0 C 563.124 502.246 t 0 r /Helvetica-Bold findfont 7.60979 sf 0 0 m (\2550.01) show NC gr  black 1 1 1 c
 gsave  2268 1415 0 0 C 673.466 502.246 t 0 r /Helvetica-Bold findfont 7.60979 sf 0 0 m (\2550.03) show NC gr  black 1 1 1 c
 gsave  2268 1415 0 0 C 787.613 502.246 t 0 r /Helvetica-Bold findfont 7.60979 sf 0 0 m (\2550.05) show NC gr  black 1 1 1 c
 gsave  2268 1415 0 0 C 897.955 502.246 t 0 r /Helvetica-Bold findfont 7.60979 sf 0 0 m (\2550.01) show NC gr  black 1 1 1 c
 gsave  2268 1415 0 0 C 1012.1 502.246 t 0 r /Helvetica-Bold findfont 7.60979 sf 0 0 m (0.12) show NC gr  black 1 1 1 c
 gsave  2268 1415 0 0 C 1126.25 502.246 t 0 r /Helvetica-Bold findfont 7.60979 sf 0 0 m (0.06) show NC gr  black 1 1 1 c
 gsave  2268 1415 0 0 C 1236.59 502.246 t 0 r /Helvetica-Bold findfont 7.60979 sf 0 0 m (0.05) show NC gr  black 1 1 1 c
 gsave  2268 1415 0 0 C 1343.13 502.246 t 0 r /Helvetica-Bold findfont 7.60979 sf 0 0 m (\2550.02) show NC gr  black 1 1 1 c
 gsave  2268 1415 0 0 C 1461.08 502.246 t 0 r /Helvetica-Bold findfont 7.60979 sf 0 0 m (1.00) show NC gr  black 1 1 1 c
 gsave  2268 1415 0 0 C 1567.62 502.246 t 0 r /Helvetica-Bold findfont 7.60979 sf 0 0 m (\2550.00) show NC gr  black 1 1 1 c
 gsave  2268 1415 0 0 C 1685.57 502.246 t 0 r /Helvetica-Bold findfont 7.60979 sf 0 0 m (0.00) show NC gr  black 1 1 1 c
 gsave  2268 1415 0 0 C 1795.91 502.246 t 0 r /Helvetica-Bold findfont 7.60979 sf 0 0 m (0.12) show NC gr  black 1 1 1 c
 gsave  2268 1415 0 0 C 1902.45 502.246 t 0 r /Helvetica-Bold findfont 7.60979 sf 0 0 m (\2550.60) show NC gr  black 1 1 1 c
 gsave  2268 1415 0 0 C 448.977 585.954 t 0 r /Helvetica-Bold findfont 7.60979 sf 0 0 m (\2550.04) show NC gr  black 1 1 1 c
 gsave  2268 1415 0 0 C 563.124 585.954 t 0 r /Helvetica-Bold findfont 7.60979 sf 0 0 m (\2550.01) show NC gr  black 1 1 1 c
 gsave  2268 1415 0 0 C 673.466 585.954 t 0 r /Helvetica-Bold findfont 7.60979 sf 0 0 m (\2550.02) show NC gr  black 1 1 1 c
 gsave  2268 1415 0 0 C 787.613 585.954 t 0 r /Helvetica-Bold findfont 7.60979 sf 0 0 m (\2550.03) show NC gr  black 1 1 1 c
 gsave  2268 1415 0 0 C 901.76 585.954 t 0 r /Helvetica-Bold findfont 7.60979 sf 0 0 m (0.00) show NC gr  black 1 1 1 c
 gsave  2268 1415 0 0 C 1012.1 585.954 t 0 r /Helvetica-Bold findfont 7.60979 sf 0 0 m (0.05) show NC gr  black 1 1 1 c
 gsave  2268 1415 0 0 C 1126.25 585.954 t 0 r /Helvetica-Bold findfont 7.60979 sf 0 0 m (0.02) show NC gr  black 1 1 1 c
 gsave  2268 1415 0 0 C 1236.59 585.954 t 0 r /Helvetica-Bold findfont 7.60979 sf 0 0 m (0.04) show NC gr  black 1 1 1 c
 gsave  2268 1415 0 0 C 1346.93 585.954 t 0 r /Helvetica-Bold findfont 7.60979 sf 0 0 m (1.00) show NC gr  black 1 1 1 c
 gsave  2268 1415 0 0 C 1457.27 585.954 t 0 r /Helvetica-Bold findfont 7.60979 sf 0 0 m (\2550.02) show NC gr  black 1 1 1 c
 gsave  2268 1415 0 0 C 1571.42 585.954 t 0 r /Helvetica-Bold findfont 7.60979 sf 0 0 m (0.00) show NC gr  black 1 1 1 c
 gsave  2268 1415 0 0 C 1685.57 585.954 t 0 r /Helvetica-Bold findfont 7.60979 sf 0 0 m (0.00) show NC gr  black 1 1 1 c
 gsave  2268 1415 0 0 C 1795.91 585.954 t 0 r /Helvetica-Bold findfont 7.60979 sf 0 0 m (0.01) show NC gr  black 1 1 1 c
 gsave  2268 1415 0 0 C 1902.45 585.954 t 0 r /Helvetica-Bold findfont 7.60979 sf 0 0 m (\2550.61) show NC gr  black 1 1 1 c
 gsave  2268 1415 0 0 C 452.782 665.856 t 0 r /Helvetica-Bold findfont 7.60979 sf 0 0 m (0.04) show NC gr  black 1 1 1 c
 gsave  2268 1415 0 0 C 566.929 665.856 t 0 r /Helvetica-Bold findfont 7.60979 sf 0 0 m (0.02) show NC gr  black 1 1 1 c
 gsave  2268 1415 0 0 C 677.271 665.856 t 0 r /Helvetica-Bold findfont 7.60979 sf 0 0 m (0.03) show NC gr  black 1 1 1 c
 gsave  2268 1415 0 0 C 791.418 665.856 t 0 r /Helvetica-Bold findfont 7.60979 sf 0 0 m (0.03) show NC gr  black 1 1 1 c
 gsave  2268 1415 0 0 C 901.76 665.856 t 0 r /Helvetica-Bold findfont 7.60979 sf 0 0 m (0.02) show NC gr  black 1 1 1 c
 gsave  2268 1415 0 0 C 1008.3 665.856 t 0 r /Helvetica-Bold findfont 7.60979 sf 0 0 m (\2550.12) show NC gr  black 1 1 1 c
 gsave  2268 1415 0 0 C 1122.44 665.856 t 0 r /Helvetica-Bold findfont 7.60979 sf 0 0 m (\2550.06) show NC gr  black 1 1 1 c
 gsave  2268 1415 0 0 C 1236.59 665.856 t 0 r /Helvetica-Bold findfont 7.60979 sf 0 0 m (1.00) show NC gr  black 1 1 1 c
 gsave  2268 1415 0 0 C 1346.93 665.856 t 0 r /Helvetica-Bold findfont 7.60979 sf 0 0 m (0.04) show NC gr  black 1 1 1 c
 gsave  2268 1415 0 0 C 1461.08 665.856 t 0 r /Helvetica-Bold findfont 7.60979 sf 0 0 m (0.05) show NC gr  black 1 1 1 c
 gsave  2268 1415 0 0 C 1571.42 665.856 t 0 r /Helvetica-Bold findfont 7.60979 sf 0 0 m (0.01) show NC gr  black 1 1 1 c
 gsave  2268 1415 0 0 C 1681.76 665.856 t 0 r /Helvetica-Bold findfont 7.60979 sf 0 0 m (\2550.00) show NC gr  black 1 1 1 c
 gsave  2268 1415 0 0 C 1792.1 665.856 t 0 r /Helvetica-Bold findfont 7.60979 sf 0 0 m (\2550.05) show NC gr  black 1 1 1 c
 gsave  2268 1415 0 0 C 1902.45 665.856 t 0 r /Helvetica-Bold findfont 7.60979 sf 0 0 m (\2550.07) show NC gr  black 1 1 1 c
 gsave  2268 1415 0 0 C 452.782 745.759 t 0 r /Helvetica-Bold findfont 7.60979 sf 0 0 m (0.02) show NC gr  black 1 1 1 c
 gsave  2268 1415 0 0 C 566.929 745.759 t 0 r /Helvetica-Bold findfont 7.60979 sf 0 0 m (0.05) show NC gr  black 1 1 1 c
 gsave  2268 1415 0 0 C 677.271 745.759 t 0 r /Helvetica-Bold findfont 7.60979 sf 0 0 m (0.06) show NC gr  black 1 1 1 c
 gsave  2268 1415 0 0 C 791.418 745.759 t 0 r /Helvetica-Bold findfont 7.60979 sf 0 0 m (0.09) show NC gr  black 1 1 1 c
 gsave  2268 1415 0 0 C 901.76 745.759 t 0 r /Helvetica-Bold findfont 7.60979 sf 0 0 m (0.05) show NC gr  black 1 1 1 c
 gsave  2268 1415 0 0 C 1008.3 745.759 t 0 r /Helvetica-Bold findfont 7.60979 sf 0 0 m (\2550.39) show NC gr  black 1 1 1 c
 gsave  2268 1415 0 0 C 1126.25 745.759 t 0 r /Helvetica-Bold findfont 7.60979 sf 0 0 m (1.00) show NC gr  black 1 1 1 c
 gsave  2268 1415 0 0 C 1232.79 745.759 t 0 r /Helvetica-Bold findfont 7.60979 sf 0 0 m (\2550.06) show NC gr  black 1 1 1 c
 gsave  2268 1415 0 0 C 1346.93 745.759 t 0 r /Helvetica-Bold findfont 7.60979 sf 0 0 m (0.02) show NC gr  black 1 1 1 c
 gsave  2268 1415 0 0 C 1461.08 745.759 t 0 r /Helvetica-Bold findfont 7.60979 sf 0 0 m (0.06) show NC gr  black 1 1 1 c
 gsave  2268 1415 0 0 C 1571.42 745.759 t 0 r /Helvetica-Bold findfont 7.60979 sf 0 0 m (0.02) show NC gr  black 1 1 1 c
 gsave  2268 1415 0 0 C 1685.57 745.759 t 0 r /Helvetica-Bold findfont 7.60979 sf 0 0 m (0.00) show NC gr  black 1 1 1 c
 gsave  2268 1415 0 0 C 1795.91 745.759 t 0 r /Helvetica-Bold findfont 7.60979 sf 0 0 m (0.17) show NC gr  black 1 1 1 c
 gsave  2268 1415 0 0 C 1902.45 745.759 t 0 r /Helvetica-Bold findfont 7.60979 sf 0 0 m (\2550.08) show NC gr  black 1 1 1 c
 gsave  2268 1415 0 0 C 452.782 825.662 t 0 r /Helvetica-Bold findfont 7.60979 sf 0 0 m (0.05) show NC gr  black 1 1 1 c
 gsave  2268 1415 0 0 C 566.929 825.662 t 0 r /Helvetica-Bold findfont 7.60979 sf 0 0 m (0.15) show NC gr  black 1 1 1 c
 gsave  2268 1415 0 0 C 677.271 825.662 t 0 r /Helvetica-Bold findfont 7.60979 sf 0 0 m (0.17) show NC gr  black 1 1 1 c
 gsave  2268 1415 0 0 C 791.418 825.662 t 0 r /Helvetica-Bold findfont 7.60979 sf 0 0 m (0.19) show NC gr  black 1 1 1 c
 gsave  2268 1415 0 0 C 901.76 825.662 t 0 r /Helvetica-Bold findfont 7.60979 sf 0 0 m (0.15) show NC gr  black 1 1 1 c
 gsave  2268 1415 0 0 C 1012.1 825.662 t 0 r /Helvetica-Bold findfont 7.60979 sf 0 0 m (1.00) show NC gr  black 1 1 1 c
 gsave  2268 1415 0 0 C 1122.44 825.662 t 0 r /Helvetica-Bold findfont 7.60979 sf 0 0 m (\2550.39) show NC gr  black 1 1 1 c
 gsave  2268 1415 0 0 C 1232.79 825.662 t 0 r /Helvetica-Bold findfont 7.60979 sf 0 0 m (\2550.12) show NC gr  black 1 1 1 c
 gsave  2268 1415 0 0 C 1346.93 825.662 t 0 r /Helvetica-Bold findfont 7.60979 sf 0 0 m (0.05) show NC gr  black 1 1 1 c
 gsave  2268 1415 0 0 C 1461.08 825.662 t 0 r /Helvetica-Bold findfont 7.60979 sf 0 0 m (0.12) show NC gr  black 1 1 1 c
 gsave  2268 1415 0 0 C 1571.42 825.662 t 0 r /Helvetica-Bold findfont 7.60979 sf 0 0 m (0.04) show NC gr  black 1 1 1 c
 gsave  2268 1415 0 0 C 1681.76 825.662 t 0 r /Helvetica-Bold findfont 7.60979 sf 0 0 m (\2550.00) show NC gr  black 1 1 1 c
 gsave  2268 1415 0 0 C 1792.1 825.662 t 0 r /Helvetica-Bold findfont 7.60979 sf 0 0 m (\2550.24) show NC gr  black 1 1 1 c
 gsave  2268 1415 0 0 C 1902.45 825.662 t 0 r /Helvetica-Bold findfont 7.60979 sf 0 0 m (\2550.21) show NC gr  black 1 1 1 c
 gsave  2268 1415 0 0 C 452.782 909.37 t 0 r /Helvetica-Bold findfont 7.60979 sf 0 0 m (0.08) show NC gr  black 1 1 1 c
 gsave  2268 1415 0 0 C 566.929 909.37 t 0 r /Helvetica-Bold findfont 7.60979 sf 0 0 m (0.05) show NC gr  black 1 1 1 c
 gsave  2268 1415 0 0 C 677.271 909.37 t 0 r /Helvetica-Bold findfont 7.60979 sf 0 0 m (0.09) show NC gr  black 1 1 1 c
 gsave  2268 1415 0 0 C 791.418 909.37 t 0 r /Helvetica-Bold findfont 7.60979 sf 0 0 m (0.09) show NC gr  black 1 1 1 c
 gsave  2268 1415 0 0 C 901.76 909.37 t 0 r /Helvetica-Bold findfont 7.60979 sf 0 0 m (1.00) show NC gr  black 1 1 1 c
 gsave  2268 1415 0 0 C 1012.1 909.37 t 0 r /Helvetica-Bold findfont 7.60979 sf 0 0 m (0.15) show NC gr  black 1 1 1 c
 gsave  2268 1415 0 0 C 1126.25 909.37 t 0 r /Helvetica-Bold findfont 7.60979 sf 0 0 m (0.05) show NC gr  black 1 1 1 c
 gsave  2268 1415 0 0 C 1236.59 909.37 t 0 r /Helvetica-Bold findfont 7.60979 sf 0 0 m (0.02) show NC gr  black 1 1 1 c
 gsave  2268 1415 0 0 C 1346.93 909.37 t 0 r /Helvetica-Bold findfont 7.60979 sf 0 0 m (0.00) show NC gr  black 1 1 1 c
 gsave  2268 1415 0 0 C 1457.27 909.37 t 0 r /Helvetica-Bold findfont 7.60979 sf 0 0 m (\2550.01) show NC gr  black 1 1 1 c
 gsave  2268 1415 0 0 C 1571.42 909.37 t 0 r /Helvetica-Bold findfont 7.60979 sf 0 0 m (0.01) show NC gr  black 1 1 1 c
 gsave  2268 1415 0 0 C 1685.57 909.37 t 0 r /Helvetica-Bold findfont 7.60979 sf 0 0 m (0.00) show NC gr  black 1 1 1 c
 gsave  2268 1415 0 0 C 1795.91 909.37 t 0 r /Helvetica-Bold findfont 7.60979 sf 0 0 m (0.12) show NC gr  black 1 1 1 c
 gsave  2268 1415 0 0 C 1902.45 909.37 t 0 r /Helvetica-Bold findfont 7.60979 sf 0 0 m (\2550.02) show NC gr  black 1 1 1 c
 gsave  2268 1415 0 0 C 448.977 989.272 t 0 r /Helvetica-Bold findfont 7.60979 sf 0 0 m (\2550.06) show NC gr  black 1 1 1 c
 gsave  2268 1415 0 0 C 563.124 989.272 t 0 r /Helvetica-Bold findfont 7.60979 sf 0 0 m (\2550.06) show NC gr  black 1 1 1 c
 gsave  2268 1415 0 0 C 673.466 989.272 t 0 r /Helvetica-Bold findfont 7.60979 sf 0 0 m (\2550.08) show NC gr  black 1 1 1 c
 gsave  2268 1415 0 0 C 791.418 989.272 t 0 r /Helvetica-Bold findfont 7.60979 sf 0 0 m (1.00) show NC gr  black 1 1 1 c
 gsave  2268 1415 0 0 C 901.76 989.272 t 0 r /Helvetica-Bold findfont 7.60979 sf 0 0 m (0.09) show NC gr  black 1 1 1 c
 gsave  2268 1415 0 0 C 1012.1 989.272 t 0 r /Helvetica-Bold findfont 7.60979 sf 0 0 m (0.19) show NC gr  black 1 1 1 c
 gsave  2268 1415 0 0 C 1126.25 989.272 t 0 r /Helvetica-Bold findfont 7.60979 sf 0 0 m (0.09) show NC gr  black 1 1 1 c
 gsave  2268 1415 0 0 C 1236.59 989.272 t 0 r /Helvetica-Bold findfont 7.60979 sf 0 0 m (0.03) show NC gr  black 1 1 1 c
 gsave  2268 1415 0 0 C 1343.13 989.272 t 0 r /Helvetica-Bold findfont 7.60979 sf 0 0 m (\2550.03) show NC gr  black 1 1 1 c
 gsave  2268 1415 0 0 C 1457.27 989.272 t 0 r /Helvetica-Bold findfont 7.60979 sf 0 0 m (\2550.05) show NC gr  black 1 1 1 c
 gsave  2268 1415 0 0 C 1567.62 989.272 t 0 r /Helvetica-Bold findfont 7.60979 sf 0 0 m (\2550.01) show NC gr  black 1 1 1 c
 gsave  2268 1415 0 0 C 1681.76 989.272 t 0 r /Helvetica-Bold findfont 7.60979 sf 0 0 m (\2550.00) show NC gr  black 1 1 1 c
 gsave  2268 1415 0 0 C 1792.1 989.272 t 0 r /Helvetica-Bold findfont 7.60979 sf 0 0 m (\2550.12) show NC gr  black 1 1 1 c
 gsave  2268 1415 0 0 C 1906.25 989.272 t 0 r /Helvetica-Bold findfont 7.60979 sf 0 0 m (0.08) show NC gr  black 1 1 1 c
 gsave  2268 1415 0 0 C 448.977 1069.18 t 0 r /Helvetica-Bold findfont 7.60979 sf 0 0 m (\2550.04) show NC gr  black 1 1 1 c
 gsave  2268 1415 0 0 C 563.124 1069.18 t 0 r /Helvetica-Bold findfont 7.60979 sf 0 0 m (\2550.05) show NC gr  black 1 1 1 c
 gsave  2268 1415 0 0 C 677.271 1069.18 t 0 r /Helvetica-Bold findfont 7.60979 sf 0 0 m (1.00) show NC gr  black 1 1 1 c
 gsave  2268 1415 0 0 C 787.613 1069.18 t 0 r /Helvetica-Bold findfont 7.60979 sf 0 0 m (\2550.08) show NC gr  black 1 1 1 c
 gsave  2268 1415 0 0 C 901.76 1069.18 t 0 r /Helvetica-Bold findfont 7.60979 sf 0 0 m (0.09) show NC gr  black 1 1 1 c
 gsave  2268 1415 0 0 C 1012.1 1069.18 t 0 r /Helvetica-Bold findfont 7.60979 sf 0 0 m (0.17) show NC gr  black 1 1 1 c
 gsave  2268 1415 0 0 C 1126.25 1069.18 t 0 r /Helvetica-Bold findfont 7.60979 sf 0 0 m (0.06) show NC gr  black 1 1 1 c
 gsave  2268 1415 0 0 C 1236.59 1069.18 t 0 r /Helvetica-Bold findfont 7.60979 sf 0 0 m (0.03) show NC gr  black 1 1 1 c
 gsave  2268 1415 0 0 C 1343.13 1069.18 t 0 r /Helvetica-Bold findfont 7.60979 sf 0 0 m (\2550.02) show NC gr  black 1 1 1 c
 gsave  2268 1415 0 0 C 1457.27 1069.18 t 0 r /Helvetica-Bold findfont 7.60979 sf 0 0 m (\2550.03) show NC gr  black 1 1 1 c
 gsave  2268 1415 0 0 C 1567.62 1069.18 t 0 r /Helvetica-Bold findfont 7.60979 sf 0 0 m (\2550.01) show NC gr  black 1 1 1 c
 gsave  2268 1415 0 0 C 1681.76 1069.18 t 0 r /Helvetica-Bold findfont 7.60979 sf 0 0 m (\2550.00) show NC gr  black 1 1 1 c
 gsave  2268 1415 0 0 C 1792.1 1069.18 t 0 r /Helvetica-Bold findfont 7.60979 sf 0 0 m (\2550.07) show NC gr  black 1 1 1 c
 gsave  2268 1415 0 0 C 1906.25 1069.18 t 0 r /Helvetica-Bold findfont 7.60979 sf 0 0 m (0.05) show NC gr  black 1 1 1 c
 gsave  2268 1415 0 0 C 448.977 1149.08 t 0 r /Helvetica-Bold findfont 7.60979 sf 0 0 m (\2550.02) show NC gr  black 1 1 1 c
 gsave  2268 1415 0 0 C 566.929 1149.08 t 0 r /Helvetica-Bold findfont 7.60979 sf 0 0 m (1.00) show NC gr  black 1 1 1 c
 gsave  2268 1415 0 0 C 673.466 1149.08 t 0 r /Helvetica-Bold findfont 7.60979 sf 0 0 m (\2550.05) show NC gr  black 1 1 1 c
 gsave  2268 1415 0 0 C 787.613 1149.08 t 0 r /Helvetica-Bold findfont 7.60979 sf 0 0 m (\2550.06) show NC gr  black 1 1 1 c
 gsave  2268 1415 0 0 C 901.76 1149.08 t 0 r /Helvetica-Bold findfont 7.60979 sf 0 0 m (0.05) show NC gr  black 1 1 1 c
 gsave  2268 1415 0 0 C 1012.1 1149.08 t 0 r /Helvetica-Bold findfont 7.60979 sf 0 0 m (0.15) show NC gr  black 1 1 1 c
 gsave  2268 1415 0 0 C 1126.25 1149.08 t 0 r /Helvetica-Bold findfont 7.60979 sf 0 0 m (0.05) show NC gr  black 1 1 1 c
 gsave  2268 1415 0 0 C 1236.59 1149.08 t 0 r /Helvetica-Bold findfont 7.60979 sf 0 0 m (0.02) show NC gr  black 1 1 1 c
 gsave  2268 1415 0 0 C 1343.13 1149.08 t 0 r /Helvetica-Bold findfont 7.60979 sf 0 0 m (\2550.01) show NC gr  black 1 1 1 c
 gsave  2268 1415 0 0 C 1457.27 1149.08 t 0 r /Helvetica-Bold findfont 7.60979 sf 0 0 m (\2550.01) show NC gr  black 1 1 1 c
 gsave  2268 1415 0 0 C 1567.62 1149.08 t 0 r /Helvetica-Bold findfont 7.60979 sf 0 0 m (\2550.00) show NC gr  black 1 1 1 c
 gsave  2268 1415 0 0 C 1681.76 1149.08 t 0 r /Helvetica-Bold findfont 7.60979 sf 0 0 m (\2550.00) show NC gr  black 1 1 1 c
 gsave  2268 1415 0 0 C 1792.1 1149.08 t 0 r /Helvetica-Bold findfont 7.60979 sf 0 0 m (\2550.03) show NC gr  black 1 1 1 c
 gsave  2268 1415 0 0 C 1906.25 1149.08 t 0 r /Helvetica-Bold findfont 7.60979 sf 0 0 m (0.02) show NC gr  black 1 1 1 c
 gsave  2268 1415 0 0 C 452.782 1232.79 t 0 r /Helvetica-Bold findfont 7.60979 sf 0 0 m (1.00) show NC gr  black 1 1 1 c
 gsave  2268 1415 0 0 C 563.124 1232.79 t 0 r /Helvetica-Bold findfont 7.60979 sf 0 0 m (\2550.02) show NC gr  black 1 1 1 c
 gsave  2268 1415 0 0 C 673.466 1232.79 t 0 r /Helvetica-Bold findfont 7.60979 sf 0 0 m (\2550.04) show NC gr  black 1 1 1 c
 gsave  2268 1415 0 0 C 787.613 1232.79 t 0 r /Helvetica-Bold findfont 7.60979 sf 0 0 m (\2550.06) show NC gr  black 1 1 1 c
 gsave  2268 1415 0 0 C 901.76 1232.79 t 0 r /Helvetica-Bold findfont 7.60979 sf 0 0 m (0.08) show NC gr  black 1 1 1 c
 gsave  2268 1415 0 0 C 1012.1 1232.79 t 0 r /Helvetica-Bold findfont 7.60979 sf 0 0 m (0.05) show NC gr  black 1 1 1 c
 gsave  2268 1415 0 0 C 1126.25 1232.79 t 0 r /Helvetica-Bold findfont 7.60979 sf 0 0 m (0.02) show NC gr  black 1 1 1 c
 gsave  2268 1415 0 0 C 1236.59 1232.79 t 0 r /Helvetica-Bold findfont 7.60979 sf 0 0 m (0.04) show NC gr  black 1 1 1 c
 gsave  2268 1415 0 0 C 1343.13 1232.79 t 0 r /Helvetica-Bold findfont 7.60979 sf 0 0 m (\2550.04) show NC gr  black 1 1 1 c
 gsave  2268 1415 0 0 C 1457.27 1232.79 t 0 r /Helvetica-Bold findfont 7.60979 sf 0 0 m (\2550.04) show NC gr  black 1 1 1 c
 gsave  2268 1415 0 0 C 1567.62 1232.79 t 0 r /Helvetica-Bold findfont 7.60979 sf 0 0 m (\2550.00) show NC gr  black 1 1 1 c
 gsave  2268 1415 0 0 C 1681.76 1232.79 t 0 r /Helvetica-Bold findfont 7.60979 sf 0 0 m (\2550.00) show NC gr  black 1 1 1 c
 gsave  2268 1415 0 0 C 1792.1 1232.79 t 0 r /Helvetica-Bold findfont 7.60979 sf 0 0 m (\2550.15) show NC gr  black 1 1 1 c
 gsave  2268 1415 0 0 C 1906.25 1232.79 t 0 r /Helvetica-Bold findfont 7.60979 sf 0 0 m (0.06) show NC gr  black
 gsave  2268 1415 0 0 C 905.565 1346.93 t 0 r /Helvetica findfont 64.6832 sf 0 0 m (h_corr_reduced) show NC gr 
 gr  gr showpage
end
%%EOF
