%!PS-Adobe-2.0 EPSF-2.0
%%BoundingBox:  0 0 567 466
%%Title: : bWN10_cuts_afterFit
%%Creator: ROOT Version 6.10/06
%%CreationDate: Wed Apr 29 08:59:05 2020
%%DocumentNeededResources: ProcSet (FontSetInit)
%%EndComments
%%BeginProlog
80 dict begin
/s {stroke} def /l {lineto} def /m {moveto} def /t {translate} def
/r {rotate} def /rl {roll}  def /R {repeat} def
/d {rlineto} def /rm {rmoveto} def /gr {grestore} def /f {eofill} def
/c {setrgbcolor} def /black {0 setgray} def /sd {setdash} def
/cl {closepath} def /sf {scalefont setfont} def /lw {setlinewidth} def
/box {m dup 0 exch d exch 0 d 0 exch neg d cl} def
/NC{systemdict begin initclip end}def/C{NC box clip newpath}def
/bl {box s} def /bf {gsave box gsave f grestore 1 lw [] 0 sd s grestore} def /Y { 0 exch d} def /X { 0 d} def 
/K {{pop pop 0 moveto} exch kshow} bind def
/ita {/ang 15 def gsave [1 0 ang dup sin exch cos div 1 0 0] concat} def 
/mp {newpath /y exch def /x exch def} def
/side {[w .77 mul w .23 mul] .385 w mul sd w 0 l currentpoint t -144 r} def
/mr {mp x y w2 0 360 arc} def /m24 {mr s} def /m20 {mr f} def
/mb {mp x y w2 add m w2 neg 0 d 0 w neg d w 0 d 0 w d cl} def
/mt {mp x y w2 add m w2 neg w neg d w 0 d cl} def
/w4 {w 4 div} def
/w6 {w 6 div} def
/w8 {w 8 div} def
/m21 {mb f} def /m25 {mb s} def /m22 {mt f} def /m26{mt s} def
/m23 {mp x y w2 sub m w2 w d w neg 0 d cl f} def
/m27 {mp x y w2 add m w3 neg w2 neg d w3 w2 neg d w3 w2 d cl s} def
/m28 {mp x w2 sub y w2 sub w3 add m w3 0 d  0 w3 neg d w3 0 d 0 w3 d w3 0 d  0 w3 d w3 neg 0 d 0 w3 d w3 neg 0 d 0 w3 neg d w3 neg 0 d cl s } def
/m29 {mp gsave x w2 sub y w2 add w3 sub m currentpoint t 4 {side} repeat cl fill gr} def
/m30 {mp gsave x w2 sub y w2 add w3 sub m currentpoint t 4 {side} repeat cl s gr} def
/m31 {mp x y w2 sub m 0 w d x w2 sub y m w 0 d x w2 sub y w2 add m w w neg d x w2 sub y w2 sub m w w d s} def
/m32 {mp x y w2 sub m w2 w d w neg 0 d cl s} def
/m33 {mp x y w2 add m w3 neg w2 neg d w3 w2 neg d w3 w2 d cl f} def
/m34 {mp x w2 sub y w2 sub w3 add m w3 0 d  0 w3 neg d w3 0 d 0 w3 d w3 0 d  0 w3 d w3 neg 0 d 0 w3 d w3 neg 0 d 0 w3 neg d w3 neg 0 d cl f } def
/m35 {mp x y w2 add m w2 neg w2 neg d w2 w2 neg d w2 w2 d w2 neg w2 d x y w2 sub m 0 w d x w2 sub y m w 0 d s} def
/m36 {mb x w2 sub y w2 add m w w neg d x w2 sub y w2 sub m w w d s} def
/m37 {mp x y m w4 neg w2 d w4 neg w2 neg d w2 0 d  w4 neg w2 neg d w2 0 d w4 neg w2 d w2 0 d w4 neg w2 d w4 neg w2 neg d cl s} def
/m38 {mp x w4 sub y w2 add m w4 neg w4 neg d 0 w2 neg d w4 w4 neg d w2 0 d w4 w4 d 0 w2 d w4 neg w4 d w2 neg 0 d x y w2 sub m 0 w d x w2 sub y m w 0 d cl s} def
/m39 {mp x y m w4 neg w2 d w4 neg w2 neg d w2 0 d  w4 neg w2 neg d w2 0 d w4 neg w2 d w2 0 d w4 neg w2 d w4 neg w2 neg d cl f} def
/m40 {mp x y m w4 w2 d w4 w4 neg d w2 neg w4 neg d w2 w4 neg d w4 neg w4 neg d w4 neg w2 d w4 neg w2 neg d w4 neg w4 d w2 w4 d w2 neg w4 d w4 w4 d w4 w2 neg d cl s} def
/m41 {mp x y m w4 w2 d w4 w4 neg d w2 neg w4 neg d w2 w4 neg d w4 neg w4 neg d w4 neg w2 d w4 neg w2 neg d w4 neg w4 d w2 w4 d w2 neg w4 d w4 w4 d w4 w2 neg d cl f} def
/m42 {mp x y w2 add m w8 neg w2 -3 4 div mul d w2 -3 4 div mul w8 neg d w2 3 4 div mul w8 neg d w8 w2 -3 4 div mul d w8 w2 3 4 div mul d w2 3 4 div mul w8 d w2 -3 4 div mul w8 d w8 neg w2 3 4 div mul d cl s} def
/m43 {mp x y w2 add m w8 neg w2 -3 4 div mul d w2 -3 4 div mul w8 neg d w2 3 4 div mul w8 neg d w8 w2 -3 4 div mul d w8 w2 3 4 div mul d w2 3 4 div mul w8 d w2 -3 4 div mul w8 d w8 neg w2 3 4 div mul d cl f} def
/m44 {mp x y m w6 neg w2 d w2 2 3 div mul 0 d w6 neg w2 neg d w2 w6 d 0 w2 -2 3 div mul d w2 neg w6 d w6 w2 neg d w2 -2 3 div mul 0 d w6 w2 d w2 neg w6 neg d 0 w2 2 3 div mul d w2 w6 neg d cl s} def
/m45 {mp x y m w6 neg w2 d w2 2 3 div mul 0 d w6 neg w2 neg d w2 w6 d 0 w2 -2 3 div mul d w2 neg w6 d w6 w2 neg d w2 -2 3 div mul 0 d w6 w2 d w2 neg w6 neg d 0 w2 2 3 div mul d w2 w6 neg d cl f} def
/m46 {mp x y w4 add m w4 neg w4 d w4 neg w4 neg d  w4 w4 neg d w4 neg w4 neg d w4 w4 neg d w4 w4 d w4 w4 neg d w4 w4 d w4 neg w4 d w4 w4 d w4 neg w4 d w4 neg w4 neg d cl s} def
/m47 {mp x y w4 add m w4 neg w4 d w4 neg w4 neg d w4 w4 neg d w4 neg w4 neg d  w4 w4 neg d w4 w4 d w4 w4 neg d w4 w4 d w4 neg w4 d w4 w4 d w4 neg w4 d w4 neg w4 neg d cl f} def
/m48 {mp x y w4 add m w4 neg w4 d w4 neg w4 neg d w4 w4 neg d  w4 neg w4 neg d w4 w4 neg d w4 w4 d w4 w4 neg d w4 w4 d w4 neg w4 d w4 w4 d w4 neg w4 d w4 neg w4 neg d  w4 w4 neg d w4 neg w4 neg d w4 neg w4 d w4 w4 d cl f} def
/m49 {mp x w2 sub w3 add y w2 sub w3 add m  0 w3 neg d w3 0 d 0 w3 d w3 0 d 0 w3 d w3 neg 0 d 0 w3 d w3 neg 0 d 0 w3 neg d w3 neg 0 d 0 w3 neg d w3 0 d 0 w3 d w3 0 d 0 w3 neg d w3 neg 0 d cl f } def
/m2 {mp x y w2 sub m 0 w d x w2 sub y m w 0 d s} def
/m5 {mp x w2 sub y w2 sub m w w d x w2 sub y w2 add m w w neg d s} def
%%IncludeResource: ProcSet (FontSetInit)
%%IncludeResource: font Times-Roman
%%IncludeResource: font Times-Italic
%%IncludeResource: font Times-Bold
%%IncludeResource: font Times-BoldItalic
%%IncludeResource: font Helvetica
%%IncludeResource: font Helvetica-Oblique
%%IncludeResource: font Helvetica-Bold
%%IncludeResource: font Helvetica-BoldOblique
%%IncludeResource: font Courier
%%IncludeResource: font Courier-Oblique
%%IncludeResource: font Courier-Bold
%%IncludeResource: font Courier-BoldOblique
%%IncludeResource: font Symbol
%%IncludeResource: font ZapfDingbats
/reEncode {exch findfont dup length dict begin {1 index /FID eq  {pop pop} {def} ifelse } forall /Encoding exch def currentdict end dup /FontName get exch definefont pop } def [/Times-Bold /Times-Italic /Times-BoldItalic /Helvetica /Helvetica-Oblique
 /Helvetica-Bold /Helvetica-BoldOblique /Courier /Courier-Oblique /Courier-Bold /Courier-BoldOblique /Times-Roman /AvantGarde-Book /AvantGarde-BookOblique /AvantGarde-Demi /AvantGarde-DemiOblique /Bookman-Demi /Bookman-DemiItalic /Bookman-Light
 /Bookman-LightItalic /Helvetica-Narrow /Helvetica-Narrow-Bold /Helvetica-Narrow-BoldOblique /Helvetica-Narrow-Oblique /NewCenturySchlbk-Roman /NewCenturySchlbk-Bold /NewCenturySchlbk-BoldItalic /NewCenturySchlbk-Italic /Palatino-Bold
 /Palatino-BoldItalic /Palatino-Italic /Palatino-Roman ] {ISOLatin1Encoding reEncode } forall
%%EndProlog
%%BeginSetup
%%EndSetup
newpath  gsave  .25 .25 scale  gsave  0 0 t black[  ] 0 sd 3 lw 1 1 1 c 2268 1864 0 0 bf black 1 1 1 c 2245 1296 0 568 bf black 1 1 1 c 1796 1159 225 575 bf black 1796 1159 225 575 bl 1 1 1 c 1796 1159 225 575 bf black 1796 1159 225 575 bl 225 575 m
 1796 X s 225 606 m -31 Y s 260 590 m -15 Y s 296 590 m -15 Y s 332 590 m -15 Y s 368 590 m -15 Y s 404 606 m -31 Y s 440 590 m -15 Y s 476 590 m -15 Y s 512 590 m -15 Y s 548 590 m -15 Y s 584 606 m -31 Y s 620 590 m -15 Y s 656 590 m -15 Y s 691
 590 m -15 Y s 727 590 m -15 Y s 763 606 m -31 Y s 799 590 m -15 Y s 835 590 m -15 Y s 871 590 m -15 Y s 907 590 m -15 Y s 943 606 m -31 Y s 979 590 m -15 Y s 1015 590 m -15 Y s 1051 590 m -15 Y s 1087 590 m -15 Y s 1123 606 m -31 Y s 1158 590 m -15
 Y s 1194 590 m -15 Y s 1230 590 m -15 Y s 1266 590 m -15 Y s 1302 606 m -31 Y s 1338 590 m -15 Y s 1374 590 m -15 Y s 1410 590 m -15 Y s 1446 590 m -15 Y s 1482 606 m -31 Y s 1518 590 m -15 Y s 1554 590 m -15 Y s 1589 590 m -15 Y s 1625 590 m -15 Y
 s 1661 606 m -31 Y s 1697 590 m -15 Y s 1733 590 m -15 Y s 1769 590 m -15 Y s 1805 590 m -15 Y s 1841 606 m -31 Y s 1877 590 m -15 Y s 1913 590 m -15 Y s 1949 590 m -15 Y s 1985 590 m -15 Y s 2021 606 m -31 Y s
 gsave  2245 1296 0 568 C 1642.14 491.99 t 0 r /Helvetica findfont 42.4144 sf 0 0 m (obs_x_bWN10_cuts) show NC gr  225 1734 m 1796 X s 225 1703 m 31 Y s 260 1719 m 15 Y s 296 1719 m 15 Y s 332 1719 m 15 Y s 368 1719 m 15 Y s 404 1703 m 31 Y s 440
 1719 m 15 Y s 476 1719 m 15 Y s 512 1719 m 15 Y s 548 1719 m 15 Y s 584 1703 m 31 Y s 620 1719 m 15 Y s 656 1719 m 15 Y s 691 1719 m 15 Y s 727 1719 m 15 Y s 763 1703 m 31 Y s 799 1719 m 15 Y s 835 1719 m 15 Y s 871 1719 m 15 Y s 907 1719 m 15 Y s
 943 1703 m 31 Y s 979 1719 m 15 Y s 1015 1719 m 15 Y s 1051 1719 m 15 Y s 1087 1719 m 15 Y s 1123 1703 m 31 Y s 1158 1719 m 15 Y s 1194 1719 m 15 Y s 1230 1719 m 15 Y s 1266 1719 m 15 Y s 1302 1703 m 31 Y s 1338 1719 m 15 Y s 1374 1719 m 15 Y s 1410
 1719 m 15 Y s 1446 1719 m 15 Y s 1482 1703 m 31 Y s 1518 1719 m 15 Y s 1554 1719 m 15 Y s 1589 1719 m 15 Y s 1625 1719 m 15 Y s 1661 1703 m 31 Y s 1697 1719 m 15 Y s 1733 1719 m 15 Y s 1769 1719 m 15 Y s 1805 1719 m 15 Y s 1841 1703 m 31 Y s 1877
 1719 m 15 Y s 1913 1719 m 15 Y s 1949 1719 m 15 Y s 1985 1719 m 15 Y s 2021 1703 m 31 Y s 225 575 m 1159 Y s 285 672 m -60 X s 255 697 m -30 X s 255 722 m -30 X s 255 747 m -30 X s 285 772 m -60 X s 255 797 m -30 X s 255 822 m -30 X s 255 846 m -30
 X s 285 871 m -60 X s 255 896 m -30 X s 255 921 m -30 X s 255 946 m -30 X s 285 971 m -60 X s 255 996 m -30 X s 255 1021 m -30 X s 255 1046 m -30 X s 285 1071 m -60 X s 255 1096 m -30 X s 255 1121 m -30 X s 255 1145 m -30 X s 285 1170 m -60 X s 255
 1195 m -30 X s 255 1220 m -30 X s 255 1245 m -30 X s 285 1270 m -60 X s 255 1295 m -30 X s 255 1320 m -30 X s 255 1345 m -30 X s 285 1370 m -60 X s 255 1395 m -30 X s 255 1420 m -30 X s 255 1444 m -30 X s 285 1469 m -60 X s 255 1494 m -30 X s 255
 1519 m -30 X s 255 1544 m -30 X s 285 1569 m -60 X s 255 1594 m -30 X s 255 1619 m -30 X s 255 1644 m -30 X s 285 1669 m -60 X s 285 672 m -60 X s 255 647 m -30 X s 255 622 m -30 X s 255 597 m -30 X s 285 1669 m -60 X s 255 1694 m -30 X s 255 1719 m
 -30 X s
 gsave  2245 1296 0 568 C 188.976 654.901 t 0 r /Helvetica findfont 42.4144 sf 0 0 m (2) show NC gr 
 gsave  2245 1296 0 568 C 188.976 752.647 t 0 r /Helvetica findfont 42.4144 sf 0 0 m (4) show NC gr 
 gsave  2245 1296 0 568 C 188.976 856.91 t 0 r /Helvetica findfont 42.4144 sf 0 0 m (6) show NC gr 
 gsave  2245 1296 0 568 C 188.976 957.915 t 0 r /Helvetica findfont 42.4144 sf 0 0 m (8) show NC gr 
 gsave  2245 1296 0 568 C 166.169 1055.66 t 0 r /Helvetica findfont 42.4144 sf 0 0 m (10) show NC gr 
 gsave  2245 1296 0 568 C 166.169 1153.41 t 0 r /Helvetica findfont 42.4144 sf 0 0 m (12) show NC gr 
 gsave  2245 1296 0 568 C 166.169 1251.15 t 0 r /Helvetica findfont 42.4144 sf 0 0 m (14) show NC gr 
 gsave  2245 1296 0 568 C 166.169 1355.42 t 0 r /Helvetica findfont 42.4144 sf 0 0 m (16) show NC gr 
 gsave  2245 1296 0 568 C 166.169 1453.16 t 0 r /Helvetica findfont 42.4144 sf 0 0 m (18) show NC gr 
 gsave  2245 1296 0 568 C 166.169 1554.17 t 0 r /Helvetica findfont 42.4144 sf 0 0 m (20) show NC gr 
 gsave  2245 1296 0 568 C 166.169 1651.91 t 0 r /Helvetica findfont 42.4144 sf 0 0 m (22) show NC gr 
 gsave  2245 1296 0 568 C 110.779 1498.78 t 90 r /Helvetica findfont 42.4144 sf 0 0 m (Events / \( 1 \)) show NC gr  2021 575 m 1159 Y s 1960 672 m 61 X s 1990 697 m 31 X s 1990 722 m 31 X s 1990 747 m 31 X s 1960 772 m 61 X s 1990 797 m 31 X s 1990
 822 m 31 X s 1990 846 m 31 X s 1960 871 m 61 X s 1990 896 m 31 X s 1990 921 m 31 X s 1990 946 m 31 X s 1960 971 m 61 X s 1990 996 m 31 X s 1990 1021 m 31 X s 1990 1046 m 31 X s 1960 1071 m 61 X s 1990 1096 m 31 X s 1990 1121 m 31 X s 1990 1145 m 31
 X s 1960 1170 m 61 X s 1990 1195 m 31 X s 1990 1220 m 31 X s 1990 1245 m 31 X s 1960 1270 m 61 X s 1990 1295 m 31 X s 1990 1320 m 31 X s 1990 1345 m 31 X s 1960 1370 m 61 X s 1990 1395 m 31 X s 1990 1420 m 31 X s 1990 1444 m 31 X s 1960 1469 m 61 X
 s 1990 1494 m 31 X s 1990 1519 m 31 X s 1990 1544 m 31 X s 1960 1569 m 61 X s 1990 1594 m 31 X s 1990 1619 m 31 X s 1990 1644 m 31 X s 1960 1669 m 61 X s 1960 672 m 61 X s 1990 647 m 31 X s 1990 622 m 31 X s 1990 597 m 31 X s 1960 1669 m 61 X s 1990
 1694 m 31 X s 1990 1719 m 31 X s 1123 1420 m -898 X s 225 1413 m 13 Y s 1123 1420 m 898 X s 2021 1413 m 13 Y s 1123 1420 m 259 Y s 1116 1679 m 13 X s 1123 1420 m -204 Y s 1116 1216 m 13 X s /w 26 def /w2 {w 2 div} def /w3 {w 3 div} def 1123 1420 m20
 0 0 1 c 9 lw black 0 0 1 c 225 575 m 852 Y s 225 1427 m 1796 X s 1 0 0.2 c black 3 lw 1 0 0.2 c 2021 575 m -1796 X 852 Y 1796 X f 9 lw 0 0 1 c 0.647059 0.776471 0.909804 c black 3 lw 0.647059 0.776471 0.909804 c 2021 575 m -1796 X 852 Y 1796 X f 9
 lw 0 0 1 c 0.988235 0.866667 0.364706 c black 3 lw 0.988235 0.866667 0.364706 c 2021 575 m -1796 X 145 Y 1796 X f 9 lw 0 0 1 c 0.901961 0.439216 0.403922 c black 3 lw 0.901961 0.439216 0.403922 c 2021 575 m -1796 X 122 Y 1796 X f 9 lw 0 0 1 c
 0.509804 0.870588 0.407843 c black 3 lw 0.509804 0.870588 0.407843 c 2021 575 m -1796 X 88 Y 1796 X f 9 lw 0 0 1 c 0.709804 0.6 0.8 c black 3 lw 0.709804 0.6 0.8 c 2021 575 m -1796 X 30 Y 1796 X f 9 lw 0.4 0.4 0.6 c 3 lw black 0.4 0.4 0.6 c 1 lw <<
 /PatternType 1 /PaintType 2 /TilingType 1 /BBox [ 0 0 100 100 ] /XStep 100 /YStep 100 /PaintProc { begin gsave 0 0 m 100 100 l s gr end } >> [ 0.24 0 0 0.24 0 0 ] makepattern /P04 exch def /cs {[/Pattern /DeviceRGB] setcolorspace} def /FA {f
 [/DeviceRGB] setcolorspace} def cs 0.4 0.4 0.6 P04 setcolor 225 575 m 958 Y 1796 X -213 Y -1796 X -745 Y FA 3 lw 0 0 1 c 9 lw black 0 0 1 c 225 575 m 852 Y s 225 1427 m 1796 X s black 3 lw 1123 1420 m -898 X s 225 1413 m 13 Y s 1123 1420 m 898 X s
 2021 1413 m 13 Y s 1123 1420 m 259 Y s 1116 1679 m 13 X s 1123 1420 m -204 Y s 1116 1216 m 13 X s 1123 1420 m20 225 575 m 1796 X s 225 606 m -31 Y s 260 590 m -15 Y s 296 590 m -15 Y s 332 590 m -15 Y s 368 590 m -15 Y s 404 606 m -31 Y s 440 590 m
 -15 Y s 476 590 m -15 Y s 512 590 m -15 Y s 548 590 m -15 Y s 584 606 m -31 Y s 620 590 m -15 Y s 656 590 m -15 Y s 691 590 m -15 Y s 727 590 m -15 Y s 763 606 m -31 Y s 799 590 m -15 Y s 835 590 m -15 Y s 871 590 m -15 Y s 907 590 m -15 Y s 943 606
 m -31 Y s 979 590 m -15 Y s 1015 590 m -15 Y s 1051 590 m -15 Y s 1087 590 m -15 Y s 1123 606 m -31 Y s 1158 590 m -15 Y s 1194 590 m -15 Y s 1230 590 m -15 Y s 1266 590 m -15 Y s 1302 606 m -31 Y s 1338 590 m -15 Y s 1374 590 m -15 Y s 1410 590 m
 -15 Y s 1446 590 m -15 Y s 1482 606 m -31 Y s 1518 590 m -15 Y s 1554 590 m -15 Y s 1589 590 m -15 Y s 1625 590 m -15 Y s 1661 606 m -31 Y s 1697 590 m -15 Y s 1733 590 m -15 Y s 1769 590 m -15 Y s 1805 590 m -15 Y s 1841 606 m -31 Y s 1877 590 m
 -15 Y s 1913 590 m -15 Y s 1949 590 m -15 Y s 1985 590 m -15 Y s 2021 606 m -31 Y s 225 1734 m 1796 X s 225 1703 m 31 Y s 260 1719 m 15 Y s 296 1719 m 15 Y s 332 1719 m 15 Y s 368 1719 m 15 Y s 404 1703 m 31 Y s 440 1719 m 15 Y s 476 1719 m 15 Y s
 512 1719 m 15 Y s 548 1719 m 15 Y s 584 1703 m 31 Y s 620 1719 m 15 Y s 656 1719 m 15 Y s 691 1719 m 15 Y s 727 1719 m 15 Y s 763 1703 m 31 Y s 799 1719 m 15 Y s 835 1719 m 15 Y s 871 1719 m 15 Y s 907 1719 m 15 Y s 943 1703 m 31 Y s 979 1719 m 15 Y
 s 1015 1719 m 15 Y s 1051 1719 m 15 Y s 1087 1719 m 15 Y s 1123 1703 m 31 Y s 1158 1719 m 15 Y s 1194 1719 m 15 Y s 1230 1719 m 15 Y s 1266 1719 m 15 Y s 1302 1703 m 31 Y s 1338 1719 m 15 Y s 1374 1719 m 15 Y s 1410 1719 m 15 Y s 1446 1719 m 15 Y s
 1482 1703 m 31 Y s 1518 1719 m 15 Y s 1554 1719 m 15 Y s 1589 1719 m 15 Y s 1625 1719 m 15 Y s 1661 1703 m 31 Y s 1697 1719 m 15 Y s 1733 1719 m 15 Y s 1769 1719 m 15 Y s 1805 1719 m 15 Y s 1841 1703 m 31 Y s 1877 1719 m 15 Y s 1913 1719 m 15 Y s
 1949 1719 m 15 Y s 1985 1719 m 15 Y s 2021 1703 m 31 Y s 225 575 m 1159 Y s 285 672 m -60 X s 255 697 m -30 X s 255 722 m -30 X s 255 747 m -30 X s 285 772 m -60 X s 255 797 m -30 X s 255 822 m -30 X s 255 846 m -30 X s 285 871 m -60 X s 255 896 m
 -30 X s 255 921 m -30 X s 255 946 m -30 X s 285 971 m -60 X s 255 996 m -30 X s 255 1021 m -30 X s 255 1046 m -30 X s 285 1071 m -60 X s 255 1096 m -30 X s 255 1121 m -30 X s 255 1145 m -30 X s 285 1170 m -60 X s 255 1195 m -30 X s 255 1220 m -30 X
 s 255 1245 m -30 X s 285 1270 m -60 X s 255 1295 m -30 X s 255 1320 m -30 X s 255 1345 m -30 X s 285 1370 m -60 X s 255 1395 m -30 X s 255 1420 m -30 X s 255 1444 m -30 X s 285 1469 m -60 X s 255 1494 m -30 X s 255 1519 m -30 X s 255 1544 m -30 X s
 285 1569 m -60 X s 255 1594 m -30 X s 255 1619 m -30 X s 255 1644 m -30 X s 285 1669 m -60 X s 285 672 m -60 X s 255 647 m -30 X s 255 622 m -30 X s 255 597 m -30 X s 285 1669 m -60 X s 255 1694 m -30 X s 255 1719 m -30 X s 2021 575 m 1159 Y s 1960
 672 m 61 X s 1990 697 m 31 X s 1990 722 m 31 X s 1990 747 m 31 X s 1960 772 m 61 X s 1990 797 m 31 X s 1990 822 m 31 X s 1990 846 m 31 X s 1960 871 m 61 X s 1990 896 m 31 X s 1990 921 m 31 X s 1990 946 m 31 X s 1960 971 m 61 X s 1990 996 m 31 X s
 1990 1021 m 31 X s 1990 1046 m 31 X s 1960 1071 m 61 X s 1990 1096 m 31 X s 1990 1121 m 31 X s 1990 1145 m 31 X s 1960 1170 m 61 X s 1990 1195 m 31 X s 1990 1220 m 31 X s 1990 1245 m 31 X s 1960 1270 m 61 X s 1990 1295 m 31 X s 1990 1320 m 31 X s
 1990 1345 m 31 X s 1960 1370 m 61 X s 1990 1395 m 31 X s 1990 1420 m 31 X s 1990 1444 m 31 X s 1960 1469 m 61 X s 1990 1494 m 31 X s 1990 1519 m 31 X s 1990 1544 m 31 X s 1960 1569 m 61 X s 1990 1594 m 31 X s 1990 1619 m 31 X s 1990 1644 m 31 X s
 1960 1669 m 61 X s 1960 672 m 61 X s 1990 647 m 31 X s 1990 622 m 31 X s 1990 597 m 31 X s 1960 1669 m 61 X s 1990 1694 m 31 X s 1990 1719 m 31 X s
 gsave  2245 1296 0 568 C 1342.38 1674.72 t 0 r /Helvetica findfont 58.7276 sf 0 0 m (Data) show NC gr  1233 1691 m20
 gsave  2245 1296 0 568 C 1342.38 1603.04 t 0 r /Helvetica findfont 58.7276 sf 0 0 m (Standard Model) show NC gr  0.4 0.4 0.6 c cs 0.4 0.4 0.6 P04 setcolor 1156 1591 m 155 X 52 Y -155 X FA 0 0 1 c 1156 1617 m 155 X s black
 gsave  2245 1296 0 568 C 1342.38 1528.1 t 0 r /Helvetica findfont 58.7276 sf 0 0 m (bWN_500_380) show NC gr  1 0 0.2 c 1156 1518 m 155 X 51 Y -155 X f 1156 1569 m 155 X s 1156 1518 m 155 X s 1311 1518 m 51 Y s 1156 1518 m 51 Y s black
 gsave  2245 1296 0 568 C 1342.38 1456.42 t 0 r /Helvetica findfont 58.7276 sf 0 0 m (ttbar) show NC gr  0.647059 0.776471 0.909804 c 1156 1444 m 155 X 52 Y -155 X f 1156 1496 m 155 X s 1156 1444 m 155 X s 1311 1444 m 52 Y s 1156 1444 m 52 Y s black
 gsave  2245 1296 0 568 C 1342.38 1381.48 t 0 r /Helvetica findfont 58.7276 sf 0 0 m (wjets) show NC gr  0.988235 0.866667 0.364706 c 1156 1370 m 155 X 52 Y -155 X f 1156 1422 m 155 X s 1156 1370 m 155 X s 1311 1370 m 52 Y s 1156 1370 m 52 Y s black
 gsave  2245 1296 0 568 C 1342.38 1306.54 t 0 r /Helvetica findfont 58.7276 sf 0 0 m (ttV) show NC gr  0.901961 0.439216 0.403922 c 1156 1297 m 155 X 51 Y -155 X f 1156 1348 m 155 X s 1156 1297 m 155 X s 1311 1297 m 51 Y s 1156 1297 m 51 Y s black
 gsave  2245 1296 0 568 C 1342.38 1234.86 t 0 r /Helvetica findfont 58.7276 sf 0 0 m (singletop) show NC gr  0.509804 0.870588 0.407843 c 1156 1223 m 155 X 52 Y -155 X f 1156 1275 m 155 X s 1156 1223 m 155 X s 1311 1223 m 52 Y s 1156 1223 m 52 Y s
 black
 gsave  2245 1296 0 568 C 1342.38 1159.92 t 0 r /Helvetica findfont 58.7276 sf 0 0 m (multiboson) show NC gr  0.709804 0.6 0.8 c 1156 1149 m 155 X 52 Y -155 X f 1156 1201 m 155 X s 1156 1149 m 155 X s 1311 1149 m 52 Y s 1156 1149 m 52 Y s black 1 1 1
 c 2245 531 0 19 bf black 1 1 1 c 1796 369 225 178 bf black 1796 369 225 178 bl 1 1 1 c 1796 369 225 178 bf black 1796 369 225 178 bl 225 178 m 1796 X s 225 203 m -25 Y s 260 191 m -13 Y s 296 191 m -13 Y s 332 191 m -13 Y s 368 191 m -13 Y s 404 203
 m -25 Y s 440 191 m -13 Y s 476 191 m -13 Y s 512 191 m -13 Y s 548 191 m -13 Y s 584 203 m -25 Y s 620 191 m -13 Y s 656 191 m -13 Y s 691 191 m -13 Y s 727 191 m -13 Y s 763 203 m -25 Y s 799 191 m -13 Y s 835 191 m -13 Y s 871 191 m -13 Y s 907
 191 m -13 Y s 943 203 m -25 Y s 979 191 m -13 Y s 1015 191 m -13 Y s 1051 191 m -13 Y s 1087 191 m -13 Y s 1123 203 m -25 Y s 1158 191 m -13 Y s 1194 191 m -13 Y s 1230 191 m -13 Y s 1266 191 m -13 Y s 1302 203 m -25 Y s 1338 191 m -13 Y s 1374 191
 m -13 Y s 1410 191 m -13 Y s 1446 191 m -13 Y s 1482 203 m -25 Y s 1518 191 m -13 Y s 1554 191 m -13 Y s 1589 191 m -13 Y s 1625 191 m -13 Y s 1661 203 m -25 Y s 1697 191 m -13 Y s 1733 191 m -13 Y s 1769 191 m -13 Y s 1805 191 m -13 Y s 1841 203 m
 -25 Y s 1877 191 m -13 Y s 1913 191 m -13 Y s 1949 191 m -13 Y s 1985 191 m -13 Y s 2021 203 m -25 Y s
 gsave  2245 531 0 19 C 175.944 107.521 t 0 r /Helvetica findfont 65.1723 sf 0 0 m (0.5) show NC gr 
 gsave  2245 531 0 19 C 358.403 107.521 t 0 r /Helvetica findfont 65.1723 sf 0 0 m (0.6) show NC gr 
 gsave  2245 531 0 19 C 537.605 107.521 t 0 r /Helvetica findfont 65.1723 sf 0 0 m (0.7) show NC gr 
 gsave  2245 531 0 19 C 716.807 107.521 t 0 r /Helvetica findfont 65.1723 sf 0 0 m (0.8) show NC gr 
 gsave  2245 531 0 19 C 896.009 107.521 t 0 r /Helvetica findfont 65.1723 sf 0 0 m (0.9) show NC gr 
 gsave  2245 531 0 19 C 1107.79 107.521 t 0 r /Helvetica findfont 65.1723 sf 0 0 m (1) show NC gr 
 gsave  2245 531 0 19 C 1260.93 107.521 t 0 r /Helvetica findfont 65.1723 sf 0 0 m (1.1) show NC gr 
 gsave  2245 531 0 19 C 1433.61 107.521 t 0 r /Helvetica findfont 65.1723 sf 0 0 m (1.2) show NC gr 
 gsave  2245 531 0 19 C 1612.82 107.521 t 0 r /Helvetica findfont 65.1723 sf 0 0 m (1.3) show NC gr 
 gsave  2245 531 0 19 C 1795.28 107.521 t 0 r /Helvetica findfont 65.1723 sf 0 0 m (1.4) show NC gr 
 gsave  2245 531 0 19 C 1974.48 107.521 t 0 r /Helvetica findfont 65.1723 sf 0 0 m (1.5) show NC gr 
 gsave  2245 531 0 19 C 1436.87 48.8732 t 0 r /Helvetica findfont 65.1723 sf 0 0 m (obs_x_bWN10_cuts) show NC gr  225 178 m 369 Y s 271 178 m -46 X s 248 212 m -23 X s 248 245 m -23 X s 248 279 m -23 X s 248 312 m -23 X s 271 346 m -46 X s 248 379 m
 -23 X s 248 413 m -23 X s 248 446 m -23 X s 248 480 m -23 X s 271 514 m -46 X s 271 514 m -46 X s 248 547 m -23 X s
 gsave  2245 531 0 19 C 166.169 153.136 t 0 r /Helvetica findfont 65.1723 sf 0 0 m (0) show NC gr 
 gsave  2245 531 0 19 C 179.202 322.563 t 0 r /Helvetica findfont 65.1723 sf 0 0 m (1) show NC gr 
 gsave  2245 531 0 19 C 166.169 488.732 t 0 r /Helvetica findfont 65.1723 sf 0 0 m (2) show NC gr 
 gsave  2245 531 0 19 C 81.4553 182.46 t 90 r /Helvetica findfont 65.1723 sf 0 0 m (Data / Model) show NC gr  0.4 0.4 0.6 c black 0.4 0.4 0.6 c cs 0.4 0.4 0.6 P04 setcolor 225 178 m 189 Y 1796 X -42 Y -1796 X -147 Y FA black 1123 344 m 51 Y s 1116
 395 m 13 X s 1123 344 m -40 Y s 1116 304 m 13 X s 1123 344 m20 1 0 0 c 3 lw 1123 344 m21 black[ 12 12] 0 sd 3 lw 225 346 m 1796 X s[ 4 8] 0 sd 225 262 m 1796 X s 225 430 m 1796 X s 225 514 m 1796 X s[  ] 0 sd 225 178 m 1796 X s 225 203 m -25 Y s 260
 191 m -13 Y s 296 191 m -13 Y s 332 191 m -13 Y s 368 191 m -13 Y s 404 203 m -25 Y s 440 191 m -13 Y s 476 191 m -13 Y s 512 191 m -13 Y s 548 191 m -13 Y s 584 203 m -25 Y s 620 191 m -13 Y s 656 191 m -13 Y s 691 191 m -13 Y s 727 191 m -13 Y s
 763 203 m -25 Y s 799 191 m -13 Y s 835 191 m -13 Y s 871 191 m -13 Y s 907 191 m -13 Y s 943 203 m -25 Y s 979 191 m -13 Y s 1015 191 m -13 Y s 1051 191 m -13 Y s 1087 191 m -13 Y s 1123 203 m -25 Y s 1158 191 m -13 Y s 1194 191 m -13 Y s 1230 191
 m -13 Y s 1266 191 m -13 Y s 1302 203 m -25 Y s 1338 191 m -13 Y s 1374 191 m -13 Y s 1410 191 m -13 Y s 1446 191 m -13 Y s 1482 203 m -25 Y s 1518 191 m -13 Y s 1554 191 m -13 Y s 1589 191 m -13 Y s 1625 191 m -13 Y s 1661 203 m -25 Y s 1697 191 m
 -13 Y s 1733 191 m -13 Y s 1769 191 m -13 Y s 1805 191 m -13 Y s 1841 203 m -25 Y s 1877 191 m -13 Y s 1913 191 m -13 Y s 1949 191 m -13 Y s 1985 191 m -13 Y s 2021 203 m -25 Y s 225 178 m 369 Y s 271 178 m -46 X s 248 212 m -23 X s 248 245 m -23 X
 s 248 279 m -23 X s 248 312 m -23 X s 271 346 m -46 X s 248 379 m -23 X s 248 413 m -23 X s 248 446 m -23 X s 248 480 m -23 X s 271 514 m -46 X s 271 514 m -46 X s 248 547 m -23 X s
 gr  gr showpage
end
%%EOF
