%!PS-Adobe-2.0 EPSF-2.0
%%BoundingBox:  0 0 567 366
%%Title: : fit_parameters
%%Creator: ROOT Version 6.16/00
%%CreationDate: Wed Apr 15 16:03:53 2020
%%DocumentNeededResources: ProcSet (FontSetInit)
%%EndComments
%%BeginProlog
80 dict begin
/s {stroke} def /l {lineto} def /m {moveto} def /t {translate} def
/r {rotate} def /rl {roll}  def /R {repeat} def
/d {rlineto} def /rm {rmoveto} def /gr {grestore} def /f {eofill} def
/c {setrgbcolor} def /black {0 setgray} def /sd {setdash} def
/cl {closepath} def /sf {scalefont setfont} def /lw {setlinewidth} def
/box {m dup 0 exch d exch 0 d 0 exch neg d cl} def
/NC{systemdict begin initclip end}def/C{NC box clip newpath}def
/bl {box s} def /bf {gsave box gsave f grestore 1 lw [] 0 sd s grestore} def /Y { 0 exch d} def /X { 0 d} def 
/K {{pop pop 0 moveto} exch kshow} bind def
/ita {/ang 15 def gsave [1 0 ang dup sin exch cos div 1 0 0] concat} def 
/mp {newpath /y exch def /x exch def} def
/side {[w .77 mul w .23 mul] .385 w mul sd w 0 l currentpoint t -144 r} def
/mr {mp x y w2 0 360 arc} def /m24 {mr s} def /m20 {mr f} def
/mb {mp x y w2 add m w2 neg 0 d 0 w neg d w 0 d 0 w d cl} def
/mt {mp x y w2 add m w2 neg w neg d w 0 d cl} def
/w4 {w 4 div} def
/w6 {w 6 div} def
/w8 {w 8 div} def
/m21 {mb f} def /m25 {mb s} def /m22 {mt f} def /m26{mt s} def
/m23 {mp x y w2 sub m w2 w d w neg 0 d cl f} def
/m27 {mp x y w2 add m w3 neg w2 neg d w3 w2 neg d w3 w2 d cl s} def
/m28 {mp x w2 sub y w2 sub w3 add m w3 0 d  0 w3 neg d w3 0 d 0 w3 d w3 0 d  0 w3 d w3 neg 0 d 0 w3 d w3 neg 0 d 0 w3 neg d w3 neg 0 d cl s } def
/m29 {mp gsave x w2 sub y w2 add w3 sub m currentpoint t 4 {side} repeat cl fill gr} def
/m30 {mp gsave x w2 sub y w2 add w3 sub m currentpoint t 4 {side} repeat cl s gr} def
/m31 {mp x y w2 sub m 0 w d x w2 sub y m w 0 d x w2 sub y w2 add m w w neg d x w2 sub y w2 sub m w w d s} def
/m32 {mp x y w2 sub m w2 w d w neg 0 d cl s} def
/m33 {mp x y w2 add m w3 neg w2 neg d w3 w2 neg d w3 w2 d cl f} def
/m34 {mp x w2 sub y w2 sub w3 add m w3 0 d  0 w3 neg d w3 0 d 0 w3 d w3 0 d  0 w3 d w3 neg 0 d 0 w3 d w3 neg 0 d 0 w3 neg d w3 neg 0 d cl f } def
/m35 {mp x y w2 add m w2 neg w2 neg d w2 w2 neg d w2 w2 d w2 neg w2 d x y w2 sub m 0 w d x w2 sub y m w 0 d s} def
/m36 {mb x w2 sub y w2 add m w w neg d x w2 sub y w2 sub m w w d s} def
/m37 {mp x y m w4 neg w2 d w4 neg w2 neg d w2 0 d  w4 neg w2 neg d w2 0 d w4 neg w2 d w2 0 d w4 neg w2 d w4 neg w2 neg d cl s} def
/m38 {mp x w4 sub y w2 add m w4 neg w4 neg d 0 w2 neg d w4 w4 neg d w2 0 d w4 w4 d 0 w2 d w4 neg w4 d w2 neg 0 d x y w2 sub m 0 w d x w2 sub y m w 0 d cl s} def
/m39 {mp x y m w4 neg w2 d w4 neg w2 neg d w2 0 d  w4 neg w2 neg d w2 0 d w4 neg w2 d w2 0 d w4 neg w2 d w4 neg w2 neg d cl f} def
/m40 {mp x y m w4 w2 d w4 w4 neg d w2 neg w4 neg d w2 w4 neg d w4 neg w4 neg d w4 neg w2 d w4 neg w2 neg d w4 neg w4 d w2 w4 d w2 neg w4 d w4 w4 d w4 w2 neg d cl s} def
/m41 {mp x y m w4 w2 d w4 w4 neg d w2 neg w4 neg d w2 w4 neg d w4 neg w4 neg d w4 neg w2 d w4 neg w2 neg d w4 neg w4 d w2 w4 d w2 neg w4 d w4 w4 d w4 w2 neg d cl f} def
/m42 {mp x y w2 add m w8 neg w2 -3 4 div mul d w2 -3 4 div mul w8 neg d w2 3 4 div mul w8 neg d w8 w2 -3 4 div mul d w8 w2 3 4 div mul d w2 3 4 div mul w8 d w2 -3 4 div mul w8 d w8 neg w2 3 4 div mul d cl s} def
/m43 {mp x y w2 add m w8 neg w2 -3 4 div mul d w2 -3 4 div mul w8 neg d w2 3 4 div mul w8 neg d w8 w2 -3 4 div mul d w8 w2 3 4 div mul d w2 3 4 div mul w8 d w2 -3 4 div mul w8 d w8 neg w2 3 4 div mul d cl f} def
/m44 {mp x y m w6 neg w2 d w2 2 3 div mul 0 d w6 neg w2 neg d w2 w6 d 0 w2 -2 3 div mul d w2 neg w6 d w6 w2 neg d w2 -2 3 div mul 0 d w6 w2 d w2 neg w6 neg d 0 w2 2 3 div mul d w2 w6 neg d cl s} def
/m45 {mp x y m w6 neg w2 d w2 2 3 div mul 0 d w6 neg w2 neg d w2 w6 d 0 w2 -2 3 div mul d w2 neg w6 d w6 w2 neg d w2 -2 3 div mul 0 d w6 w2 d w2 neg w6 neg d 0 w2 2 3 div mul d w2 w6 neg d cl f} def
/m46 {mp x y w4 add m w4 neg w4 d w4 neg w4 neg d  w4 w4 neg d w4 neg w4 neg d w4 w4 neg d w4 w4 d w4 w4 neg d w4 w4 d w4 neg w4 d w4 w4 d w4 neg w4 d w4 neg w4 neg d cl s} def
/m47 {mp x y w4 add m w4 neg w4 d w4 neg w4 neg d w4 w4 neg d w4 neg w4 neg d  w4 w4 neg d w4 w4 d w4 w4 neg d w4 w4 d w4 neg w4 d w4 w4 d w4 neg w4 d w4 neg w4 neg d cl f} def
/m48 {mp x y w4 add m w4 neg w4 d w4 neg w4 neg d w4 w4 neg d  w4 neg w4 neg d w4 w4 neg d w4 w4 d w4 w4 neg d w4 w4 d w4 neg w4 d w4 w4 d w4 neg w4 d w4 neg w4 neg d  w4 w4 neg d w4 neg w4 neg d w4 neg w4 d w4 w4 d cl f} def
/m49 {mp x w2 sub w3 add y w2 sub w3 add m  0 w3 neg d w3 0 d 0 w3 d w3 0 d 0 w3 d w3 neg 0 d 0 w3 d w3 neg 0 d 0 w3 neg d w3 neg 0 d 0 w3 neg d w3 0 d 0 w3 d w3 0 d 0 w3 neg d w3 neg 0 d cl f } def
/m2 {mp x y w2 sub m 0 w d x w2 sub y m w 0 d s} def
/m5 {mp x w2 sub y w2 sub m w w d x w2 sub y w2 add m w w neg d s} def
%%IncludeResource: ProcSet (FontSetInit)
%%IncludeResource: font Times-Roman
%%IncludeResource: font Times-Italic
%%IncludeResource: font Times-Bold
%%IncludeResource: font Times-BoldItalic
%%IncludeResource: font Helvetica
%%IncludeResource: font Helvetica-Oblique
%%IncludeResource: font Helvetica-Bold
%%IncludeResource: font Helvetica-BoldOblique
%%IncludeResource: font Courier
%%IncludeResource: font Courier-Oblique
%%IncludeResource: font Courier-Bold
%%IncludeResource: font Courier-BoldOblique
%%IncludeResource: font Symbol
%%IncludeResource: font ZapfDingbats
/reEncode {exch findfont dup length dict begin {1 index /FID eq  {pop pop} {def} ifelse } forall /Encoding exch def currentdict end dup /FontName get exch definefont pop } def [/Times-Bold /Times-Italic /Times-BoldItalic /Helvetica /Helvetica-Oblique
 /Helvetica-Bold /Helvetica-BoldOblique /Courier /Courier-Oblique /Courier-Bold /Courier-BoldOblique /Times-Roman /AvantGarde-Book /AvantGarde-BookOblique /AvantGarde-Demi /AvantGarde-DemiOblique /Bookman-Demi /Bookman-DemiItalic /Bookman-Light
 /Bookman-LightItalic /Helvetica-Narrow /Helvetica-Narrow-Bold /Helvetica-Narrow-BoldOblique /Helvetica-Narrow-Oblique /NewCenturySchlbk-Roman /NewCenturySchlbk-Bold /NewCenturySchlbk-BoldItalic /NewCenturySchlbk-Italic /Palatino-Bold
 /Palatino-BoldItalic /Palatino-Italic /Palatino-Roman ] {ISOLatin1Encoding reEncode } forall
%%EndProlog
%%BeginSetup
%%EndSetup
newpath  gsave  .25 .25 scale  gsave  0 0 t black[  ] 0 sd 3 lw 1 1 1 c 445 10 1358 136 bf black 1 1 1 c 2268 1464 0 0 bf black 1 1 1 c 1361 1171 680 146 bf black 1361 1171 680 146 bl 1 1 1 c 1361 1171 680 146 bf black 1361 1171 680 146 bl 680 146 m
 1361 X s 692 173 m -27 Y s 736 160 m -14 Y s 781 160 m -14 Y s 825 160 m -14 Y s 869 160 m -14 Y s 914 173 m -27 Y s 958 160 m -14 Y s 1003 160 m -14 Y s 1047 160 m -14 Y s 1092 160 m -14 Y s 1136 173 m -27 Y s 1180 160 m -14 Y s 1225 160 m -14 Y s
 1269 160 m -14 Y s 1314 160 m -14 Y s 1358 173 m -27 Y s 1403 160 m -14 Y s 1447 160 m -14 Y s 1492 160 m -14 Y s 1536 160 m -14 Y s 1580 173 m -27 Y s 1625 160 m -14 Y s 1669 160 m -14 Y s 1714 160 m -14 Y s 1758 160 m -14 Y s 1803 173 m -27 Y s
 1847 160 m -14 Y s 1892 160 m -14 Y s 1936 160 m -14 Y s 1980 160 m -14 Y s 2025 173 m -27 Y s 692 173 m -27 Y s 2025 173 m -27 Y s
 gsave  2268 1464 0 0 C 669.318 98.5964 t 0 r /Helvetica findfont 47.4021 sf 0 0 m (1.5) show NC gr 
 gsave  2268 1464 0 0 C 644.669 98.5964 t 0 r /Symbol findfont 47.4021 sf 0 0 m (-) show NC gr 
 gsave  2268 1464 0 0 C 915.809 98.5964 t 0 r /Helvetica findfont 47.4021 sf 0 0 m (1) show NC gr 
 gsave  2268 1464 0 0 C 889.263 98.5964 t 0 r /Symbol findfont 47.4021 sf 0 0 m (-) show NC gr 
 gsave  2268 1464 0 0 C 1114.9 98.5964 t 0 r /Helvetica findfont 47.4021 sf 0 0 m (0.5) show NC gr 
 gsave  2268 1464 0 0 C 1090.25 98.5964 t 0 r /Symbol findfont 47.4021 sf 0 0 m (-) show NC gr 
 gsave  2268 1464 0 0 C 1344.32 98.5964 t 0 r /Helvetica findfont 47.4021 sf 0 0 m (0) show NC gr 
 gsave  2268 1464 0 0 C 1547.2 98.5964 t 0 r /Helvetica findfont 47.4021 sf 0 0 m (0.5) show NC gr 
 gsave  2268 1464 0 0 C 1791.8 98.5964 t 0 r /Helvetica findfont 47.4021 sf 0 0 m (1) show NC gr 
 gsave  2268 1464 0 0 C 1990.89 98.5964 t 0 r /Helvetica findfont 47.4021 sf 0 0 m (1.5) show NC gr 
 gsave  2268 1464 0 0 C 2009.85 51.1943 t 0 r /Symbol findfont 47.4021 sf 0 0 m (a) show NC gr  680 146 m 1171 Y s
 gsave  2268 1464 0 0 C 481.605 147.895 t 0 r /Helvetica findfont 32.2334 sf 0 0 m (_xsec_wjets) show NC gr 
 gsave  2268 1464 0 0 C 460.748 147.895 t 0 r /Symbol findfont 32.2334 sf 0 0 m (a) show NC gr 
 gsave  2268 1464 0 0 C 515.735 166.855 t 0 r /Helvetica findfont 32.2334 sf 0 0 m (_xsec_ttV) show NC gr 
 gsave  2268 1464 0 0 C 494.878 166.855 t 0 r /Symbol findfont 32.2334 sf 0 0 m (a) show NC gr 
 gsave  2268 1464 0 0 C 426.619 189.608 t 0 r /Helvetica findfont 32.2334 sf 0 0 m (_xsec_singletop) show NC gr 
 gsave  2268 1464 0 0 C 405.762 189.608 t 0 r /Symbol findfont 32.2334 sf 0 0 m (a) show NC gr 
 gsave  2268 1464 0 0 C 400.074 208.569 t 0 r /Helvetica findfont 32.2334 sf 0 0 m (_xsec_multiboson) show NC gr 
 gsave  2268 1464 0 0 C 379.217 208.569 t 0 r /Symbol findfont 32.2334 sf 0 0 m (a) show NC gr 
 gsave  2268 1464 0 0 C 422.827 227.53 t 0 r /Helvetica findfont 32.2334 sf 0 0 m (_ttbar_Radiation) show NC gr 
 gsave  2268 1464 0 0 C 401.97 227.53 t 0 r /Symbol findfont 32.2334 sf 0 0 m (a) show NC gr 
 gsave  2268 1464 0 0 C 384.905 248.387 t 0 r /Helvetica findfont 32.2334 sf 0 0 m (_ttbar_HardScatter) show NC gr 
 gsave  2268 1464 0 0 C 364.048 248.387 t 0 r /Symbol findfont 32.2334 sf 0 0 m (a) show NC gr 
 gsave  2268 1464 0 0 C 350.776 271.14 t 0 r /Helvetica findfont 32.2334 sf 0 0 m (_ttbar_Fragmentation) show NC gr 
 gsave  2268 1464 0 0 C 329.919 271.14 t 0 r /Symbol findfont 32.2334 sf 0 0 m (a) show NC gr 
 gsave  2268 1464 0 0 C 587.786 293.893 t 0 r /Helvetica findfont 32.2334 sf 0 0 m (_prw) show NC gr 
 gsave  2268 1464 0 0 C 566.929 293.893 t 0 r /Symbol findfont 32.2334 sf 0 0 m (a) show NC gr 
 gsave  2268 1464 0 0 C 470.229 312.854 t 0 r /Helvetica findfont 32.2334 sf 0 0 m (_muTtvaSyst) show NC gr 
 gsave  2268 1464 0 0 C 449.372 312.854 t 0 r /Symbol findfont 32.2334 sf 0 0 m (a) show NC gr 
 gsave  2268 1464 0 0 C 474.021 331.815 t 0 r /Helvetica findfont 32.2334 sf 0 0 m (_muTtvaStat) show NC gr 
 gsave  2268 1464 0 0 C 453.164 331.815 t 0 r /Symbol findfont 32.2334 sf 0 0 m (a) show NC gr 
 gsave  2268 1464 0 0 C 489.19 352.672 t 0 r /Helvetica findfont 32.2334 sf 0 0 m (_muIsoSyst) show NC gr 
 gsave  2268 1464 0 0 C 468.333 352.672 t 0 r /Symbol findfont 32.2334 sf 0 0 m (a) show NC gr 
 gsave  2268 1464 0 0 C 494.878 371.632 t 0 r /Helvetica findfont 32.2334 sf 0 0 m (_muIsoStat) show NC gr 
 gsave  2268 1464 0 0 C 474.021 371.632 t 0 r /Symbol findfont 32.2334 sf 0 0 m (a) show NC gr 
 gsave  2268 1464 0 0 C 492.982 394.385 t 0 r /Helvetica findfont 32.2334 sf 0 0 m (_muEffSyst) show NC gr 
 gsave  2268 1464 0 0 C 472.125 394.385 t 0 r /Symbol findfont 32.2334 sf 0 0 m (a) show NC gr 
 gsave  2268 1464 0 0 C 498.67 413.346 t 0 r /Helvetica findfont 32.2334 sf 0 0 m (_muEffStat) show NC gr 
 gsave  2268 1464 0 0 C 477.813 413.346 t 0 r /Symbol findfont 32.2334 sf 0 0 m (a) show NC gr 
 gsave  2268 1464 0 0 C 578.306 436.099 t 0 r /Helvetica findfont 32.2334 sf 0 0 m (_lTag) show NC gr 
 gsave  2268 1464 0 0 C 557.449 436.099 t 0 r /Symbol findfont 32.2334 sf 0 0 m (a) show NC gr 
 gsave  2268 1464 0 0 C 606.747 456.956 t 0 r /Helvetica findfont 32.2334 sf 0 0 m (_jvt) show NC gr 
 gsave  2268 1464 0 0 C 585.89 456.956 t 0 r /Symbol findfont 32.2334 sf 0 0 m (a) show NC gr 
 gsave  2268 1464 0 0 C 540.384 474.021 t 0 r /Helvetica findfont 32.2334 sf 0 0 m (_elReco) show NC gr 
 gsave  2268 1464 0 0 C 519.527 474.021 t 0 r /Symbol findfont 32.2334 sf 0 0 m (a) show NC gr 
 gsave  2268 1464 0 0 C 572.617 494.878 t 0 r /Helvetica findfont 32.2334 sf 0 0 m (_elIso) show NC gr 
 gsave  2268 1464 0 0 C 551.76 494.878 t 0 r /Symbol findfont 32.2334 sf 0 0 m (a) show NC gr 
 gsave  2268 1464 0 0 C 589.682 515.735 t 0 r /Helvetica findfont 32.2334 sf 0 0 m (_elId) show NC gr 
 gsave  2268 1464 0 0 C 568.825 515.735 t 0 r /Symbol findfont 32.2334 sf 0 0 m (a) show NC gr 
 gsave  2268 1464 0 0 C 551.76 538.488 t 0 r /Helvetica findfont 32.2334 sf 0 0 m (_cextra) show NC gr 
 gsave  2268 1464 0 0 C 530.904 538.488 t 0 r /Symbol findfont 32.2334 sf 0 0 m (a) show NC gr 
 gsave  2268 1464 0 0 C 568.825 559.345 t 0 r /Helvetica findfont 32.2334 sf 0 0 m (_cTag) show NC gr 
 gsave  2268 1464 0 0 C 547.968 559.345 t 0 r /Symbol findfont 32.2334 sf 0 0 m (a) show NC gr 
 gsave  2268 1464 0 0 C 549.864 578.306 t 0 r /Helvetica findfont 32.2334 sf 0 0 m (_bextra) show NC gr 
 gsave  2268 1464 0 0 C 529.007 578.306 t 0 r /Symbol findfont 32.2334 sf 0 0 m (a) show NC gr 
 gsave  2268 1464 0 0 C 566.929 599.163 t 0 r /Helvetica findfont 32.2334 sf 0 0 m (_bTag) show NC gr 
 gsave  2268 1464 0 0 C 546.072 599.163 t 0 r /Symbol findfont 32.2334 sf 0 0 m (a) show NC gr 
 gsave  2268 1464 0 0 C 515.735 620.02 t 0 r /Helvetica findfont 32.2334 sf 0 0 m (_SigXSec) show NC gr 
 gsave  2268 1464 0 0 C 494.878 620.02 t 0 r /Symbol findfont 32.2334 sf 0 0 m (a) show NC gr 
 gsave  2268 1464 0 0 C 436.099 638.98 t 0 r /Helvetica findfont 32.2334 sf 0 0 m (_PartonShower) show NC gr 
 gsave  2268 1464 0 0 C 415.242 638.98 t 0 r /Symbol findfont 32.2334 sf 0 0 m (a) show NC gr 
 gsave  2268 1464 0 0 C 525.215 661.733 t 0 r /Helvetica findfont 32.2334 sf 0 0 m (_Merging) show NC gr 
 gsave  2268 1464 0 0 C 504.358 661.733 t 0 r /Symbol findfont 32.2334 sf 0 0 m (a) show NC gr 
 gsave  2268 1464 0 0 C 474.021 680.694 t 0 r /Helvetica findfont 32.2334 sf 0 0 m (_MET_Scale) show NC gr 
 gsave  2268 1464 0 0 C 453.164 680.694 t 0 r /Symbol findfont 32.2334 sf 0 0 m (a) show NC gr 
 gsave  2268 1464 0 0 C 396.282 703.447 t 0 r /Helvetica findfont 32.2334 sf 0 0 m (_MET_Reso_perp) show NC gr 
 gsave  2268 1464 0 0 C 375.425 703.447 t 0 r /Symbol findfont 32.2334 sf 0 0 m (a) show NC gr 
 gsave  2268 1464 0 0 C 396.282 722.408 t 0 r /Helvetica findfont 32.2334 sf 0 0 m (_MET_Reso_para) show NC gr 
 gsave  2268 1464 0 0 C 375.425 722.408 t 0 r /Symbol findfont 32.2334 sf 0 0 m (a) show NC gr 
 gsave  2268 1464 0 0 C 375.425 743.265 t 0 r /Helvetica findfont 32.2334 sf 0 0 m (_JES_GroupedNP3) show NC gr 
 gsave  2268 1464 0 0 C 354.568 743.265 t 0 r /Symbol findfont 32.2334 sf 0 0 m (a) show NC gr 
 gsave  2268 1464 0 0 C 375.425 764.122 t 0 r /Helvetica findfont 32.2334 sf 0 0 m (_JES_GroupedNP2) show NC gr 
 gsave  2268 1464 0 0 C 354.568 764.122 t 0 r /Symbol findfont 32.2334 sf 0 0 m (a) show NC gr 
 gsave  2268 1464 0 0 C 381.113 784.979 t 0 r /Helvetica findfont 32.2334 sf 0 0 m (_JES_GroupedNP1) show NC gr 
 gsave  2268 1464 0 0 C 360.256 784.979 t 0 r /Symbol findfont 32.2334 sf 0 0 m (a) show NC gr 
 gsave  2268 1464 0 0 C 246.491 803.94 t 0 r /Helvetica findfont 32.2334 sf 0 0 m (_JER_EffectiveNP7restTerm) show NC gr 
 gsave  2268 1464 0 0 C 225.634 803.94 t 0 r /Symbol findfont 32.2334 sf 0 0 m (a) show NC gr 
 gsave  2268 1464 0 0 C 375.425 824.797 t 0 r /Helvetica findfont 32.2334 sf 0 0 m (_JER_EffectiveNP6) show NC gr 
 gsave  2268 1464 0 0 C 354.568 824.797 t 0 r /Symbol findfont 32.2334 sf 0 0 m (a) show NC gr 
 gsave  2268 1464 0 0 C 375.425 845.654 t 0 r /Helvetica findfont 32.2334 sf 0 0 m (_JER_EffectiveNP5) show NC gr 
 gsave  2268 1464 0 0 C 354.568 845.654 t 0 r /Symbol findfont 32.2334 sf 0 0 m (a) show NC gr 
 gsave  2268 1464 0 0 C 375.425 864.614 t 0 r /Helvetica findfont 32.2334 sf 0 0 m (_JER_EffectiveNP4) show NC gr 
 gsave  2268 1464 0 0 C 354.568 864.614 t 0 r /Symbol findfont 32.2334 sf 0 0 m (a) show NC gr 
 gsave  2268 1464 0 0 C 375.425 885.471 t 0 r /Helvetica findfont 32.2334 sf 0 0 m (_JER_EffectiveNP3) show NC gr 
 gsave  2268 1464 0 0 C 354.568 885.471 t 0 r /Symbol findfont 32.2334 sf 0 0 m (a) show NC gr 
 gsave  2268 1464 0 0 C 375.425 906.328 t 0 r /Helvetica findfont 32.2334 sf 0 0 m (_JER_EffectiveNP2) show NC gr 
 gsave  2268 1464 0 0 C 354.568 906.328 t 0 r /Symbol findfont 32.2334 sf 0 0 m (a) show NC gr 
 gsave  2268 1464 0 0 C 381.113 927.185 t 0 r /Helvetica findfont 32.2334 sf 0 0 m (_JER_EffectiveNP1) show NC gr 
 gsave  2268 1464 0 0 C 360.256 927.185 t 0 r /Symbol findfont 32.2334 sf 0 0 m (a) show NC gr 
 gsave  2268 1464 0 0 C 301.477 948.042 t 0 r /Helvetica findfont 32.2334 sf 0 0 m (_JER_DataVsMC_MC16) show NC gr 
 gsave  2268 1464 0 0 C 280.62 948.042 t 0 r /Symbol findfont 32.2334 sf 0 0 m (a) show NC gr 
 gsave  2268 1464 0 0 C 491.086 968.899 t 0 r /Helvetica findfont 32.2334 sf 0 0 m (_Fact.\255Ren.) show NC gr 
 gsave  2268 1464 0 0 C 470.229 968.899 t 0 r /Symbol findfont 32.2334 sf 0 0 m (a) show NC gr 
 gsave  2268 1464 0 0 C 73.9473 989.756 t 0 r /Helvetica findfont 32.2334 sf 0 0 m (_EtaIntercalibration_NonClosure_posEta) show NC gr 
 gsave  2268 1464 0 0 C 53.0904 989.756 t 0 r /Symbol findfont 32.2334 sf 0 0 m (a) show NC gr 
 gsave  2268 1464 0 0 C 72.0512 1010.61 t 0 r /Helvetica findfont 32.2334 sf 0 0 m (_EtaIntercalibration_NonClosure_negEta) show NC gr 
 gsave  2268 1464 0 0 C 51.1943 1010.61 t 0 r /Symbol findfont 32.2334 sf 0 0 m (a) show NC gr 
 gsave  2268 1464 0 0 C 92.9081 1031.47 t 0 r /Helvetica findfont 32.2334 sf 0 0 m (_EtaIntercalibration_NonClosure_highE) show NC gr 
 gsave  2268 1464 0 0 C 72.0512 1031.47 t 0 r /Symbol findfont 32.2334 sf 0 0 m (a) show NC gr 
 gsave  2268 1464 0 0 C 377.321 1052.33 t 0 r /Helvetica findfont 32.2334 sf 0 0 m (_bWN9_cuts_bin_0) show NC gr 
 gsave  2268 1464 0 0 C 360.256 1052.33 t 0 r /Symbol findfont 32.2334 sf 0 0 m (g) show NC gr 
 gsave  2268 1464 0 0 C 377.321 1073.18 t 0 r /Helvetica findfont 32.2334 sf 0 0 m (_bWN8_cuts_bin_0) show NC gr 
 gsave  2268 1464 0 0 C 360.256 1073.18 t 0 r /Symbol findfont 32.2334 sf 0 0 m (g) show NC gr 
 gsave  2268 1464 0 0 C 377.321 1094.04 t 0 r /Helvetica findfont 32.2334 sf 0 0 m (_bWN7_cuts_bin_0) show NC gr 
 gsave  2268 1464 0 0 C 360.256 1094.04 t 0 r /Symbol findfont 32.2334 sf 0 0 m (g) show NC gr 
 gsave  2268 1464 0 0 C 377.321 1113 t 0 r /Helvetica findfont 32.2334 sf 0 0 m (_bWN6_cuts_bin_0) show NC gr 
 gsave  2268 1464 0 0 C 360.256 1113 t 0 r /Symbol findfont 32.2334 sf 0 0 m (g) show NC gr 
 gsave  2268 1464 0 0 C 377.321 1133.86 t 0 r /Helvetica findfont 32.2334 sf 0 0 m (_bWN5_cuts_bin_0) show NC gr 
 gsave  2268 1464 0 0 C 360.256 1133.86 t 0 r /Symbol findfont 32.2334 sf 0 0 m (g) show NC gr 
 gsave  2268 1464 0 0 C 377.321 1154.72 t 0 r /Helvetica findfont 32.2334 sf 0 0 m (_bWN4_cuts_bin_0) show NC gr 
 gsave  2268 1464 0 0 C 360.256 1154.72 t 0 r /Symbol findfont 32.2334 sf 0 0 m (g) show NC gr 
 gsave  2268 1464 0 0 C 377.321 1175.57 t 0 r /Helvetica findfont 32.2334 sf 0 0 m (_bWN3_cuts_bin_0) show NC gr 
 gsave  2268 1464 0 0 C 360.256 1175.57 t 0 r /Symbol findfont 32.2334 sf 0 0 m (g) show NC gr 
 gsave  2268 1464 0 0 C 377.321 1196.43 t 0 r /Helvetica findfont 32.2334 sf 0 0 m (_bWN2_cuts_bin_0) show NC gr 
 gsave  2268 1464 0 0 C 360.256 1196.43 t 0 r /Symbol findfont 32.2334 sf 0 0 m (g) show NC gr 
 gsave  2268 1464 0 0 C 377.321 1217.29 t 0 r /Helvetica findfont 32.2334 sf 0 0 m (_bWN1_cuts_bin_0) show NC gr 
 gsave  2268 1464 0 0 C 360.256 1217.29 t 0 r /Symbol findfont 32.2334 sf 0 0 m (g) show NC gr 
 gsave  2268 1464 0 0 C 358.36 1236.25 t 0 r /Helvetica findfont 32.2334 sf 0 0 m (_bWN10_cuts_bin_0) show NC gr 
 gsave  2268 1464 0 0 C 341.295 1236.25 t 0 r /Symbol findfont 32.2334 sf 0 0 m (g) show NC gr 
 gsave  2268 1464 0 0 C 310.958 1257.1 t 0 r /Helvetica findfont 32.2334 sf 0 0 m (_TCR_bWN_cuts_bin_0) show NC gr 
 gsave  2268 1464 0 0 C 293.893 1257.1 t 0 r /Symbol findfont 32.2334 sf 0 0 m (g) show NC gr 
 gsave  2268 1464 0 0 C 574.513 1277.96 t 0 r /Helvetica findfont 32.2334 sf 0 0 m (_ttbar) show NC gr 
 gsave  2268 1464 0 0 C 555.553 1277.96 t 0 r /Symbol findfont 32.2334 sf 0 0 m (m) show NC gr 
 gsave  2268 1464 0 0 C 585.89 1298.82 t 0 r /Helvetica findfont 32.2334 sf 0 0 m (_SIG) show NC gr 
 gsave  2268 1464 0 0 C 566.929 1298.82 t 0 r /Symbol findfont 32.2334 sf 0 0 m (m) show NC gr  680 157 m cl s 680 177 m cl s 680 198 m cl s 680 218 m cl s 680 239 m cl s 680 259 m cl s 680 280 m cl s 680 300 m cl s 680 321 m cl s 680 342 m cl s 680
 362 m cl s 680 383 m cl s 680 403 m cl s 680 424 m cl s 680 444 m cl s 680 465 m cl s 680 485 m cl s 680 506 m cl s 680 526 m cl s 680 547 m cl s 680 568 m cl s 680 588 m cl s 680 609 m cl s 680 629 m cl s 680 650 m cl s 680 670 m cl s 680 691 m cl
 s 680 711 m cl s 680 732 m cl s 680 752 m cl s 680 773 m cl s 680 794 m cl s 680 814 m cl s 680 835 m cl s 680 855 m cl s 680 876 m cl s 680 896 m cl s 680 917 m cl s 680 937 m cl s 680 958 m cl s 680 978 m cl s 680 999 m cl s 680 1020 m cl s 680
 1040 m cl s 680 1061 m cl s 680 1081 m cl s 680 1102 m cl s 680 1122 m cl s 680 1143 m cl s 680 1163 m cl s 680 1184 m cl s 680 1204 m cl s 680 1225 m cl s 680 1245 m cl s 680 1266 m cl s 680 1287 m cl s 680 1307 m cl s 680 157 m cl s 680 1307 m cl
 s /w 30 def /w2 {w 2 div} def /w3 {w 3 div} def 1394 157 1456 177 1480 198 1360 218 1182 239 1168 259 1358 280 1407 300 1358 321 1358 342 1359 362 1358 383 1360 403 1359 424 1360 444 1353 465 1358 485 1358 506 1359 526 1336 547 1336 568 1359 588
 1345 609 1358 629 1358 650 1358 670 1446 691 1490 711 1618 732 1379 752 1103 773 1661 794 1316 814 1449 835 1581 855 1299 876 1582 896 1452 917 1156 937 1655 958 1358 978 1364 999 1325 1020 1358 1040 1356 1061 1361 1081 1360 1102 1357 1122 1356 1143
 1355 1163 1360 1184 1360 1204 1355 1225 1358 1245 1359 1266 1363 1287 914 1307 57 { m20} R 1394 157 m -438 X s 956 153 m 7 Y s 1394 157 m 439 X s 1833 153 m 7 Y s 1456 177 m -433 X s 1023 173 m 8 Y s 1456 177 m 433 X s 1889 173 m 8 Y s 1480 198 m
 -437 X s 1043 194 m 8 Y s 1480 198 m 437 X s 1917 194 m 8 Y s 1360 218 m -442 X s 918 214 m 8 Y s 1360 218 m 441 X s 1801 214 m 8 Y s 1182 239 m -430 X s 752 235 m 8 Y s 1182 239 m 430 X s 1612 235 m 8 Y s 1168 259 m -401 X s 767 256 m 7 Y s 1168
 259 m 401 X s 1569 256 m 7 Y s 1358 280 m -235 X s 1123 276 m 8 Y s 1358 280 m 235 X s 1593 276 m 8 Y s 1407 300 m -480 X s 927 297 m 7 Y s 1407 300 m 480 X s 1887 297 m 7 Y s 1358 321 m -441 X s 917 317 m 8 Y s 1358 321 m 442 X s 1800 317 m 8 Y s
 1358 342 m -441 X s 917 338 m 7 Y s 1358 342 m 442 X s 1800 338 m 7 Y s 1359 362 m -442 X s 917 358 m 8 Y s 1359 362 m 441 X s 1800 358 m 8 Y s 1358 383 m -441 X s 917 379 m 7 Y s 1358 383 m 442 X s 1800 379 m 7 Y s 1360 403 m -442 X s 918 399 m 8 Y
 s 1360 403 m 441 X s 1801 399 m 8 Y s 1359 424 m -442 X s 917 420 m 8 Y s 1359 424 m 441 X s 1800 420 m 8 Y s 1360 444 m -444 X s 916 440 m 8 Y s 1360 444 m 445 X s 1805 440 m 8 Y s 1353 465 m -442 X s 911 461 m 8 Y s 1353 465 m 441 X s 1794 461 m 8
 Y s 1358 485 m -441 X s 917 482 m 7 Y s 1358 485 m 442 X s 1800 482 m 7 Y s 1358 506 m -442 X s 916 502 m 8 Y s 1358 506 m 441 X s 1799 502 m 8 Y s 1359 526 m -441 X s 918 523 m 7 Y s 1359 526 m 441 X s 1800 523 m 7 Y s 1336 547 m -441 X s 895 543 m
 8 Y s 1336 547 m 442 X s 1778 543 m 8 Y s 1336 568 m -441 X s 895 564 m 7 Y s 1336 568 m 441 X s 1777 564 m 7 Y s 1359 588 m -442 X s 917 584 m 8 Y s 1359 588 m 442 X s 1801 584 m 8 Y s 1345 609 m -442 X s 903 605 m 7 Y s 1345 609 m 441 X s 1786 605
 m 7 Y s 1358 629 m -441 X s 917 625 m 8 Y s 1358 629 m 442 X s 1800 625 m 8 Y s 1358 650 m -441 X s 917 646 m 8 Y s 1358 650 m 442 X s 1800 646 m 8 Y s 1358 670 m -441 X s 917 666 m 8 Y s 1358 670 m 442 X s 1800 666 m 8 Y s 1446 691 m -508 X s 938
 687 m 8 Y s 1446 691 m 509 X s 1955 687 m 8 Y s 1490 711 m -438 X s 1052 708 m 7 Y s 1490 711 m 439 X s 1929 708 m 7 Y s 1618 732 m -424 X s 1194 728 m 8 Y s 1618 732 m 423 X s 1379 752 m -445 X s 934 749 m 7 Y s 1379 752 m 444 X s 1823 749 m 7 Y s
 1103 773 m -401 X s 702 769 m 8 Y s 1103 773 m 400 X s 1503 769 m 8 Y s 1661 794 m -346 X s 1315 790 m 7 Y s 1661 794 m 347 X s 2008 790 m 7 Y s 1316 814 m -430 X s 886 810 m 8 Y s 1316 814 m 429 X s 1745 810 m 8 Y s 1449 835 m -427 X s 1022 831 m 7
 Y s 1449 835 m 426 X s 1875 831 m 7 Y s 1581 855 m -427 X s 1154 851 m 8 Y s 1581 855 m 426 X s 2007 851 m 8 Y s 1299 876 m -411 X s 888 872 m 7 Y s 1299 876 m 412 X s 1711 872 m 7 Y s 1582 896 m -424 X s 1158 892 m 8 Y s 1582 896 m 425 X s 2007 892
 m 8 Y s 1452 917 m -427 X s 1025 913 m 8 Y s 1452 917 m 426 X s 1878 913 m 8 Y s 1156 937 m -410 X s 746 934 m 7 Y s 1156 937 m 410 X s 1566 934 m 7 Y s 1655 958 m -414 X s 1241 954 m 8 Y s 1655 958 m 386 X s 1358 978 m -441 X s 917 975 m 7 Y s 1358
 978 m 442 X s 1800 975 m 7 Y s 1364 999 m -441 X s 923 995 m 8 Y s 1364 999 m 442 X s 1806 995 m 8 Y s 1325 1020 m -441 X s 884 1016 m 7 Y s 1325 1020 m 441 X s 1766 1016 m 7 Y s 1358 1040 m -441 X s 917 1036 m 8 Y s 1358 1040 m 442 X s 1800 1036 m
 8 Y s 1356 1061 m -23 X s 1333 1057 m 7 Y s 1356 1061 m 22 X s 1378 1057 m 7 Y s 1361 1081 m -20 X s 1341 1077 m 8 Y s 1361 1081 m 19 X s 1380 1077 m 8 Y s 1360 1102 m -17 X s 1343 1098 m 7 Y s 1360 1102 m 17 X s 1377 1098 m 7 Y s 1357 1122 m -15 X
 s 1342 1118 m 8 Y s 1357 1122 m 15 X s 1372 1118 m 8 Y s 1356 1143 m -13 X s 1343 1139 m 8 Y s 1356 1143 m 14 X s 1370 1139 m 8 Y s 1355 1163 m -13 X s 1342 1160 m 7 Y s 1355 1163 m 13 X s 1368 1160 m 7 Y s 1360 1184 m -8 X s 1352 1180 m 8 Y s 1360
 1184 m 8 X s 1368 1180 m 8 Y s 1360 1204 m -9 X s 1351 1201 m 7 Y s 1360 1204 m 8 X s 1368 1201 m 7 Y s 1355 1225 m -8 X s 1347 1221 m 8 Y s 1355 1225 m 7 X s 1362 1221 m 8 Y s 1358 1245 m -23 X s 1335 1242 m 7 Y s 1358 1245 m 24 X s 1382 1242 m 7 Y
 s 1359 1266 m -3 X s 1356 1262 m 8 Y s 1359 1266 m 3 X s 1362 1262 m 8 Y s 1363 1287 m -40 X s 1323 1283 m 7 Y s 1363 1287 m 40 X s 1403 1283 m 7 Y s 914 1307 m -77 X s 837 1303 m 8 Y s 914 1307 m 77 X s 991 1303 m 8 Y s 0 0 1 c 1356 1061 1361 1081
 1360 1102 1357 1122 1356 1143 1355 1163 1360 1184 1360 1204 1355 1225 1358 1245 1359 1266 1363 1287 914 1307 13 { m20} R 680 1317 m 1361 X s 692 1291 m 26 Y s 736 1304 m 13 Y s 781 1304 m 13 Y s 825 1304 m 13 Y s 869 1304 m 13 Y s 914 1291 m 26 Y s
 958 1304 m 13 Y s 1003 1304 m 13 Y s 1047 1304 m 13 Y s 1092 1304 m 13 Y s 1136 1291 m 26 Y s 1180 1304 m 13 Y s 1225 1304 m 13 Y s 1269 1304 m 13 Y s 1314 1304 m 13 Y s 1358 1291 m 26 Y s 1403 1304 m 13 Y s 1447 1304 m 13 Y s 1492 1304 m 13 Y s
 1536 1304 m 13 Y s 1580 1291 m 26 Y s 1625 1304 m 13 Y s 1669 1304 m 13 Y s 1714 1304 m 13 Y s 1758 1304 m 13 Y s 1803 1291 m 26 Y s 1847 1304 m 13 Y s 1892 1304 m 13 Y s 1936 1304 m 13 Y s 1980 1304 m 13 Y s 2025 1291 m 26 Y s 692 1291 m 26 Y s
 2025 1291 m 26 Y s black 0 0 1 c
 gsave  2268 1464 0 0 C 665.526 1334.84 t 0 r /Helvetica-Bold findfont 54.9864 sf 0 0 m (0.5) show NC gr  black 0 0 1 c
 gsave  2268 1464 0 0 C 637.084 1334.84 t 0 r /Symbol findfont 54.9864 sf 0 0 m (-) show NC gr  black 0 0 1 c
 gsave  2268 1464 0 0 C 896.848 1334.84 t 0 r /Helvetica-Bold findfont 54.9864 sf 0 0 m (0) show NC gr  black 0 0 1 c
 gsave  2268 1464 0 0 C 1097.83 1334.84 t 0 r /Helvetica-Bold findfont 54.9864 sf 0 0 m (0.5) show NC gr  black 0 0 1 c
 gsave  2268 1464 0 0 C 1346.22 1334.84 t 0 r /Helvetica-Bold findfont 54.9864 sf 0 0 m (1) show NC gr  black 0 0 1 c
 gsave  2268 1464 0 0 C 1541.52 1334.84 t 0 r /Helvetica-Bold findfont 54.9864 sf 0 0 m (1.5) show NC gr  black 0 0 1 c
 gsave  2268 1464 0 0 C 1786.11 1334.84 t 0 r /Helvetica-Bold findfont 54.9864 sf 0 0 m (2) show NC gr  black 0 0 1 c
 gsave  2268 1464 0 0 C 1985.2 1334.84 t 0 r /Helvetica-Bold findfont 54.9864 sf 0 0 m (2.5) show NC gr  black 0 0 1 c
 gsave  2268 1464 0 0 C 2007.95 1397.41 t 0 r /Symbol findfont 54.9864 sf 0 0 m (m) show NC gr  black 0 0 1 c
 gsave  2268 1464 0 0 C 1951.07 1397.41 t 0 r /Helvetica-Bold findfont 54.9864 sf 0 0 m ( / ) show NC gr  black 0 0 1 c
 gsave  2268 1464 0 0 C 1922.63 1397.41 t 0 r /Symbol findfont 54.9864 sf 0 0 m (g) show NC gr  black 1 1 0 c black 1 1 0 c 1803 157 m -28 -11 d s 1803 178 m -88 -32 d s 1803 200 m -148 -54 d s 1803 222 m -207 -76 d s 1803 243 m -267 -97 d s 1803 265
 m -327 -119 d s 1803 287 m -386 -141 d s 1803 309 m -446 -163 d s 1803 330 m -506 -184 d s 1803 352 m -565 -206 d s 1803 374 m -625 -228 d s 1803 395 m -685 -249 d s 1803 417 m -744 -271 d s 1803 439 m -804 -293 d s 1803 461 m -864 -315 d s 1803 482
 m -889 -323 d s 1803 504 m -889 -323 d s 1803 526 m -889 -324 d s 1803 548 m -889 -324 d s 1803 569 m -889 -323 d s 1803 591 m -889 -324 d s 1803 613 m -889 -324 d s 1803 634 m -889 -323 d s 1803 656 m -889 -323 d s 1803 678 m -889 -324 d s 1803 700
 m -889 -324 d s 1803 721 m -889 -323 d s 1803 743 m -889 -324 d s 1803 765 m -889 -324 d s 1803 786 m -889 -323 d s 1803 808 m -889 -323 d s 1803 830 m -889 -324 d s 1803 852 m -889 -324 d s 1803 873 m -889 -323 d s 1803 895 m -889 -323 d s 1803 917
 m -889 -324 d s 1803 938 m -889 -323 d s 1803 960 m -889 -323 d s 1803 982 m -889 -324 d s 1803 1004 m -889 -324 d s 1803 1025 m -889 -323 d s 1803 1047 m -889 -323 d s 1803 1069 m -889 -324 d s 1803 1090 m -889 -323 d s 1803 1112 m -889 -323 d s
 1803 1134 m -889 -324 d s 1803 1156 m -889 -324 d s 1803 1177 m -889 -323 d s 1803 1199 m -889 -323 d s 1803 1221 m -889 -324 d s 1803 1243 m -889 -324 d s 1803 1264 m -889 -323 d s 1803 1286 m -889 -324 d s 1803 1308 m -889 -324 d s 1770 1317 m
 -856 -311 d s 1710 1317 m -796 -289 d s 1650 1317 m -736 -268 d s 1591 1317 m -677 -246 d s 1531 1317 m -617 -224 d s 1471 1317 m -557 -202 d s 1412 1317 m -498 -181 d s 1352 1317 m -438 -159 d s 1292 1317 m -378 -137 d s 1233 1317 m -319 -116 d s
 1173 1317 m -259 -94 d s 1113 1317 m -199 -72 d s 1054 1317 m -140 -50 d s 994 1317 m -80 -29 d s 934 1317 m -20 -7 d s black[ 20 12 4 12 4 12] 0 sd 1358 146 m 1171 Y s[  ] 0 sd 1394 157 m -438 X s 956 153 m 7 Y s 1394 157 m 439 X s 1833 153 m 7 Y s
 1456 177 m -433 X s 1023 173 m 8 Y s 1456 177 m 433 X s 1889 173 m 8 Y s 1480 198 m -437 X s 1043 194 m 8 Y s 1480 198 m 437 X s 1917 194 m 8 Y s 1360 218 m -442 X s 918 214 m 8 Y s 1360 218 m 441 X s 1801 214 m 8 Y s 1182 239 m -430 X s 752 235 m 8
 Y s 1182 239 m 430 X s 1612 235 m 8 Y s 1168 259 m -401 X s 767 256 m 7 Y s 1168 259 m 401 X s 1569 256 m 7 Y s 1358 280 m -235 X s 1123 276 m 8 Y s 1358 280 m 235 X s 1593 276 m 8 Y s 1407 300 m -480 X s 927 297 m 7 Y s 1407 300 m 480 X s 1887 297
 m 7 Y s 1358 321 m -441 X s 917 317 m 8 Y s 1358 321 m 442 X s 1800 317 m 8 Y s 1358 342 m -441 X s 917 338 m 7 Y s 1358 342 m 442 X s 1800 338 m 7 Y s 1359 362 m -442 X s 917 358 m 8 Y s 1359 362 m 441 X s 1800 358 m 8 Y s 1358 383 m -441 X s 917
 379 m 7 Y s 1358 383 m 442 X s 1800 379 m 7 Y s 1360 403 m -442 X s 918 399 m 8 Y s 1360 403 m 441 X s 1801 399 m 8 Y s 1359 424 m -442 X s 917 420 m 8 Y s 1359 424 m 441 X s 1800 420 m 8 Y s 1360 444 m -444 X s 916 440 m 8 Y s 1360 444 m 445 X s
 1805 440 m 8 Y s 1353 465 m -442 X s 911 461 m 8 Y s 1353 465 m 441 X s 1794 461 m 8 Y s 1358 485 m -441 X s 917 482 m 7 Y s 1358 485 m 442 X s 1800 482 m 7 Y s 1358 506 m -442 X s 916 502 m 8 Y s 1358 506 m 441 X s 1799 502 m 8 Y s 1359 526 m -441
 X s 918 523 m 7 Y s 1359 526 m 441 X s 1800 523 m 7 Y s 1336 547 m -441 X s 895 543 m 8 Y s 1336 547 m 442 X s 1778 543 m 8 Y s 1336 568 m -441 X s 895 564 m 7 Y s 1336 568 m 441 X s 1777 564 m 7 Y s 1359 588 m -442 X s 917 584 m 8 Y s 1359 588 m
 442 X s 1801 584 m 8 Y s 1345 609 m -442 X s 903 605 m 7 Y s 1345 609 m 441 X s 1786 605 m 7 Y s 1358 629 m -441 X s 917 625 m 8 Y s 1358 629 m 442 X s 1800 625 m 8 Y s 1358 650 m -441 X s 917 646 m 8 Y s 1358 650 m 442 X s 1800 646 m 8 Y s 1358 670
 m -441 X s 917 666 m 8 Y s 1358 670 m 442 X s 1800 666 m 8 Y s 1446 691 m -508 X s 938 687 m 8 Y s 1446 691 m 509 X s 1955 687 m 8 Y s 1490 711 m -438 X s 1052 708 m 7 Y s 1490 711 m 439 X s 1929 708 m 7 Y s 1618 732 m -424 X s 1194 728 m 8 Y s 1618
 732 m 423 X s 1379 752 m -445 X s 934 749 m 7 Y s 1379 752 m 444 X s 1823 749 m 7 Y s 1103 773 m -401 X s 702 769 m 8 Y s 1103 773 m 400 X s 1503 769 m 8 Y s 1661 794 m -346 X s 1315 790 m 7 Y s 1661 794 m 347 X s 2008 790 m 7 Y s 1316 814 m -430 X
 s 886 810 m 8 Y s 1316 814 m 429 X s 1745 810 m 8 Y s 1449 835 m -427 X s 1022 831 m 7 Y s 1449 835 m 426 X s 1875 831 m 7 Y s 1581 855 m -427 X s 1154 851 m 8 Y s 1581 855 m 426 X s 2007 851 m 8 Y s 1299 876 m -411 X s 888 872 m 7 Y s 1299 876 m
 412 X s 1711 872 m 7 Y s 1582 896 m -424 X s 1158 892 m 8 Y s 1582 896 m 425 X s 2007 892 m 8 Y s 1452 917 m -427 X s 1025 913 m 8 Y s 1452 917 m 426 X s 1878 913 m 8 Y s 1156 937 m -410 X s 746 934 m 7 Y s 1156 937 m 410 X s 1566 934 m 7 Y s 1655
 958 m -414 X s 1241 954 m 8 Y s 1655 958 m 386 X s 1358 978 m -441 X s 917 975 m 7 Y s 1358 978 m 442 X s 1800 975 m 7 Y s 1364 999 m -441 X s 923 995 m 8 Y s 1364 999 m 442 X s 1806 995 m 8 Y s 1325 1020 m -441 X s 884 1016 m 7 Y s 1325 1020 m 441
 X s 1766 1016 m 7 Y s 1358 1040 m -441 X s 917 1036 m 8 Y s 1358 1040 m 442 X s 1800 1036 m 8 Y s 1356 1061 m -23 X s 1333 1057 m 7 Y s 1356 1061 m 22 X s 1378 1057 m 7 Y s 1361 1081 m -20 X s 1341 1077 m 8 Y s 1361 1081 m 19 X s 1380 1077 m 8 Y s
 1360 1102 m -17 X s 1343 1098 m 7 Y s 1360 1102 m 17 X s 1377 1098 m 7 Y s 1357 1122 m -15 X s 1342 1118 m 8 Y s 1357 1122 m 15 X s 1372 1118 m 8 Y s 1356 1143 m -13 X s 1343 1139 m 8 Y s 1356 1143 m 14 X s 1370 1139 m 8 Y s 1355 1163 m -13 X s 1342
 1160 m 7 Y s 1355 1163 m 13 X s 1368 1160 m 7 Y s 1360 1184 m -8 X s 1352 1180 m 8 Y s 1360 1184 m 8 X s 1368 1180 m 8 Y s 1360 1204 m -9 X s 1351 1201 m 7 Y s 1360 1204 m 8 X s 1368 1201 m 7 Y s 1355 1225 m -8 X s 1347 1221 m 8 Y s 1355 1225 m 7 X
 s 1362 1221 m 8 Y s 1358 1245 m -23 X s 1335 1242 m 7 Y s 1358 1245 m 24 X s 1382 1242 m 7 Y s 1359 1266 m -3 X s 1356 1262 m 8 Y s 1359 1266 m 3 X s 1362 1262 m 8 Y s 1363 1287 m -40 X s 1323 1283 m 7 Y s 1363 1287 m 40 X s 1403 1283 m 7 Y s 914
 1307 m -77 X s 837 1303 m 8 Y s 914 1307 m 77 X s 991 1303 m 8 Y s 1394 157 1456 177 1480 198 1360 218 1182 239 1168 259 1358 280 1407 300 1358 321 1358 342 1359 362 1358 383 1360 403 1359 424 1360 444 1353 465 1358 485 1358 506 1359 526 1336 547
 1336 568 1359 588 1345 609 1358 629 1358 650 1358 670 1446 691 1490 711 1618 732 1379 752 1103 773 1661 794 1316 814 1449 835 1581 855 1299 876 1582 896 1452 917 1156 937 1655 958 1358 978 1364 999 1325 1020 1358 1040 1356 1061 1361 1081 1360 1102
 1357 1122 1356 1143 1355 1163 1360 1184 1360 1204 1355 1225 1358 1245 1359 1266 1363 1287 914 1307 57 { m20} R 0 0 1 c 1356 1061 1361 1081 1360 1102 1357 1122 1356 1143 1355 1163 1360 1184 1360 1204 1355 1225 1358 1245 1359 1266 1363 1287 914 1307
 13 { m20} R
 gr  gr showpage
end
%%EOF
