%!PS-Adobe-2.0 EPSF-2.0
%%BoundingBox:  0 0 567 354
%%Title: : c_corrMatrix_RooExpandedFitResult_afterFit
%%Creator: ROOT Version 6.10/06
%%CreationDate: Wed Apr 29 10:19:44 2020
%%DocumentNeededResources: ProcSet (FontSetInit)
%%EndComments
%%BeginProlog
80 dict begin
/s {stroke} def /l {lineto} def /m {moveto} def /t {translate} def
/r {rotate} def /rl {roll}  def /R {repeat} def
/d {rlineto} def /rm {rmoveto} def /gr {grestore} def /f {eofill} def
/c {setrgbcolor} def /black {0 setgray} def /sd {setdash} def
/cl {closepath} def /sf {scalefont setfont} def /lw {setlinewidth} def
/box {m dup 0 exch d exch 0 d 0 exch neg d cl} def
/NC{systemdict begin initclip end}def/C{NC box clip newpath}def
/bl {box s} def /bf {gsave box gsave f grestore 1 lw [] 0 sd s grestore} def /Y { 0 exch d} def /X { 0 d} def 
/K {{pop pop 0 moveto} exch kshow} bind def
/ita {/ang 15 def gsave [1 0 ang dup sin exch cos div 1 0 0] concat} def 
/mp {newpath /y exch def /x exch def} def
/side {[w .77 mul w .23 mul] .385 w mul sd w 0 l currentpoint t -144 r} def
/mr {mp x y w2 0 360 arc} def /m24 {mr s} def /m20 {mr f} def
/mb {mp x y w2 add m w2 neg 0 d 0 w neg d w 0 d 0 w d cl} def
/mt {mp x y w2 add m w2 neg w neg d w 0 d cl} def
/w4 {w 4 div} def
/w6 {w 6 div} def
/w8 {w 8 div} def
/m21 {mb f} def /m25 {mb s} def /m22 {mt f} def /m26{mt s} def
/m23 {mp x y w2 sub m w2 w d w neg 0 d cl f} def
/m27 {mp x y w2 add m w3 neg w2 neg d w3 w2 neg d w3 w2 d cl s} def
/m28 {mp x w2 sub y w2 sub w3 add m w3 0 d  0 w3 neg d w3 0 d 0 w3 d w3 0 d  0 w3 d w3 neg 0 d 0 w3 d w3 neg 0 d 0 w3 neg d w3 neg 0 d cl s } def
/m29 {mp gsave x w2 sub y w2 add w3 sub m currentpoint t 4 {side} repeat cl fill gr} def
/m30 {mp gsave x w2 sub y w2 add w3 sub m currentpoint t 4 {side} repeat cl s gr} def
/m31 {mp x y w2 sub m 0 w d x w2 sub y m w 0 d x w2 sub y w2 add m w w neg d x w2 sub y w2 sub m w w d s} def
/m32 {mp x y w2 sub m w2 w d w neg 0 d cl s} def
/m33 {mp x y w2 add m w3 neg w2 neg d w3 w2 neg d w3 w2 d cl f} def
/m34 {mp x w2 sub y w2 sub w3 add m w3 0 d  0 w3 neg d w3 0 d 0 w3 d w3 0 d  0 w3 d w3 neg 0 d 0 w3 d w3 neg 0 d 0 w3 neg d w3 neg 0 d cl f } def
/m35 {mp x y w2 add m w2 neg w2 neg d w2 w2 neg d w2 w2 d w2 neg w2 d x y w2 sub m 0 w d x w2 sub y m w 0 d s} def
/m36 {mb x w2 sub y w2 add m w w neg d x w2 sub y w2 sub m w w d s} def
/m37 {mp x y m w4 neg w2 d w4 neg w2 neg d w2 0 d  w4 neg w2 neg d w2 0 d w4 neg w2 d w2 0 d w4 neg w2 d w4 neg w2 neg d cl s} def
/m38 {mp x w4 sub y w2 add m w4 neg w4 neg d 0 w2 neg d w4 w4 neg d w2 0 d w4 w4 d 0 w2 d w4 neg w4 d w2 neg 0 d x y w2 sub m 0 w d x w2 sub y m w 0 d cl s} def
/m39 {mp x y m w4 neg w2 d w4 neg w2 neg d w2 0 d  w4 neg w2 neg d w2 0 d w4 neg w2 d w2 0 d w4 neg w2 d w4 neg w2 neg d cl f} def
/m40 {mp x y m w4 w2 d w4 w4 neg d w2 neg w4 neg d w2 w4 neg d w4 neg w4 neg d w4 neg w2 d w4 neg w2 neg d w4 neg w4 d w2 w4 d w2 neg w4 d w4 w4 d w4 w2 neg d cl s} def
/m41 {mp x y m w4 w2 d w4 w4 neg d w2 neg w4 neg d w2 w4 neg d w4 neg w4 neg d w4 neg w2 d w4 neg w2 neg d w4 neg w4 d w2 w4 d w2 neg w4 d w4 w4 d w4 w2 neg d cl f} def
/m42 {mp x y w2 add m w8 neg w2 -3 4 div mul d w2 -3 4 div mul w8 neg d w2 3 4 div mul w8 neg d w8 w2 -3 4 div mul d w8 w2 3 4 div mul d w2 3 4 div mul w8 d w2 -3 4 div mul w8 d w8 neg w2 3 4 div mul d cl s} def
/m43 {mp x y w2 add m w8 neg w2 -3 4 div mul d w2 -3 4 div mul w8 neg d w2 3 4 div mul w8 neg d w8 w2 -3 4 div mul d w8 w2 3 4 div mul d w2 3 4 div mul w8 d w2 -3 4 div mul w8 d w8 neg w2 3 4 div mul d cl f} def
/m44 {mp x y m w6 neg w2 d w2 2 3 div mul 0 d w6 neg w2 neg d w2 w6 d 0 w2 -2 3 div mul d w2 neg w6 d w6 w2 neg d w2 -2 3 div mul 0 d w6 w2 d w2 neg w6 neg d 0 w2 2 3 div mul d w2 w6 neg d cl s} def
/m45 {mp x y m w6 neg w2 d w2 2 3 div mul 0 d w6 neg w2 neg d w2 w6 d 0 w2 -2 3 div mul d w2 neg w6 d w6 w2 neg d w2 -2 3 div mul 0 d w6 w2 d w2 neg w6 neg d 0 w2 2 3 div mul d w2 w6 neg d cl f} def
/m46 {mp x y w4 add m w4 neg w4 d w4 neg w4 neg d  w4 w4 neg d w4 neg w4 neg d w4 w4 neg d w4 w4 d w4 w4 neg d w4 w4 d w4 neg w4 d w4 w4 d w4 neg w4 d w4 neg w4 neg d cl s} def
/m47 {mp x y w4 add m w4 neg w4 d w4 neg w4 neg d w4 w4 neg d w4 neg w4 neg d  w4 w4 neg d w4 w4 d w4 w4 neg d w4 w4 d w4 neg w4 d w4 w4 d w4 neg w4 d w4 neg w4 neg d cl f} def
/m48 {mp x y w4 add m w4 neg w4 d w4 neg w4 neg d w4 w4 neg d  w4 neg w4 neg d w4 w4 neg d w4 w4 d w4 w4 neg d w4 w4 d w4 neg w4 d w4 w4 d w4 neg w4 d w4 neg w4 neg d  w4 w4 neg d w4 neg w4 neg d w4 neg w4 d w4 w4 d cl f} def
/m49 {mp x w2 sub w3 add y w2 sub w3 add m  0 w3 neg d w3 0 d 0 w3 d w3 0 d 0 w3 d w3 neg 0 d 0 w3 d w3 neg 0 d 0 w3 neg d w3 neg 0 d 0 w3 neg d w3 0 d 0 w3 d w3 0 d 0 w3 neg d w3 neg 0 d cl f } def
/m2 {mp x y w2 sub m 0 w d x w2 sub y m w 0 d s} def
/m5 {mp x w2 sub y w2 sub m w w d x w2 sub y w2 add m w w neg d s} def
%%IncludeResource: ProcSet (FontSetInit)
%%IncludeResource: font Times-Roman
%%IncludeResource: font Times-Italic
%%IncludeResource: font Times-Bold
%%IncludeResource: font Times-BoldItalic
%%IncludeResource: font Helvetica
%%IncludeResource: font Helvetica-Oblique
%%IncludeResource: font Helvetica-Bold
%%IncludeResource: font Helvetica-BoldOblique
%%IncludeResource: font Courier
%%IncludeResource: font Courier-Oblique
%%IncludeResource: font Courier-Bold
%%IncludeResource: font Courier-BoldOblique
%%IncludeResource: font Symbol
%%IncludeResource: font ZapfDingbats
/reEncode {exch findfont dup length dict begin {1 index /FID eq  {pop pop} {def} ifelse } forall /Encoding exch def currentdict end dup /FontName get exch definefont pop } def [/Times-Bold /Times-Italic /Times-BoldItalic /Helvetica /Helvetica-Oblique
 /Helvetica-Bold /Helvetica-BoldOblique /Courier /Courier-Oblique /Courier-Bold /Courier-BoldOblique /Times-Roman /AvantGarde-Book /AvantGarde-BookOblique /AvantGarde-Demi /AvantGarde-DemiOblique /Bookman-Demi /Bookman-DemiItalic /Bookman-Light
 /Bookman-LightItalic /Helvetica-Narrow /Helvetica-Narrow-Bold /Helvetica-Narrow-BoldOblique /Helvetica-Narrow-Oblique /NewCenturySchlbk-Roman /NewCenturySchlbk-Bold /NewCenturySchlbk-BoldItalic /NewCenturySchlbk-Italic /Palatino-Bold
 /Palatino-BoldItalic /Palatino-Italic /Palatino-Roman ] {ISOLatin1Encoding reEncode } forall
%%EndProlog
%%BeginSetup
%%EndSetup
newpath  gsave  .25 .25 scale  gsave  0 0 t black[  ] 0 sd 3 lw 1 1 1 c 2268 1415 0 0 bf black 1 1 1 c 1565 1132 408 142 bf black 1565 1132 408 142 bl 1 1 1 c 1565 1132 408 142 bf black 1565 1132 408 142 bl 1 1 1 c 0.0718137 0.0335784 0.320588 c 142
 102 408 142 bf 0.0829657 0.0893382 0.352451 c 143 102 550 142 bf 142 102 693 142 bf 0.0718137 0.0335784 0.320588 c 142 102 835 142 bf 0.0509804 0 0.231373 c 142 102 977 142 bf 0.0637255 0.00637255 0.291912 c 143 102 1119 142 bf 142 102 1262 142 bf
 0.0136622 0 0.131056 c 142 102 1404 142 bf 142 102 1546 142 bf 0.0446078 0 0.204289 c 143 102 1688 142 bf 0.113235 0.859191 0.862132 c 142 102 1831 142 bf 0.0718137 0.0335784 0.320588 c 142 103 408 244 bf 143 103 550 244 bf 142 103 693 244 bf 142
 103 835 244 bf 0.0829657 0.0893382 0.352451 c 142 103 977 244 bf 0.0718137 0.0335784 0.320588 c 143 103 1119 244 bf 142 103 1262 244 bf 142 103 1404 244 bf 142 103 1546 244 bf 0.113235 0.859191 0.862132 c 143 103 1688 244 bf 0.0446078 0 0.204289 c
 142 103 1831 244 bf 0.0718137 0.0335784 0.320588 c 142 103 408 347 bf 143 103 550 347 bf 142 103 693 347 bf 142 103 835 347 bf 0.0941176 0.145098 0.384314 c 142 103 977 347 bf 0.0829657 0.0893382 0.352451 c 143 103 1119 347 bf 142 103 1262 347 bf
 0.0718137 0.0335784 0.320588 c 142 103 1404 347 bf 0.113235 0.859191 0.862132 c 142 103 1546 347 bf 0.0718137 0.0335784 0.320588 c 143 103 1688 347 bf 0.0136622 0 0.131056 c 142 103 1831 347 bf 0.0718137 0.0335784 0.320588 c 142 103 408 450 bf 143
 103 550 450 bf 142 103 693 450 bf 142 103 835 450 bf 0.0829657 0.0893382 0.352451 c 142 103 977 450 bf 0.0718137 0.0335784 0.320588 c 143 103 1119 450 bf 0.0829657 0.0893382 0.352451 c 142 103 1262 450 bf 0.113235 0.859191 0.862132 c 142 103 1404
 450 bf 0.0718137 0.0335784 0.320588 c 142 103 1546 450 bf 143 103 1688 450 bf 0.0136622 0 0.131056 c 142 103 1831 450 bf 0.0718137 0.0335784 0.320588 c 142 103 408 553 bf 143 103 550 553 bf 142 103 693 553 bf 142 103 835 553 bf 0.0573529 0.00318627
 0.261642 c 142 103 977 553 bf 0.0637255 0.00637255 0.291912 c 143 103 1119 553 bf 0.113235 0.859191 0.862132 c 142 103 1262 553 bf 0.0829657 0.0893382 0.352451 c 142 103 1404 553 bf 142 103 1546 553 bf 0.0718137 0.0335784 0.320588 c 143 103 1688 553
 bf 0.0637255 0.00637255 0.291912 c 142 103 1831 553 bf 0.0829657 0.0893382 0.352451 c 142 103 408 656 bf 143 103 550 656 bf 142 103 693 656 bf 0.0718137 0.0335784 0.320588 c 142 103 835 656 bf 0.0446078 0 0.204289 c 142 103 977 656 bf 0.113235
 0.859191 0.862132 c 143 103 1119 656 bf 0.0637255 0.00637255 0.291912 c 142 103 1262 656 bf 0.0718137 0.0335784 0.320588 c 142 103 1404 656 bf 0.0829657 0.0893382 0.352451 c 142 103 1546 656 bf 0.0718137 0.0335784 0.320588 c 143 103 1688 656 bf
 0.0637255 0.00637255 0.291912 c 142 103 1831 656 bf 0.0941176 0.145098 0.384314 c 142 103 408 759 bf 143 103 550 759 bf 142 103 693 759 bf 142 103 835 759 bf 0.113235 0.859191 0.862132 c 142 103 977 759 bf 0.0446078 0 0.204289 c 143 103 1119 759 bf
 0.0573529 0.00318627 0.261642 c 142 103 1262 759 bf 0.0829657 0.0893382 0.352451 c 142 103 1404 759 bf 0.0941176 0.145098 0.384314 c 142 103 1546 759 bf 0.0829657 0.0893382 0.352451 c 143 103 1688 759 bf 0.0509804 0 0.231373 c 142 103 1831 759 bf
 0.0829657 0.0893382 0.352451 c 142 103 408 862 bf 143 103 550 862 bf 142 103 693 862 bf 0.113235 0.859191 0.862132 c 142 103 835 862 bf 0.0941176 0.145098 0.384314 c 142 103 977 862 bf 0.0718137 0.0335784 0.320588 c 143 103 1119 862 bf 142 103 1262
 862 bf 142 103 1404 862 bf 142 103 1546 862 bf 143 103 1688 862 bf 142 103 1831 862 bf 0.0637255 0.00637255 0.291912 c 142 103 408 965 bf 143 103 550 965 bf 0.113235 0.859191 0.862132 c 142 103 693 965 bf 0.0829657 0.0893382 0.352451 c 142 103 835
 965 bf 0.0941176 0.145098 0.384314 c 142 103 977 965 bf 0.0829657 0.0893382 0.352451 c 143 103 1119 965 bf 0.0718137 0.0335784 0.320588 c 142 103 1262 965 bf 142 103 1404 965 bf 142 103 1546 965 bf 143 103 1688 965 bf 0.0829657 0.0893382 0.352451 c
 142 103 1831 965 bf 0.0637255 0.00637255 0.291912 c 142 103 408 1068 bf 0.113235 0.859191 0.862132 c 143 103 550 1068 bf 0.0637255 0.00637255 0.291912 c 142 103 693 1068 bf 0.0829657 0.0893382 0.352451 c 142 103 835 1068 bf 0.0941176 0.145098
 0.384314 c 142 103 977 1068 bf 0.0829657 0.0893382 0.352451 c 143 103 1119 1068 bf 0.0718137 0.0335784 0.320588 c 142 103 1262 1068 bf 142 103 1404 1068 bf 142 103 1546 1068 bf 143 103 1688 1068 bf 0.0829657 0.0893382 0.352451 c 142 103 1831 1068 bf
 0.113235 0.859191 0.862132 c 142 103 408 1171 bf 0.0637255 0.00637255 0.291912 c 143 103 550 1171 bf 142 103 693 1171 bf 0.0829657 0.0893382 0.352451 c 142 103 835 1171 bf 0.0941176 0.145098 0.384314 c 142 103 977 1171 bf 0.0829657 0.0893382
 0.352451 c 143 103 1119 1171 bf 0.0718137 0.0335784 0.320588 c 142 103 1262 1171 bf 142 103 1404 1171 bf 142 103 1546 1171 bf 143 103 1688 1171 bf 142 103 1831 1171 bf 0.0136622 0 0.131056 c 102 56 1984 142 bf 0.028463 0 0.15408 c 102 57 1984 198 bf
 0.0387255 0 0.179289 c 102 56 1984 255 bf 0.0446078 0 0.204289 c 102 57 1984 311 bf 0.0509804 0 0.231373 c 102 57 1984 368 bf 0.0573529 0.00318627 0.261642 c 102 56 1984 425 bf 0.0637255 0.00637255 0.291912 c 102 57 1984 481 bf 0.0718137 0.0335784
 0.320588 c 102 56 1984 538 bf 0.0829657 0.0893382 0.352451 c 102 57 1984 594 bf 0.0941176 0.145098 0.384314 c 102 57 1984 651 bf 0.106863 0.204044 0.433701 c 102 56 1984 708 bf 0.118627 0.258456 0.479289 c 102 57 1984 764 bf 0.121814 0.318873
 0.524265 c 102 57 1984 821 bf 0.113848 0.381005 0.564093 c 102 56 1984 878 bf 0.105882 0.443137 0.603922 c 102 57 1984 934 bf 0.102941 0.512255 0.648039 c 102 56 1984 991 bf 0.0997549 0.587132 0.695833 c 102 57 1984 1047 bf 0.10098 0.672304 0.748775
 c 102 57 1984 1104 bf 0.107353 0.769485 0.807721 c 102 56 1984 1161 bf 0.113235 0.859191 0.862132 c 102 57 1984 1217 bf black 2086 142 m 1132 Y s 2032 151 m 54 X s 2032 291 m 54 X s 2032 432 m 54 X s 2032 572 m 54 X s 2032 712 m 54 X s 2032 853 m 54
 X s 2032 993 m 54 X s 2032 1134 m 54 X s 2032 1274 m 54 X s 2032 151 m 54 X s
 gsave  2268 1415 0 0 C 2119.33 133.171 t 0 r /Helvetica findfont 45.6587 sf 0 0 m (0.6) show NC gr 
 gsave  2268 1415 0 0 C 2096.5 133.171 t 0 r /Symbol findfont 45.6587 sf 0 0 m (-) show NC gr 
 gsave  2268 1415 0 0 C 2119.33 273.952 t 0 r /Helvetica findfont 45.6587 sf 0 0 m (0.4) show NC gr 
 gsave  2268 1415 0 0 C 2096.5 273.952 t 0 r /Symbol findfont 45.6587 sf 0 0 m (-) show NC gr 
 gsave  2268 1415 0 0 C 2119.33 414.733 t 0 r /Helvetica findfont 45.6587 sf 0 0 m (0.2) show NC gr 
 gsave  2268 1415 0 0 C 2096.5 414.733 t 0 r /Symbol findfont 45.6587 sf 0 0 m (-) show NC gr 
 gsave  2268 1415 0 0 C 2096.5 555.514 t 0 r /Helvetica findfont 45.6587 sf 0 0 m (0) show NC gr 
 gsave  2268 1415 0 0 C 2096.5 696.295 t 0 r /Helvetica findfont 45.6587 sf 0 0 m (0.2) show NC gr 
 gsave  2268 1415 0 0 C 2096.5 837.077 t 0 r /Helvetica findfont 45.6587 sf 0 0 m (0.4) show NC gr 
 gsave  2268 1415 0 0 C 2096.5 977.858 t 0 r /Helvetica findfont 45.6587 sf 0 0 m (0.6) show NC gr 
 gsave  2268 1415 0 0 C 2096.5 1114.83 t 0 r /Helvetica findfont 45.6587 sf 0 0 m (0.8) show NC gr 
 gsave  2268 1415 0 0 C 2096.5 1255.61 t 0 r /Helvetica findfont 45.6587 sf 0 0 m (1) show NC gr  1 1 1 c black 408 142 m 1565 X s
 gsave  2268 1415 0 0 C 483.221 -133.171 t 90 r /Helvetica findfont 22.8294 sf 0 0 m (alpha_JER_EffectiveNP2) show NC gr 
 gsave  2268 1415 0 0 C 627.807 -133.171 t 90 r /Helvetica findfont 22.8294 sf 0 0 m (alpha_JER_EffectiveNP3) show NC gr 
 gsave  2268 1415 0 0 C 768.589 -129.366 t 90 r /Helvetica findfont 22.8294 sf 0 0 m (alpha_JES_GroupedNP1) show NC gr 
 gsave  2268 1415 0 0 C 913.174 -133.171 t 90 r /Helvetica findfont 22.8294 sf 0 0 m (alpha_JES_GroupedNP2) show NC gr 
 gsave  2268 1415 0 0 C 1053.96 -148.391 t 90 r /Helvetica findfont 22.8294 sf 0 0 m (alpha_ttbar_Fragmentation) show NC gr 
 gsave  2268 1415 0 0 C 1194.74 -125.561 t 90 r /Helvetica findfont 22.8294 sf 0 0 m (alpha_ttbar_HardScatter) show NC gr 
 gsave  2268 1415 0 0 C 1339.32 -98.9272 t 90 r /Helvetica findfont 22.8294 sf 0 0 m (alpha_ttbar_Radiation) show NC gr 
 gsave  2268 1415 0 0 C 1480.1 -95.1223 t 90 r /Helvetica findfont 22.8294 sf 0 0 m (alpha_xsec_singletop) show NC gr 
 gsave  2268 1415 0 0 C 1624.69 -30.4391 t 90 r /Helvetica findfont 22.8294 sf 0 0 m (alpha_xsec_ttV) show NC gr 
 gsave  2268 1415 0 0 C 1765.47 -57.0734 t 90 r /Helvetica findfont 22.8294 sf 0 0 m (alpha_xsec_wjets) show NC gr 
 gsave  2268 1415 0 0 C 1906.25 34.244 t 90 r /Helvetica findfont 22.8294 sf 0 0 m (mu_ttbar) show NC gr  408 171 m -29 Y s 550 171 m -29 Y s 693 171 m -29 Y s 835 171 m -29 Y s 977 171 m -29 Y s 1119 171 m -29 Y s 1262 171 m -29 Y s 1404 171 m -29 Y
 s 1546 171 m -29 Y s 1688 171 m -29 Y s 1831 171 m -29 Y s 1973 171 m -29 Y s 408 142 m 1132 Y s
 gsave  2268 1415 0 0 C 292.977 186.44 t 0 r /Helvetica findfont 22.8294 sf 0 0 m (mu_ttbar) show NC gr 
 gsave  2268 1415 0 0 C 201.659 289.172 t 0 r /Helvetica findfont 22.8294 sf 0 0 m (alpha_xsec_wjets) show NC gr 
 gsave  2268 1415 0 0 C 228.294 391.904 t 0 r /Helvetica findfont 22.8294 sf 0 0 m (alpha_xsec_ttV) show NC gr 
 gsave  2268 1415 0 0 C 163.61 494.636 t 0 r /Helvetica findfont 22.8294 sf 0 0 m (alpha_xsec_singletop) show NC gr 
 gsave  2268 1415 0 0 C 159.806 597.368 t 0 r /Helvetica findfont 22.8294 sf 0 0 m (alpha_ttbar_Radiation) show NC gr 
 gsave  2268 1415 0 0 C 133.171 700.1 t 0 r /Helvetica findfont 22.8294 sf 0 0 m (alpha_ttbar_HardScatter) show NC gr 
 gsave  2268 1415 0 0 C 110.342 806.637 t 0 r /Helvetica findfont 22.8294 sf 0 0 m (alpha_ttbar_Fragmentation) show NC gr 
 gsave  2268 1415 0 0 C 125.561 909.37 t 0 r /Helvetica findfont 22.8294 sf 0 0 m (alpha_JES_GroupedNP2) show NC gr 
 gsave  2268 1415 0 0 C 129.366 1012.1 t 0 r /Helvetica findfont 22.8294 sf 0 0 m (alpha_JES_GroupedNP1) show NC gr 
 gsave  2268 1415 0 0 C 125.561 1114.83 t 0 r /Helvetica findfont 22.8294 sf 0 0 m (alpha_JER_EffectiveNP3) show NC gr 
 gsave  2268 1415 0 0 C 125.561 1217.57 t 0 r /Helvetica findfont 22.8294 sf 0 0 m (alpha_JER_EffectiveNP2) show NC gr  463 142 m -55 X s 463 244 m -55 X s 463 347 m -55 X s 463 450 m -55 X s 463 553 m -55 X s 463 656 m -55 X s 463 759 m -55 X s 463
 862 m -55 X s 463 965 m -55 X s 463 1068 m -55 X s 463 1171 m -55 X s 463 1274 m -55 X s 1 1 1 c black 1 1 1 c
 gsave  2268 1415 0 0 C 468.002 190.245 t 0 r /Helvetica-Bold findfont 7.60979 sf 0 0 m (0.02) show NC gr  black 1 1 1 c
 gsave  2268 1415 0 0 C 612.588 190.245 t 0 r /Helvetica-Bold findfont 7.60979 sf 0 0 m (0.04) show NC gr  black 1 1 1 c
 gsave  2268 1415 0 0 C 753.369 190.245 t 0 r /Helvetica-Bold findfont 7.60979 sf 0 0 m (0.06) show NC gr  black 1 1 1 c
 gsave  2268 1415 0 0 C 897.955 190.245 t 0 r /Helvetica-Bold findfont 7.60979 sf 0 0 m (0.00) show NC gr  black 1 1 1 c
 gsave  2268 1415 0 0 C 1034.93 190.245 t 0 r /Helvetica-Bold findfont 7.60979 sf 0 0 m (\2550.26) show NC gr  black 1 1 1 c
 gsave  2268 1415 0 0 C 1175.71 190.245 t 0 r /Helvetica-Bold findfont 7.60979 sf 0 0 m (\2550.06) show NC gr  black 1 1 1 c
 gsave  2268 1415 0 0 C 1320.3 190.245 t 0 r /Helvetica-Bold findfont 7.60979 sf 0 0 m (\2550.08) show NC gr  black 1 1 1 c
 gsave  2268 1415 0 0 C 1461.08 190.245 t 0 r /Helvetica-Bold findfont 7.60979 sf 0 0 m (\2550.61) show NC gr  black 1 1 1 c
 gsave  2268 1415 0 0 C 1605.67 190.245 t 0 r /Helvetica-Bold findfont 7.60979 sf 0 0 m (\2550.60) show NC gr  black 1 1 1 c
 gsave  2268 1415 0 0 C 1746.45 190.245 t 0 r /Helvetica-Bold findfont 7.60979 sf 0 0 m (\2550.35) show NC gr  black 1 1 1 c
 gsave  2268 1415 0 0 C 1891.03 190.245 t 0 r /Helvetica-Bold findfont 7.60979 sf 0 0 m (1.00) show NC gr  black 1 1 1 c
 gsave  2268 1415 0 0 C 464.197 292.977 t 0 r /Helvetica-Bold findfont 7.60979 sf 0 0 m (\2550.00) show NC gr  black 1 1 1 c
 gsave  2268 1415 0 0 C 608.783 292.977 t 0 r /Helvetica-Bold findfont 7.60979 sf 0 0 m (\2550.01) show NC gr  black 1 1 1 c
 gsave  2268 1415 0 0 C 749.564 292.977 t 0 r /Helvetica-Bold findfont 7.60979 sf 0 0 m (\2550.01) show NC gr  black 1 1 1 c
 gsave  2268 1415 0 0 C 897.955 292.977 t 0 r /Helvetica-Bold findfont 7.60979 sf 0 0 m (0.01) show NC gr  black 1 1 1 c
 gsave  2268 1415 0 0 C 1038.74 292.977 t 0 r /Helvetica-Bold findfont 7.60979 sf 0 0 m (0.03) show NC gr  black 1 1 1 c
 gsave  2268 1415 0 0 C 1179.52 292.977 t 0 r /Helvetica-Bold findfont 7.60979 sf 0 0 m (0.03) show NC gr  black 1 1 1 c
 gsave  2268 1415 0 0 C 1324.1 292.977 t 0 r /Helvetica-Bold findfont 7.60979 sf 0 0 m (0.01) show NC gr  black 1 1 1 c
 gsave  2268 1415 0 0 C 1464.88 292.977 t 0 r /Helvetica-Bold findfont 7.60979 sf 0 0 m (0.00) show NC gr  black 1 1 1 c
 gsave  2268 1415 0 0 C 1605.67 292.977 t 0 r /Helvetica-Bold findfont 7.60979 sf 0 0 m (\2550.00) show NC gr  black 1 1 1 c
 gsave  2268 1415 0 0 C 1750.25 292.977 t 0 r /Helvetica-Bold findfont 7.60979 sf 0 0 m (1.00) show NC gr  black 1 1 1 c
 gsave  2268 1415 0 0 C 1887.23 292.977 t 0 r /Helvetica-Bold findfont 7.60979 sf 0 0 m (\2550.35) show NC gr  black 1 1 1 c
 gsave  2268 1415 0 0 C 464.197 395.709 t 0 r /Helvetica-Bold findfont 7.60979 sf 0 0 m (\2550.01) show NC gr  black 1 1 1 c
 gsave  2268 1415 0 0 C 608.783 395.709 t 0 r /Helvetica-Bold findfont 7.60979 sf 0 0 m (\2550.02) show NC gr  black 1 1 1 c
 gsave  2268 1415 0 0 C 749.564 395.709 t 0 r /Helvetica-Bold findfont 7.60979 sf 0 0 m (\2550.03) show NC gr  black 1 1 1 c
 gsave  2268 1415 0 0 C 894.15 395.709 t 0 r /Helvetica-Bold findfont 7.60979 sf 0 0 m (\2550.02) show NC gr  black 1 1 1 c
 gsave  2268 1415 0 0 C 1038.74 395.709 t 0 r /Helvetica-Bold findfont 7.60979 sf 0 0 m (0.16) show NC gr  black 1 1 1 c
 gsave  2268 1415 0 0 C 1179.52 395.709 t 0 r /Helvetica-Bold findfont 7.60979 sf 0 0 m (0.04) show NC gr  black 1 1 1 c
 gsave  2268 1415 0 0 C 1324.1 395.709 t 0 r /Helvetica-Bold findfont 7.60979 sf 0 0 m (0.05) show NC gr  black 1 1 1 c
 gsave  2268 1415 0 0 C 1461.08 395.709 t 0 r /Helvetica-Bold findfont 7.60979 sf 0 0 m (\2550.02) show NC gr  black 1 1 1 c
 gsave  2268 1415 0 0 C 1609.47 395.709 t 0 r /Helvetica-Bold findfont 7.60979 sf 0 0 m (1.00) show NC gr  black 1 1 1 c
 gsave  2268 1415 0 0 C 1746.45 395.709 t 0 r /Helvetica-Bold findfont 7.60979 sf 0 0 m (\2550.00) show NC gr  black 1 1 1 c
 gsave  2268 1415 0 0 C 1887.23 395.709 t 0 r /Helvetica-Bold findfont 7.60979 sf 0 0 m (\2550.60) show NC gr  black 1 1 1 c
 gsave  2268 1415 0 0 C 464.197 498.441 t 0 r /Helvetica-Bold findfont 7.60979 sf 0 0 m (\2550.01) show NC gr  black 1 1 1 c
 gsave  2268 1415 0 0 C 608.783 498.441 t 0 r /Helvetica-Bold findfont 7.60979 sf 0 0 m (\2550.02) show NC gr  black 1 1 1 c
 gsave  2268 1415 0 0 C 749.564 498.441 t 0 r /Helvetica-Bold findfont 7.60979 sf 0 0 m (\2550.03) show NC gr  black 1 1 1 c
 gsave  2268 1415 0 0 C 897.955 498.441 t 0 r /Helvetica-Bold findfont 7.60979 sf 0 0 m (0.00) show NC gr  black 1 1 1 c
 gsave  2268 1415 0 0 C 1038.74 498.441 t 0 r /Helvetica-Bold findfont 7.60979 sf 0 0 m (0.05) show NC gr  black 1 1 1 c
 gsave  2268 1415 0 0 C 1179.52 498.441 t 0 r /Helvetica-Bold findfont 7.60979 sf 0 0 m (0.02) show NC gr  black 1 1 1 c
 gsave  2268 1415 0 0 C 1324.1 498.441 t 0 r /Helvetica-Bold findfont 7.60979 sf 0 0 m (0.04) show NC gr  black 1 1 1 c
 gsave  2268 1415 0 0 C 1464.88 498.441 t 0 r /Helvetica-Bold findfont 7.60979 sf 0 0 m (1.00) show NC gr  black 1 1 1 c
 gsave  2268 1415 0 0 C 1605.67 498.441 t 0 r /Helvetica-Bold findfont 7.60979 sf 0 0 m (\2550.02) show NC gr  black 1 1 1 c
 gsave  2268 1415 0 0 C 1750.25 498.441 t 0 r /Helvetica-Bold findfont 7.60979 sf 0 0 m (0.00) show NC gr  black 1 1 1 c
 gsave  2268 1415 0 0 C 1887.23 498.441 t 0 r /Helvetica-Bold findfont 7.60979 sf 0 0 m (\2550.61) show NC gr  black 1 1 1 c
 gsave  2268 1415 0 0 C 468.002 601.173 t 0 r /Helvetica-Bold findfont 7.60979 sf 0 0 m (0.02) show NC gr  black 1 1 1 c
 gsave  2268 1415 0 0 C 612.588 601.173 t 0 r /Helvetica-Bold findfont 7.60979 sf 0 0 m (0.02) show NC gr  black 1 1 1 c
 gsave  2268 1415 0 0 C 753.369 601.173 t 0 r /Helvetica-Bold findfont 7.60979 sf 0 0 m (0.02) show NC gr  black 1 1 1 c
 gsave  2268 1415 0 0 C 897.955 601.173 t 0 r /Helvetica-Bold findfont 7.60979 sf 0 0 m (0.02) show NC gr  black 1 1 1 c
 gsave  2268 1415 0 0 C 1034.93 601.173 t 0 r /Helvetica-Bold findfont 7.60979 sf 0 0 m (\2550.14) show NC gr  black 1 1 1 c
 gsave  2268 1415 0 0 C 1175.71 601.173 t 0 r /Helvetica-Bold findfont 7.60979 sf 0 0 m (\2550.05) show NC gr  black 1 1 1 c
 gsave  2268 1415 0 0 C 1324.1 601.173 t 0 r /Helvetica-Bold findfont 7.60979 sf 0 0 m (1.00) show NC gr  black 1 1 1 c
 gsave  2268 1415 0 0 C 1464.88 601.173 t 0 r /Helvetica-Bold findfont 7.60979 sf 0 0 m (0.04) show NC gr  black 1 1 1 c
 gsave  2268 1415 0 0 C 1609.47 601.173 t 0 r /Helvetica-Bold findfont 7.60979 sf 0 0 m (0.05) show NC gr  black 1 1 1 c
 gsave  2268 1415 0 0 C 1750.25 601.173 t 0 r /Helvetica-Bold findfont 7.60979 sf 0 0 m (0.01) show NC gr  black 1 1 1 c
 gsave  2268 1415 0 0 C 1887.23 601.173 t 0 r /Helvetica-Bold findfont 7.60979 sf 0 0 m (\2550.08) show NC gr  black 1 1 1 c
 gsave  2268 1415 0 0 C 468.002 703.905 t 0 r /Helvetica-Bold findfont 7.60979 sf 0 0 m (0.05) show NC gr  black 1 1 1 c
 gsave  2268 1415 0 0 C 612.588 703.905 t 0 r /Helvetica-Bold findfont 7.60979 sf 0 0 m (0.08) show NC gr  black 1 1 1 c
 gsave  2268 1415 0 0 C 753.369 703.905 t 0 r /Helvetica-Bold findfont 7.60979 sf 0 0 m (0.11) show NC gr  black 1 1 1 c
 gsave  2268 1415 0 0 C 897.955 703.905 t 0 r /Helvetica-Bold findfont 7.60979 sf 0 0 m (0.02) show NC gr  black 1 1 1 c
 gsave  2268 1415 0 0 C 1034.93 703.905 t 0 r /Helvetica-Bold findfont 7.60979 sf 0 0 m (\2550.37) show NC gr  black 1 1 1 c
 gsave  2268 1415 0 0 C 1179.52 703.905 t 0 r /Helvetica-Bold findfont 7.60979 sf 0 0 m (1.00) show NC gr  black 1 1 1 c
 gsave  2268 1415 0 0 C 1320.3 703.905 t 0 r /Helvetica-Bold findfont 7.60979 sf 0 0 m (\2550.05) show NC gr  black 1 1 1 c
 gsave  2268 1415 0 0 C 1464.88 703.905 t 0 r /Helvetica-Bold findfont 7.60979 sf 0 0 m (0.02) show NC gr  black 1 1 1 c
 gsave  2268 1415 0 0 C 1609.47 703.905 t 0 r /Helvetica-Bold findfont 7.60979 sf 0 0 m (0.04) show NC gr  black 1 1 1 c
 gsave  2268 1415 0 0 C 1750.25 703.905 t 0 r /Helvetica-Bold findfont 7.60979 sf 0 0 m (0.03) show NC gr  black 1 1 1 c
 gsave  2268 1415 0 0 C 1887.23 703.905 t 0 r /Helvetica-Bold findfont 7.60979 sf 0 0 m (\2550.06) show NC gr  black 1 1 1 c
 gsave  2268 1415 0 0 C 468.002 810.442 t 0 r /Helvetica-Bold findfont 7.60979 sf 0 0 m (0.15) show NC gr  black 1 1 1 c
 gsave  2268 1415 0 0 C 612.588 810.442 t 0 r /Helvetica-Bold findfont 7.60979 sf 0 0 m (0.16) show NC gr  black 1 1 1 c
 gsave  2268 1415 0 0 C 753.369 810.442 t 0 r /Helvetica-Bold findfont 7.60979 sf 0 0 m (0.15) show NC gr  black 1 1 1 c
 gsave  2268 1415 0 0 C 897.955 810.442 t 0 r /Helvetica-Bold findfont 7.60979 sf 0 0 m (0.16) show NC gr  black 1 1 1 c
 gsave  2268 1415 0 0 C 1038.74 810.442 t 0 r /Helvetica-Bold findfont 7.60979 sf 0 0 m (1.00) show NC gr  black 1 1 1 c
 gsave  2268 1415 0 0 C 1175.71 810.442 t 0 r /Helvetica-Bold findfont 7.60979 sf 0 0 m (\2550.37) show NC gr  black 1 1 1 c
 gsave  2268 1415 0 0 C 1320.3 810.442 t 0 r /Helvetica-Bold findfont 7.60979 sf 0 0 m (\2550.14) show NC gr  black 1 1 1 c
 gsave  2268 1415 0 0 C 1464.88 810.442 t 0 r /Helvetica-Bold findfont 7.60979 sf 0 0 m (0.05) show NC gr  black 1 1 1 c
 gsave  2268 1415 0 0 C 1609.47 810.442 t 0 r /Helvetica-Bold findfont 7.60979 sf 0 0 m (0.16) show NC gr  black 1 1 1 c
 gsave  2268 1415 0 0 C 1750.25 810.442 t 0 r /Helvetica-Bold findfont 7.60979 sf 0 0 m (0.03) show NC gr  black 1 1 1 c
 gsave  2268 1415 0 0 C 1887.23 810.442 t 0 r /Helvetica-Bold findfont 7.60979 sf 0 0 m (\2550.26) show NC gr  black 1 1 1 c
 gsave  2268 1415 0 0 C 468.002 913.174 t 0 r /Helvetica-Bold findfont 7.60979 sf 0 0 m (0.05) show NC gr  black 1 1 1 c
 gsave  2268 1415 0 0 C 612.588 913.174 t 0 r /Helvetica-Bold findfont 7.60979 sf 0 0 m (0.09) show NC gr  black 1 1 1 c
 gsave  2268 1415 0 0 C 753.369 913.174 t 0 r /Helvetica-Bold findfont 7.60979 sf 0 0 m (0.09) show NC gr  black 1 1 1 c
 gsave  2268 1415 0 0 C 897.955 913.174 t 0 r /Helvetica-Bold findfont 7.60979 sf 0 0 m (1.00) show NC gr  black 1 1 1 c
 gsave  2268 1415 0 0 C 1038.74 913.174 t 0 r /Helvetica-Bold findfont 7.60979 sf 0 0 m (0.16) show NC gr  black 1 1 1 c
 gsave  2268 1415 0 0 C 1179.52 913.174 t 0 r /Helvetica-Bold findfont 7.60979 sf 0 0 m (0.02) show NC gr  black 1 1 1 c
 gsave  2268 1415 0 0 C 1324.1 913.174 t 0 r /Helvetica-Bold findfont 7.60979 sf 0 0 m (0.02) show NC gr  black 1 1 1 c
 gsave  2268 1415 0 0 C 1464.88 913.174 t 0 r /Helvetica-Bold findfont 7.60979 sf 0 0 m (0.00) show NC gr  black 1 1 1 c
 gsave  2268 1415 0 0 C 1605.67 913.174 t 0 r /Helvetica-Bold findfont 7.60979 sf 0 0 m (\2550.02) show NC gr  black 1 1 1 c
 gsave  2268 1415 0 0 C 1750.25 913.174 t 0 r /Helvetica-Bold findfont 7.60979 sf 0 0 m (0.01) show NC gr  black 1 1 1 c
 gsave  2268 1415 0 0 C 1891.03 913.174 t 0 r /Helvetica-Bold findfont 7.60979 sf 0 0 m (0.00) show NC gr  black 1 1 1 c
 gsave  2268 1415 0 0 C 464.197 1015.91 t 0 r /Helvetica-Bold findfont 7.60979 sf 0 0 m (\2550.06) show NC gr  black 1 1 1 c
 gsave  2268 1415 0 0 C 608.783 1015.91 t 0 r /Helvetica-Bold findfont 7.60979 sf 0 0 m (\2550.09) show NC gr  black 1 1 1 c
 gsave  2268 1415 0 0 C 753.369 1015.91 t 0 r /Helvetica-Bold findfont 7.60979 sf 0 0 m (1.00) show NC gr  black 1 1 1 c
 gsave  2268 1415 0 0 C 897.955 1015.91 t 0 r /Helvetica-Bold findfont 7.60979 sf 0 0 m (0.09) show NC gr  black 1 1 1 c
 gsave  2268 1415 0 0 C 1038.74 1015.91 t 0 r /Helvetica-Bold findfont 7.60979 sf 0 0 m (0.15) show NC gr  black 1 1 1 c
 gsave  2268 1415 0 0 C 1179.52 1015.91 t 0 r /Helvetica-Bold findfont 7.60979 sf 0 0 m (0.11) show NC gr  black 1 1 1 c
 gsave  2268 1415 0 0 C 1324.1 1015.91 t 0 r /Helvetica-Bold findfont 7.60979 sf 0 0 m (0.02) show NC gr  black 1 1 1 c
 gsave  2268 1415 0 0 C 1461.08 1015.91 t 0 r /Helvetica-Bold findfont 7.60979 sf 0 0 m (\2550.03) show NC gr  black 1 1 1 c
 gsave  2268 1415 0 0 C 1605.67 1015.91 t 0 r /Helvetica-Bold findfont 7.60979 sf 0 0 m (\2550.03) show NC gr  black 1 1 1 c
 gsave  2268 1415 0 0 C 1746.45 1015.91 t 0 r /Helvetica-Bold findfont 7.60979 sf 0 0 m (\2550.01) show NC gr  black 1 1 1 c
 gsave  2268 1415 0 0 C 1891.03 1015.91 t 0 r /Helvetica-Bold findfont 7.60979 sf 0 0 m (0.06) show NC gr  black 1 1 1 c
 gsave  2268 1415 0 0 C 464.197 1118.64 t 0 r /Helvetica-Bold findfont 7.60979 sf 0 0 m (\2550.05) show NC gr  black 1 1 1 c
 gsave  2268 1415 0 0 C 612.588 1118.64 t 0 r /Helvetica-Bold findfont 7.60979 sf 0 0 m (1.00) show NC gr  black 1 1 1 c
 gsave  2268 1415 0 0 C 749.564 1118.64 t 0 r /Helvetica-Bold findfont 7.60979 sf 0 0 m (\2550.09) show NC gr  black 1 1 1 c
 gsave  2268 1415 0 0 C 897.955 1118.64 t 0 r /Helvetica-Bold findfont 7.60979 sf 0 0 m (0.09) show NC gr  black 1 1 1 c
 gsave  2268 1415 0 0 C 1038.74 1118.64 t 0 r /Helvetica-Bold findfont 7.60979 sf 0 0 m (0.16) show NC gr  black 1 1 1 c
 gsave  2268 1415 0 0 C 1179.52 1118.64 t 0 r /Helvetica-Bold findfont 7.60979 sf 0 0 m (0.08) show NC gr  black 1 1 1 c
 gsave  2268 1415 0 0 C 1324.1 1118.64 t 0 r /Helvetica-Bold findfont 7.60979 sf 0 0 m (0.02) show NC gr  black 1 1 1 c
 gsave  2268 1415 0 0 C 1461.08 1118.64 t 0 r /Helvetica-Bold findfont 7.60979 sf 0 0 m (\2550.02) show NC gr  black 1 1 1 c
 gsave  2268 1415 0 0 C 1605.67 1118.64 t 0 r /Helvetica-Bold findfont 7.60979 sf 0 0 m (\2550.02) show NC gr  black 1 1 1 c
 gsave  2268 1415 0 0 C 1746.45 1118.64 t 0 r /Helvetica-Bold findfont 7.60979 sf 0 0 m (\2550.01) show NC gr  black 1 1 1 c
 gsave  2268 1415 0 0 C 1891.03 1118.64 t 0 r /Helvetica-Bold findfont 7.60979 sf 0 0 m (0.04) show NC gr  black 1 1 1 c
 gsave  2268 1415 0 0 C 468.002 1221.37 t 0 r /Helvetica-Bold findfont 7.60979 sf 0 0 m (1.00) show NC gr  black 1 1 1 c
 gsave  2268 1415 0 0 C 608.783 1221.37 t 0 r /Helvetica-Bold findfont 7.60979 sf 0 0 m (\2550.05) show NC gr  black 1 1 1 c
 gsave  2268 1415 0 0 C 749.564 1221.37 t 0 r /Helvetica-Bold findfont 7.60979 sf 0 0 m (\2550.06) show NC gr  black 1 1 1 c
 gsave  2268 1415 0 0 C 897.955 1221.37 t 0 r /Helvetica-Bold findfont 7.60979 sf 0 0 m (0.05) show NC gr  black 1 1 1 c
 gsave  2268 1415 0 0 C 1038.74 1221.37 t 0 r /Helvetica-Bold findfont 7.60979 sf 0 0 m (0.15) show NC gr  black 1 1 1 c
 gsave  2268 1415 0 0 C 1179.52 1221.37 t 0 r /Helvetica-Bold findfont 7.60979 sf 0 0 m (0.05) show NC gr  black 1 1 1 c
 gsave  2268 1415 0 0 C 1324.1 1221.37 t 0 r /Helvetica-Bold findfont 7.60979 sf 0 0 m (0.02) show NC gr  black 1 1 1 c
 gsave  2268 1415 0 0 C 1461.08 1221.37 t 0 r /Helvetica-Bold findfont 7.60979 sf 0 0 m (\2550.01) show NC gr  black 1 1 1 c
 gsave  2268 1415 0 0 C 1605.67 1221.37 t 0 r /Helvetica-Bold findfont 7.60979 sf 0 0 m (\2550.01) show NC gr  black 1 1 1 c
 gsave  2268 1415 0 0 C 1746.45 1221.37 t 0 r /Helvetica-Bold findfont 7.60979 sf 0 0 m (\2550.00) show NC gr  black 1 1 1 c
 gsave  2268 1415 0 0 C 1891.03 1221.37 t 0 r /Helvetica-Bold findfont 7.60979 sf 0 0 m (0.02) show NC gr  black
 gsave  2268 1415 0 0 C 905.565 1346.93 t 0 r /Helvetica findfont 64.6832 sf 0 0 m (h_corr_reduced) show NC gr 
 gr  gr showpage
end
%%EOF
